@4000
0A 12 09 12 08 12 07 12 31 80 06 00 09 4D D2 B3 
3B 11 11 24 0F 4C 3F 80 79 00 2F 93 0C 28 0C 49 
B0 12 24 77 B0 12 00 7F 0D 4C 7C 40 7F 00 B0 12 
A8 5B 30 40 8E 44 0F 4C 1F 83 3F 90 1D 00 0A 28 
3F 80 78 00 6C 24 1F 83 64 24 1F 83 3A 24 1F 83 
2B 24 20 3C 0F 5F 10 4F 5A 40 CE 44 94 40 94 40 
0E 44 E2 43 AE 43 9A 43 90 43 94 40 66 43 94 40 
C6 44 28 43 94 40 4A 44 D0 42 B8 42 8A 42 56 42 
DA 41 32 44 AE 41 76 41 12 41 68 41 2A 44 48 41 
3A 41 2C 41 B1 40 1E 80 00 00 81 4C 02 00 2C 43 
B0 12 16 7E 3C 43 F1 3D 09 93 B8 21 B0 12 00 7F 
0D 4C 4C 43 B0 12 A8 5B 0C 93 E9 21 B0 12 82 7E 
8A 3C 09 93 AB 21 4C 43 3D 40 31 00 B0 12 D4 6E 
0C 93 DD 21 3C 40 22 80 3D 40 06 00 B0 12 2E 7A 
0C 93 D5 21 3C 40 2A 80 2D 43 B0 12 2E 7A 0C 93 
CE 21 3C 40 2E 80 3D 40 28 00 B0 12 2E 7A 0C 93 
C6 21 3C 40 58 80 1D 43 B0 12 2E 7A 0C 93 BF 21 
62 3C 09 93 83 21 3C 40 5A 80 1D 43 DF 3D 09 93 
7D 21 3C 40 5C 80 3D 40 14 00 D8 3D 09 93 76 21 
B0 12 70 76 B0 12 24 73 98 3D 09 93 6F 21 B0 12 
70 76 B0 12 8C 59 91 3D 39 90 06 00 67 21 3C 40 
84 11 3D 40 06 00 B0 12 9A 63 0C 93 98 21 3C 40 
84 11 B0 12 00 7A 81 3D 09 93 58 21 B0 12 70 76 
B0 12 E0 7E 7A 3D 19 93 51 21 B0 12 E8 44 87 21 
B0 12 70 76 C2 93 84 11 09 20 3C 40 2B 00 3D 42 
0E 43 B0 12 A0 79 D2 C3 3E 11 67 3D 3C 40 2B 00 
3D 42 1E 43 B0 12 A0 79 D2 D3 3E 11 5E 3D E2 93 
3D 11 02 28 B0 12 4C 64 E2 C2 3C 11 3C 40 50 11 
3D 42 B0 12 B2 7A 0C 93 62 21 82 43 56 11 82 43 
54 11 82 43 50 11 0C 43 83 3D 29 93 1F 21 3C 40 
84 11 2D 43 B0 12 9A 63 0C 93 51 21 B0 12 70 76 
C2 93 84 11 0C 20 B0 12 CC 7E D2 93 3D 11 05 20 
3C 40 6E 00 0D 43 B0 12 68 6E 0C 43 21 3C 0C 43 
B0 12 98 7B 5A 42 85 11 3C 40 19 00 B0 12 C6 70 
4F 4A 0F 9C 03 24 4C 4A B0 12 50 7B D2 93 3D 11 
0E 20 3C 40 6E 00 3D 40 19 00 B0 12 68 6E 1E 42 
70 01 1F 42 70 01 0F 8E 3F 90 FF 10 FA 2B 1C 43 
B0 12 48 66 0A 3D 19 93 E1 20 B0 12 E8 44 17 21 
B0 12 70 76 5A 42 84 11 3C 40 19 00 B0 12 C6 70 
4F 4A 0F 9C 03 24 4C 4A B0 12 50 7B B0 12 88 67 
3A 40 8A 11 8A 4C 00 00 27 3D 29 93 C7 20 3C 40 
84 11 2D 43 B0 12 9A 63 0C 93 F9 20 E2 93 3D 11 
02 28 B0 12 6E 78 B0 12 70 76 5C 42 84 11 5D 42 
85 11 B0 12 3C 6F D9 3C 19 93 B0 20 B0 12 E8 44 
E6 20 B0 12 70 76 5C 42 84 11 B0 12 B6 68 5A 3C 
39 90 03 00 04 24 29 93 A1 20 C2 43 86 11 3C 40 
84 11 B0 12 9A 63 0C 93 D2 20 59 42 86 11 89 10 
5F 42 84 11 09 DF B0 12 70 76 39 B0 40 00 10 24 
5A 42 85 11 8A 11 0A 93 0B 38 3C 40 19 00 B0 12 
C6 70 0A 9C 05 24 5C 42 85 11 8C 11 B0 12 50 7B 
0C 49 B0 12 F8 6D A1 3C 29 92 78 20 3C 40 84 11 
2D 42 B0 12 9A 63 0C 93 AA 20 B0 12 70 76 1C 42 
84 11 2C 93 0B 28 3C 90 06 00 06 28 3C 90 13 00 
05 28 3C 90 1A 00 02 2C E2 D3 3C 11 5D 42 86 11 
B0 12 68 6E 82 3C 29 93 59 20 3C 40 84 11 2D 43 
B0 12 9A 63 0C 93 8B 20 B0 12 70 76 1C 42 84 11 
B0 12 C6 70 3A 40 8A 11 CA 4C 00 00 1D 43 A5 3C 
09 93 44 20 B0 12 5C 77 68 3C 09 93 3F 20 B0 12 
6E 78 E2 B3 3E 11 61 24 B0 12 9E 7D 5E 3C 19 93 
35 20 B0 12 E8 44 6B 20 C2 93 3D 11 06 20 B0 12 
70 76 3C 40 43 11 B0 12 4A 69 C2 93 84 11 4D 24 
3C 40 1A 00 3D 40 0F 00 B0 12 68 6E F2 C2 3A 11 
44 3C 39 90 10 00 1A 2C E2 93 3D 11 02 28 B0 12 
6E 78 B0 12 70 76 3A 40 3E 11 0C 4A 0D 49 B0 12 
9A 63 0C 93 44 20 0C 4A B0 12 AC 5C 2E 3C 09 93 
05 20 3A 40 3E 11 3D 40 0F 00 5F 3C 81 43 00 00 
3C 40 03 00 B0 12 16 7E 3D 3E 0C 49 B0 12 02 57 
57 3C B0 12 70 76 E2 C3 3C 11 3A 40 8A 11 0C 4A 
B0 12 84 6D 3D 40 09 00 48 3C B0 12 70 76 5A 42 
4D 11 08 49 05 3C 92 53 58 11 F2 D0 40 00 3C 11 
4F 4A 08 9F 16 2C 08 93 03 20 0C 43 0D 43 36 3C 
B1 40 70 80 00 00 81 49 02 00 4A 4A 81 4A 04 00 
3C 40 0D 00 B0 12 16 7E 0C 48 B0 12 24 77 3C 43 
27 3C 37 40 8A 11 0C 47 4D 4A B0 12 9A 63 0C 93 
F6 23 4F 4A 08 8F 4D 4A 0C 47 3E 40 A0 0F B0 12 
A6 65 4F 4A 0C 9F CF 27 81 43 00 00 3C 40 05 00 
B0 12 16 7E E1 3F 0C 49 B0 12 80 60 09 3C 3A 40 
8A 11 0C 4A B0 12 96 74 2D 43 0C 4A B0 12 B2 7A 
31 50 06 00 30 40 A8 7E 3C 40 84 11 1D 43 B0 12 
9A 63 0C 93 30 41 0A 12 09 12 08 12 07 12 06 12 
05 12 04 12 31 80 20 00 05 49 06 4A 07 4B 81 4C 
04 00 09 4D 0A 4E 0B 4F 81 48 06 00 81 45 08 00 
05 43 3E 40 1F 00 0E 85 0C 4A 0D 4B B0 12 9E 48 
05 24 15 53 35 90 20 00 F4 3B 03 3C 35 90 20 00 
13 20 18 41 04 00 05 43 3E 40 1F 00 0E 85 0C 48 
0D 49 B0 12 9E 48 06 24 15 53 35 90 20 00 F4 3B 
35 40 20 00 35 50 20 00 81 46 00 00 81 47 02 00 
08 46 04 47 0F 43 B0 12 7E 48 05 24 1F 53 3F 90 
20 00 F9 3B 03 3C 3F 90 20 00 10 20 18 41 06 00 
14 41 08 00 0F 43 B0 12 7E 48 06 24 1F 53 3F 90 
20 00 F9 3B 3F 40 20 00 3F 50 20 00 05 8F 81 45 
14 00 07 9B 17 28 0C 20 06 9A 14 28 09 20 81 99 
08 00 10 28 05 20 18 41 04 00 81 98 06 00 0A 28 
07 93 0D 20 06 93 0B 20 81 93 08 00 08 20 81 93 
06 00 05 20 0C 43 0D 43 0E 43 0F 43 44 3D 0B 93 
0D 20 0A 93 0B 20 09 93 09 20 18 41 04 00 08 93 
05 20 3C 43 3D 43 3E 43 3F 43 35 3D 91 41 06 00 
18 00 91 41 08 00 1A 00 81 46 1C 00 81 47 1E 00 
18 41 04 00 0C 45 B0 12 4E 74 05 4D 06 4E 07 4F 
81 4C 16 00 2A 41 1B 41 02 00 0F 43 B0 12 8E 48 
05 24 1F 53 3F 90 20 00 F9 3B 03 3C 3F 90 20 00 
10 20 1A 41 06 00 1B 41 08 00 0F 43 B0 12 8E 48 
06 24 1F 53 3F 90 20 00 F9 3B 3F 40 20 00 3F 50 
20 00 04 43 0F 93 01 20 14 43 08 44 09 43 0A 43 
0B 43 1C 41 14 00 B0 12 4E 74 81 4C 0C 00 81 4D 
0E 00 81 4E 10 00 81 4F 12 00 81 97 1E 00 0E 28 
20 20 81 96 1C 00 0A 28 1C 20 81 95 1A 00 06 28 
18 20 1E 41 16 00 81 9E 18 00 13 2C 12 C3 1F 41 
12 00 0F 10 81 4F 12 00 1F 41 10 00 0F 10 81 4F 
10 00 0F 4D 0F 10 81 4F 0E 00 0F 4C 0F 10 81 4F 
0C 00 0F 43 0F 93 07 20 0F 93 05 20 0F 43 0F 93 
02 20 04 93 35 24 81 97 1E 00 1F 28 0D 20 81 96 
1C 00 1B 28 09 20 81 95 1A 00 17 28 05 20 1E 41 
16 00 81 9E 18 00 11 28 1E 41 16 00 81 8E 18 00 
81 75 1A 00 81 76 1C 00 81 77 1E 00 12 C3 07 10 
06 10 05 10 0F 4E 0F 10 10 3C 12 C3 07 10 06 10 
05 10 1F 41 16 00 0F 10 0E 4F 81 8E 18 00 81 75 
1A 00 81 76 1C 00 81 77 1E 00 81 4F 16 00 02 3C 
91 53 14 00 1F 41 14 00 1F 93 58 38 1D 41 16 00 
0E 45 0F 46 08 47 0D 5D 0E 6E 0F 6F 08 68 81 4D 
06 00 81 4E 08 00 81 4F 0A 00 1B 41 14 00 1D 41 
18 00 1E 41 1A 00 1F 41 1C 00 1A 41 1E 00 0D 5D 
0E 6E 0F 6F 0A 6A 81 4D 00 00 81 4E 02 00 81 4F 
04 00 0C 4A 1D 81 06 00 1E 71 08 00 14 41 0A 00 
0F 74 0C 78 1D D3 0E D3 0F D3 0C D3 19 41 1E 00 
09 97 18 28 10 20 19 41 1C 00 09 96 13 28 0B 20 
19 41 1A 00 09 95 0E 28 06 20 14 41 16 00 19 41 
18 00 09 94 07 28 81 4D 00 00 81 4E 02 00 81 4F 
04 00 0A 4C A1 41 18 00 91 41 02 00 1A 00 91 41 
04 00 1C 00 81 4A 1E 00 1B 83 B9 23 1F 41 14 00 
0F 93 21 24 37 40 40 00 07 8F 18 41 18 00 19 41 
1A 00 1A 41 1C 00 1B 41 1E 00 0C 47 B0 12 4E 74 
08 4C 09 4D 0A 4E 0B 4F 0C 47 B0 12 04 74 1C D1 
0C 00 1A 41 0E 00 19 41 10 00 18 41 12 00 0D DA 
0E D9 0F D8 08 3C 1C 41 0C 00 1D 41 0E 00 1E 41 
10 00 1F 41 12 00 31 50 20 00 30 40 A2 7E 3E 40 
1F 00 0E 8F 0C 48 0D 44 B0 12 9E 48 30 41 3E 40 
1F 00 0E 8F 0C 4A 0D 4B B0 12 9E 48 30 41 B0 12 
4C 7E 3C E3 1C B3 30 41 0A 12 09 12 08 12 07 12 
06 12 05 12 04 12 31 80 10 00 81 4C 00 00 E2 B3 
3E 11 10 25 C2 93 3D 11 0D 21 D2 83 64 11 0A 21 
F2 40 64 00 64 11 B0 12 AC 5E B1 40 76 11 0E 00 
B1 40 75 11 0C 00 3A 40 74 11 81 4A 0A 00 39 40 
62 11 0F 43 81 4F 08 00 81 4F 06 00 81 4F 02 00 
1F 41 0E 00 CF 93 00 00 3A 20 3F 40 15 00 0F 59 
3E 40 14 00 0E 59 EE 4F 00 00 17 42 70 01 35 40 
10 27 06 43 04 43 03 3C 07 5F 05 8F 06 73 B0 12 
16 4B 3C 40 75 00 B0 12 C6 70 08 4C 38 B0 20 00 
F8 27 B0 12 08 4B 38 F0 1F 00 04 98 07 2C 04 48 
6E 4A 0F 44 3F 50 03 00 0E 9F 11 28 1F 42 70 01 
0F 87 05 9F E1 2F 06 93 DF 23 CA 44 00 00 7F 40 
03 00 CA 4F 02 00 CA 4F 03 00 CA 43 01 00 B0 12 
16 4B 3C 40 75 00 B0 12 C6 70 08 4C 38 B0 20 00 
F8 27 B0 12 08 4B 1F 41 0C 00 CF 93 00 00 33 24 
14 42 70 01 35 40 E8 03 06 43 08 43 14 3C 1E 41 
04 00 A1 52 0A 00 A1 52 0C 00 2A 52 29 52 A1 52 
0E 00 1F 42 70 01 0F 8E 3F 90 E9 03 99 2F F9 3F 
04 5F 05 8F 06 73 B0 12 16 4B 3C 40 75 00 B0 12 
C6 70 07 4C 37 B0 20 00 F8 27 B0 12 08 4B 37 F0 
1F 00 08 97 01 2C 08 47 1F 42 70 01 0F 84 05 9F 
E7 2F 06 93 E5 23 B1 50 03 00 06 00 1F 41 06 00 
3F 90 0A 00 08 2C 3C 40 6F 00 0D 4F B0 12 68 6E 
91 42 70 01 04 00 3F 40 F6 80 1F 51 08 00 38 F0 
1F 00 1E 41 0A 00 6D 4E 0E 48 3E 50 03 00 0E 9D 
27 28 D9 49 15 00 14 00 C9 93 13 00 13 20 1E 41 
0A 00 6E 4E 0E 98 2E 2C 1E 41 0A 00 CE 48 00 00 
7E 40 03 00 C9 4E 14 00 C9 4E 15 00 D9 43 13 00 
6F 4F 21 3C DA 83 01 00 6E 4A 4D 4E 0D 98 03 2C 
CA 48 00 00 4E 48 4E 4E 18 53 08 9E 13 28 F0 3F 
DA 83 02 00 0A 20 FA 90 80 00 03 00 03 28 FA 43 
03 00 03 3C DA 5A 03 00 03 00 CA 93 01 00 02 24 
DA 83 01 00 0F 43 81 DF 02 00 1E 41 02 00 91 53 
08 00 1F 41 08 00 2F 92 72 2B 0A 4E 0A 93 03 20 
B0 12 FC 7B 07 3C B0 12 FC 7B B0 12 70 76 0C 4A 
B0 12 C4 52 81 93 00 00 0B 20 E2 93 3D 11 08 28 
D2 83 63 11 05 20 F2 40 05 00 63 11 B0 12 4C 64 
31 50 10 00 30 40 A2 7E 3C 40 74 00 3D 40 19 00 
B0 12 68 6E 30 41 3C 40 74 00 3D 40 1B 00 B0 12 
68 6E 30 41 0A 12 09 12 08 12 21 83 C2 93 3D 11 
09 20 D2 B3 3E 11 06 24 3C 40 2B 00 3D 40 28 00 
B0 12 68 6E D2 C3 2B 00 05 3D 3C 40 36 00 B0 12 
C6 70 08 4C 3C 40 37 00 B0 12 C6 70 09 4C 0F 48 
0F D9 0F 93 06 20 81 43 00 00 3C 40 0B 00 B0 12 
16 7E 0A 43 08 93 4A 24 38 B0 10 00 0B 24 3C 40 
31 00 3D 40 10 00 B0 12 68 6E 1C 43 B0 12 98 7B 
E2 D2 3A 11 38 B2 02 24 B0 12 60 4D 28 B2 02 24 
B0 12 60 4D 18 B3 03 24 1C 43 B0 12 98 7B 28 B3 
25 24 3C 40 38 00 B0 12 C6 70 0A 4C 3A B2 09 24 
3C 40 38 00 3D 40 F7 FF B0 12 68 6E 1C 43 B0 12 
98 7B 2A B2 0C 24 3C 40 1A 00 3D 40 FF 00 B0 12 
68 6E 3C 40 38 00 3D 40 FB FF B0 12 68 6E F2 D2 
3A 11 3C 40 31 00 2D 43 B0 12 68 6E C2 D8 A3 11 
0D 48 3D E3 3C 40 2E 00 B0 12 68 6E 09 93 9E 24 
39 B0 10 00 04 24 0C 4A B0 12 06 70 0A 4C 39 B2 
53 24 C2 93 3D 11 50 20 3C 40 30 00 3D 40 0F 00 
B0 12 68 6E 3C 40 34 00 3D 40 1F 00 B0 12 68 6E 
5D 42 69 11 3C 40 6B 00 B0 12 68 6E 3C 40 3C 00 
2D 43 B0 12 68 6E F2 B0 10 00 18 00 31 20 F2 42 
3D 11 5D 42 47 11 3C 40 05 00 B0 12 68 6E 58 42 
45 11 4D 48 2C 42 B0 12 68 6E C2 48 4D 11 58 42 
46 11 4D 48 2C 43 B0 12 68 6E C2 48 4E 11 3C 40 
45 00 B0 12 C6 70 0D 4C 3C 40 19 00 B0 12 68 6E 
3C 40 17 00 B0 12 C6 70 3C F0 03 00 3C 90 03 00 
09 24 3C 40 06 00 3D 40 AA 00 B0 12 68 6E 02 3C 
D2 43 3D 11 E2 D3 3C 11 29 B2 1C 24 E2 B3 62 11 
19 20 B0 12 B2 7D 3C 40 1A 00 3D 40 F0 00 B0 12 
68 6E 3C 40 30 00 3D 40 10 00 B0 12 68 6E 3C 40 
34 00 3D 40 20 00 B0 12 68 6E F2 40 06 00 3D 11 
E2 D3 3A 11 39 B0 20 00 06 24 3C 40 35 00 3D 40 
20 00 B0 12 68 6E 29 B3 0B 24 B0 12 60 4D 3C 40 
21 00 B0 12 C6 70 3C B0 80 00 02 20 E2 D3 3C 11 
19 B3 04 24 82 43 6A 11 82 43 6C 11 C2 D9 A4 11 
0D 49 3D E3 3C 40 32 00 B0 12 68 6E C2 DA A5 11 
D2 C3 2B 00 D2 B3 28 00 F8 22 21 53 30 40 AA 7E 
1C 43 B0 12 98 7B 1C 43 B0 12 5C 7C 30 41 0A 12 
09 12 08 12 07 12 06 12 05 12 31 80 72 00 09 4F 
06 4E 81 4D 04 00 0A 4C 17 41 80 00 25 4A 2C 4A 
B0 12 70 7E 08 4C 08 55 81 43 02 00 05 98 C3 2C 
81 43 06 00 C1 43 0C 00 81 43 08 00 B1 43 0A 00 
0D 3C 2F 4A CF 93 00 00 B6 24 0E 4F 1E 53 8A 4E 
00 00 6C 4F 0D 46 89 12 91 53 02 00 3E 40 25 00 
2F 4A 6E 9F EE 23 9A 53 00 00 0C 41 3C 50 06 00 
0D 4A B0 12 66 75 0C 41 3C 50 06 00 0E 41 2E 52 
B0 12 AE 5D 2F 4A 6F 4F 3F 80 68 00 11 24 2F 82 
1F 20 9A 53 00 00 2F 4A 3E 40 6C 00 6E 9F 04 24 
B1 D0 40 00 06 00 14 3C B1 D0 00 01 06 00 0E 3C 
9A 53 00 00 2F 4A 3E 40 68 00 6E 9F 04 24 B1 D0 
20 00 06 00 05 3C B1 D0 00 02 06 00 9A 53 00 00 
2E 4A 0F 4E 1F 53 8A 4F 00 00 6F 4E C1 4F 0C 00 
3F 90 6E 00 23 24 3F 90 73 00 13 24 0C 41 3C 50 
0E 00 0D 41 3D 50 06 00 0E 41 2E 52 B0 12 06 51 
0E 4C 0C 41 3C 50 0E 00 0D 46 87 12 81 5C 02 00 
4F 3C 81 49 00 00 0C 41 3C 50 06 00 0D 46 0E 41 
2E 52 0F 41 2F 53 B0 12 FA 64 42 3C 3F 40 60 07 
1F F1 06 00 3F 80 20 00 34 24 3F 80 20 00 22 24 
3F 80 C0 00 0B 24 3F 80 00 01 2B 20 B0 12 32 4F 
1F 4F FE FF DF 41 02 00 00 00 2A 3C B0 12 32 4F 
1C 41 02 00 3C B0 00 80 0D 7D 3D E3 0E 4D 1F 4F 
FE FF 8F 4C 00 00 8F 4D 02 00 8F 4D 04 00 8F 4E 
06 00 16 3C B0 12 32 4F 1D 41 02 00 3D B0 00 80 
0E 7E 3E E3 1F 4F FE FF 8F 4D 00 00 8F 4E 02 00 
07 3C B0 12 32 4F 1F 4F FE FF 9F 41 02 00 00 00 
8A 98 00 00 3D 2B 1C 41 02 00 31 50 72 00 30 40 
A4 7E 2F 43 1F 51 06 00 81 4F 06 00 30 41 0A 12 
09 12 08 12 21 82 0D 4C 3C 40 19 00 B0 12 68 6E 
3C 40 25 00 3D 40 80 00 B0 12 68 6E F2 F0 EF 00 
A3 11 3C 40 30 00 3D 40 10 00 B0 12 68 6E 3C 40 
2A 00 3D 40 1A 00 B0 12 68 6E 1A 42 70 01 38 40 
29 19 09 43 0A 3C 1F 42 70 01 0F 8A 08 9F 02 2C 
09 93 64 24 0A 5F 08 8F 09 73 F2 B0 10 00 A3 11 
F2 27 0C 41 3D 40 03 00 0E 43 B0 12 EA 66 0C 93 
EA 27 5F 41 02 00 5E 42 41 11 0F 9E 08 20 D1 92 
40 11 01 00 04 20 D1 92 3F 11 00 00 09 24 5E 41 
01 00 0E DF 6F 41 0E DF 0E 93 D5 23 E2 D3 62 11 
3C 40 06 00 B0 12 6A 6A E2 C2 3A 11 5F 42 44 11 
3F F0 03 00 3F 90 03 00 06 24 3C 40 06 00 3D 40 
AA 00 B0 12 68 6E 5D 42 47 11 3C 40 05 00 B0 12 
68 6E 5A 42 45 11 4D 4A 2C 42 B0 12 68 6E C2 4A 
4D 11 E2 B3 62 11 07 20 B0 12 EC 76 0C 93 16 24 
B0 12 BA 50 30 3C 3C 40 13 00 0D 43 B0 12 68 6E 
3C 40 14 00 0D 43 B0 12 68 6E 3C 40 15 00 0D 43 
B0 12 68 6E B0 12 EC 76 0C 93 0F 20 3C 40 06 00 
B0 12 6A 6A E2 C2 3A 11 E2 B3 62 11 04 24 B0 12 
E0 50 E2 C3 62 11 0C 43 1D 3C 2C 42 B0 12 6A 6A 
B0 12 E0 50 B0 12 BA 50 B0 12 68 6E F2 42 3D 11 
3C 40 2A 00 0D 43 B0 12 68 6E 5F 42 44 11 3F F0 
03 00 3F 90 03 00 03 20 2C 43 B0 12 F8 6D E2 D3 
3C 11 1C 43 21 52 30 40 AA 7E 3C 40 25 00 3D 40 
17 00 B0 12 68 6E 5A 42 46 11 4D 4A 2C 43 B0 12 
68 6E C2 4A 4E 11 3C 40 63 00 3D 40 3F 00 30 41 
5D 42 41 11 3C 40 13 00 B0 12 68 6E 5D 42 40 11 
3C 40 14 00 B0 12 68 6E 5D 42 3F 11 3C 40 15 00 
B0 12 68 6E 30 41 0A 12 09 12 08 12 07 12 06 12 
05 12 21 82 07 4E 06 4D 05 4C 18 46 02 00 08 55 
3A 40 63 00 0A 55 81 4A 00 00 81 43 02 00 3D 40 
20 00 3E 40 64 00 B0 12 EE 7D 2F 41 CF 43 00 00 
3E 40 62 00 0E 55 81 4E 00 00 09 43 5F 46 06 00 
3F 80 25 00 16 24 3F 80 33 00 1B 24 3F 80 0B 00 
20 24 1F 83 16 24 3F 80 05 00 13 24 3F 80 06 00 
2F 93 0F 28 3F 80 06 00 0C 24 3F 80 03 00 09 24 
1E 3C 0C 45 3D 40 98 80 2E 43 B0 12 5E 7E 1C 43 
96 3C 0C 46 0D 41 2D 53 0E 41 0F 47 B0 12 66 58 
0E 3C A7 53 00 00 2F 47 5F 4F FE FF 4F 93 01 20 
19 43 CE 4F 00 00 91 83 00 00 A6 C3 00 00 2F 46 
07 43 2F B3 0F 24 5E 46 06 00 7E 90 75 00 0A 24 
7E 90 6F 00 07 24 7E 90 78 00 04 24 7E 90 58 00 
01 24 17 43 81 93 02 00 07 20 07 93 0C 24 2F 41 
FF 40 2B 00 00 00 04 3C 2F 41 FF 40 2D 00 00 00 
91 83 00 00 2F 46 0E 47 1E D1 02 00 0E 93 09 20 
2F B2 07 24 2F 41 FF 40 20 00 00 00 91 83 00 00 
2F 46 1F B3 09 20 0F 4A 2F 81 86 9F 02 00 04 38 
0A 48 0A 8F 1A 53 01 3C 0A 45 1D 43 2D 51 0C 4A 
0E 43 3F 40 64 00 B0 12 DC 7A 81 4C 00 00 09 93 
04 24 CC 43 00 00 91 53 00 00 28 91 0B 28 2C 41 
1C 83 0E 48 2E 81 1E 53 3D 40 20 00 B0 12 EE 7D 
C8 43 00 00 3F 40 10 00 2F B6 16 24 0E 4A 0E 85 
0C 45 3D 40 30 00 B0 12 EE 7D 17 D1 02 00 07 93 
03 20 2F 42 2F B6 0F 24 0A 95 0D 24 E5 4A 00 00 
FA 40 30 00 00 00 07 3C 0E 4A 0E 85 0C 45 3D 40 
20 00 B0 12 EE 7D 0C 45 B0 12 70 7E 0C 59 21 52 
30 40 A4 7E 0A 12 09 12 08 12 07 12 06 12 05 12 
04 12 31 80 06 00 28 42 0E 41 3D 40 F6 80 0F 43 
0A 4F CD BC 00 00 0A 24 0B 4F 0B 5B 0B 5B 5B 4B 
74 11 49 4B 0A 99 02 2C 4A 4B 07 4F 1D 53 1F 53 
2F 92 EF 2B 0A 93 0A 24 CE 47 00 00 5F 47 F6 80 
0C CF 0C 93 03 24 1E 53 18 83 DF 23 1E 53 FE 43 
00 00 2C 43 3D 40 03 00 B0 12 68 6E F2 40 03 00 
4E 11 3C 40 63 00 0D 43 B0 12 68 6E C2 93 44 11 
06 24 5D 42 44 11 3C 40 17 00 B0 12 68 6E 04 41 
06 43 0A 46 65 44 75 93 67 24 4F 45 09 4F 09 59 
09 5F 07 43 0F 47 0F 59 58 4F CC 80 78 93 58 24 
4F 48 0F EA 1F B3 3B 24 58 B3 1B 20 3C 40 09 00 
3D 40 9A 00 B0 12 68 6E 3C 40 0A 00 3D 40 29 00 
B0 12 68 6E 3C 40 0B 00 3D 40 8F 00 B0 12 68 6E 
3C 40 0C 00 3D 40 4D 00 B0 12 68 6E 3D 40 B1 00 
1A 3C 3C 40 09 00 3D 40 6A 00 B0 12 68 6E 3C 40 
0A 00 3D 40 E3 00 B0 12 68 6E 3C 40 0B 00 3D 40 
48 00 B0 12 68 6E 3C 40 0C 00 3D 40 C5 00 B0 12 
68 6E 3D 40 E6 00 3C 40 0D 00 B0 12 68 6E 4A 48 
4C 48 B0 12 3E 4F 0C 93 05 20 17 53 37 90 03 00 
B1 2B 0E 3C 3F 40 75 11 2E 42 CF 43 00 00 2F 52 
1E 83 FB 23 4C 45 B0 12 BA 7C E2 43 64 11 06 3C 
14 53 16 53 26 92 96 2B B0 12 6E 78 31 50 06 00 
30 40 A2 7E 0A 12 09 12 08 12 08 4C 5A 48 06 00 
3A 90 70 00 A0 24 0C 43 0B 43 0E 43 0F 43 39 40 
60 07 29 F8 39 80 20 00 77 24 39 80 20 00 4F 24 
39 80 C0 00 2E 24 39 80 00 01 13 24 3A 80 58 00 
8C 24 3A 80 0C 00 7B 24 3A 80 05 00 78 24 3A 80 
06 00 83 24 3A 80 06 00 80 24 3A 80 03 00 83 20 
7C 3C 3A 80 58 00 0F 24 3A 80 0C 00 68 24 3A 80 
05 00 65 24 3A 80 06 00 06 24 3A 80 06 00 03 24 
3A 80 03 00 70 20 AD 53 00 00 2D 4D 5C 4D FE FF 
69 3C 3A 80 58 00 0F 24 3A 80 0C 00 0C 24 3A 80 
05 00 09 24 3A 80 06 00 06 24 3A 80 06 00 03 24 
3A 80 03 00 58 20 BD 52 00 00 2F 4D 1C 4F F8 FF 
1B 4F FA FF 1E 4F FC FF 1F 4F FE FF 4C 3C 3A 80 
58 00 0F 24 3A 80 0C 00 12 24 3A 80 05 00 0F 24 
3A 80 06 00 06 24 3A 80 06 00 03 24 3A 80 03 00 
3A 20 AD 52 00 00 2D 4D 1B 4D FE FF 0A 3C AD 52 
00 00 2D 4D 1B 4D FE FF 3B B0 00 80 0E 7E 3E E3 
0F 4E 1C 4D FC FF 27 3C 3A 80 58 00 1E 24 3A 80 
0C 00 0D 24 3A 80 05 00 0A 24 3A 80 06 00 15 24 
3A 80 06 00 12 24 3A 80 03 00 15 20 0E 3C AD 53 
00 00 2F 4D 1C 4F FE FF 3C B0 00 80 0B 7B 3B E3 
0E 4B 0F 4B 08 3C 0E 43 0F 43 AD 53 00 00 2D 4D 
1C 4D FE FF 0B 43 0D 4B 30 40 AA 7E 0A 12 09 12 
08 12 07 12 06 12 05 12 21 83 5A 42 2D 00 1A F3 
D2 C3 2D 00 3C 40 19 00 B0 12 C6 70 05 4C 3C 40 
38 00 3D 40 FE FF B0 12 68 6E 3C 40 19 00 3D 40 
03 00 B0 12 68 6E 3C 40 79 00 3D 42 B0 12 68 6E 
3C 40 6E 00 1D 43 B0 12 68 6E 1E 42 70 01 1F 42 
70 01 0F 8E 3F 90 41 1F FA 2B 3C 40 79 00 B0 12 
C6 70 07 4C 3C 40 79 00 0D 47 B0 12 68 6E 3C 40 
78 00 B0 12 C6 70 0D 4C 3C 40 78 00 B0 12 68 6E 
3C 40 6E 00 0D 43 B0 12 68 6E 37 B0 10 00 06 20 
81 43 00 00 3C 40 10 00 B0 12 28 7E 06 43 0C 3C 
17 83 36 43 04 3C 06 93 48 38 17 53 16 43 3C 40 
79 00 0D 47 B0 12 68 6E 09 43 08 49 38 90 03 00 
01 20 28 42 3C 40 19 00 0D 48 B0 12 68 6E 3C 40 
6E 00 1D 43 B0 12 68 6E 1E 42 70 01 1F 42 70 01 
0F 8E 3F 90 FA 07 FA 2B 3C 40 38 00 B0 12 C6 70 
1C B3 0B 24 3C 40 38 00 3D 40 FE FF B0 12 68 6E 
1C 43 0D 48 B0 12 86 7A 09 DC 3C 40 6E 00 0D 43 
B0 12 68 6E 18 53 38 90 0A 00 D0 2B 3F 40 07 00 
0F F9 0F 93 03 24 39 B0 F0 03 BD 27 39 B0 00 03 
04 24 0F 93 02 20 16 93 B3 3B 09 93 06 24 81 43 
00 00 3C 40 11 00 B0 12 28 7E 0A 93 02 24 D2 D3 
2D 00 3C 40 19 00 0D 45 B0 12 68 6E 21 53 30 40 
A4 7E 0A 12 09 12 08 12 07 12 31 80 06 00 0C 93 
15 24 1C 93 0B 24 81 43 00 00 3C 40 03 00 B0 12 
16 7E 3C 43 B0 12 24 77 3C 43 99 3C 3C 40 84 11 
1D 43 B0 12 9A 63 0C 93 03 24 F6 3F C2 43 84 11 
E2 93 3D 11 02 28 B0 12 4C 64 C2 93 84 11 03 24 
F2 D0 46 00 3C 11 38 40 8A 11 0C 48 B0 12 96 74 
57 42 8A 11 2F 43 6F B8 03 24 3D 40 0D 00 02 3C 
3D 40 03 00 4A 47 2A F2 0A 93 02 24 3D 50 09 00 
49 47 39 F0 40 00 09 93 02 24 3D 50 07 00 4C 43 
B0 12 D4 6E 0C 93 C8 23 E1 43 02 00 0C 41 2C 53 
1D 43 B0 12 2E 7A 0C 93 BF 23 5D 41 02 00 0C 48 
B0 12 2E 7A 0C 93 B8 23 67 B3 17 24 E2 C3 3C 11 
0C 48 B0 12 84 6D F1 40 09 00 03 00 0C 41 3C 50 
03 00 1D 43 B0 12 2E 7A 0C 93 A6 23 5D 41 03 00 
0C 48 B0 12 2E 7A 0C 93 9F 23 0A 93 19 24 E2 C2 
3C 11 F1 42 04 00 0C 41 2C 52 1D 43 B0 12 2E 7A 
0C 93 92 23 3C 40 50 11 5D 41 04 00 B0 12 2E 7A 
0C 93 8A 23 82 43 56 11 82 43 54 11 82 43 50 11 
09 93 1C 24 F2 F0 BF 00 3C 11 F1 40 06 00 05 00 
0C 41 3C 50 05 00 1D 43 B0 12 2E 7A 0C 93 74 23 
3C 40 58 11 5D 41 05 00 B0 12 2E 7A 0C 93 6C 23 
82 43 58 11 82 43 5A 11 82 43 5C 11 0C 43 31 50 
06 00 30 40 A8 7E 0A 12 09 12 08 12 07 12 31 80 
06 00 0A 4D 0D 4F 08 4E 09 4C 89 93 04 00 04 38 
B9 F0 EF FF 00 00 02 3C 99 43 04 00 5F 49 06 00 
3F 80 58 00 0A 24 3F 80 17 00 0A 24 1F 83 05 24 
3F 82 03 24 37 40 0A 00 04 3C 37 40 10 00 01 3C 
37 42 B0 12 34 54 89 93 04 00 0B 20 0F 93 09 20 
0E 93 07 20 0D 93 05 20 0C 93 03 20 3B 42 2B B9 
59 24 5B 49 06 00 7B 90 64 00 03 24 7B 90 69 00 
0E 20 0F 93 0C 34 9A 43 00 00 3C E3 3D E3 3E E3 
3F E3 1C 53 0D 63 0E 63 0F 63 5B 49 06 00 81 47 
00 00 C1 4B 02 00 81 48 04 00 B0 12 A2 5A 3E 40 
30 00 07 3C 2D 48 0F 4D 1F 83 88 4F 00 00 CD 4E 
00 00 1C 53 89 9C 04 00 F5 37 5F 49 06 00 7F 90 
78 00 03 24 7F 90 58 00 14 20 3D 42 2D B9 11 24 
2D 48 0F 4D 1F 83 88 4F 00 00 DD 49 06 00 00 00 
2D 48 0F 4D 1F 83 88 4F 00 00 CD 4E 00 00 5F 49 
06 00 3F 90 6F 00 0E 20 3F 42 2F B9 0B 24 2F 48 
FF 90 30 00 01 00 06 24 0D 4F 1D 83 88 4D 00 00 
CF 4E 00 00 31 50 06 00 30 40 A8 7E 3C 42 B0 12 
14 7D 3C 40 1A 00 3D 40 0F 00 B0 12 68 6E 3C 40 
31 00 3D 40 FF 00 B0 12 68 6E 3C 40 35 00 3D 40 
FF 00 B0 12 68 6E D2 C3 2C 00 D2 C3 2B 00 D2 D3 
2D 00 B0 12 0C 7F B0 12 D6 7E B0 12 CC 7E 3C 40 
62 11 0D 43 3E 40 22 00 B0 12 EE 7D F2 40 10 00 
69 11 B0 12 B0 76 F2 F0 E1 00 3A 11 C2 43 3D 11 
B0 12 DA 7D 2C 42 B0 12 14 7D 3C 40 63 00 3D 40 
3F 00 B0 12 68 6E 3C 40 72 00 3D 40 15 00 B0 12 
68 6E 3C 40 4D 00 0D 43 B0 12 68 6E 3C 40 62 00 
3D 40 12 00 B0 12 68 6E 3C 40 7B 00 0D 43 B0 12 
68 6E 3C 40 51 00 3D 40 0F 00 B0 12 68 6E 3C 40 
4E 00 3D 40 0D 00 B0 12 68 6E 3C 40 4F 00 3D 40 
1F 00 B0 12 68 6E 3C 40 50 00 3D 40 12 00 B0 12 
68 6E 3C 40 20 00 B0 12 F8 6D 3C 40 47 00 3D 40 
06 00 B0 12 68 6E 3C 40 48 00 3D 40 F3 00 B0 12 
68 6E 3C 40 49 00 3D 40 0D 00 B0 12 68 6E B0 12 
A4 6F B0 12 70 73 C2 4C 69 11 3C 40 3E 11 30 40 
AC 5C 0A 12 09 12 08 12 07 12 06 12 05 12 04 12 
31 80 18 00 81 4C 0E 00 05 4D 06 4E 07 4F 14 41 
2C 00 5F 41 2A 00 81 4F 0A 00 91 41 28 00 0C 00 
07 93 0F 20 06 93 0D 20 05 93 0B 20 0C 93 09 20 
2E 44 0F 4E 1F 83 84 4F 00 00 FE 40 30 00 00 00 
53 3C 1F 41 0C 00 81 4F 10 00 3F B0 00 80 0F 7F 
3F E3 81 4F 12 00 81 4F 14 00 81 4F 16 00 91 41 
0C 00 00 00 1C 41 0E 00 0D 45 0E 46 0F 47 B0 12 
F6 6A 81 4C 02 00 81 4D 04 00 81 4E 06 00 81 4F 
08 00 18 41 10 00 19 41 12 00 0A 49 0B 4A B0 12 
20 68 1B 41 0E 00 0B 8C 05 7D 06 7E 07 7F 1F 41 
0A 00 7F 90 58 00 05 20 3B 50 10 00 05 63 06 63 
07 63 2E 44 0F 4E 1F 83 84 4F 00 00 3B 50 76 80 
EE 4B 00 00 1F 41 02 00 81 4F 0E 00 15 41 04 00 
16 41 06 00 17 41 08 00 07 93 C1 23 06 93 BF 23 
05 93 BD 23 0F 93 BB 23 2C 44 B0 12 70 7E 1C 83 
31 50 18 00 30 40 A2 7E 0A 12 09 12 08 12 07 12 
06 12 05 12 31 80 0A 00 09 4D 06 4C B1 40 9A 80 
00 00 91 49 02 00 02 00 0C 41 2C 52 B0 12 94 77 
2C 49 B0 12 70 7E 07 4C 0C 41 2C 52 B0 12 70 7E 
08 4C 2A 42 0A 59 2C 42 0C 59 B0 12 70 7E 05 4C 
0D 47 0D 58 0D 5D 0D 55 3D 50 18 00 0C 46 B0 12 
D4 6E 0C 93 4C 20 2C 49 0D 47 B0 12 2E 7A 0C 93 
46 20 3C 40 9E 80 1D 43 B0 12 2E 7A 0C 93 3F 20 
0C 41 2C 52 0D 48 B0 12 2E 7A 0C 93 38 20 3C 40 
A0 80 2D 43 B0 12 2E 7A 0C 93 31 20 3C 40 A4 80 
3D 40 10 00 B0 12 2E 7A 0C 93 29 20 3C 40 A0 80 
2D 43 B0 12 2E 7A 0C 93 22 20 2C 49 0D 47 B0 12 
2E 7A 0C 93 1C 20 3C 40 9E 80 1D 43 B0 12 2E 7A 
0C 93 15 20 0C 41 2C 52 0D 48 B0 12 2E 7A 0C 93 
0E 20 3C 40 B6 80 1D 43 B0 12 2E 7A 0C 93 07 20 
1D 43 0D 55 0C 4A B0 12 2E 7A 0C 93 02 24 3C 43 
01 3C 0C 43 31 50 0A 00 30 40 A4 7E 0D 4C 3D 90 
3E 11 06 24 3C 40 3E 11 3E 40 0F 00 B0 12 5E 7E 
F2 40 05 00 63 11 D2 B3 3E 11 03 20 3D 40 20 00 
02 3C 3D 40 28 00 3C 40 2B 00 B0 12 68 6E 5D 42 
42 11 3C 40 16 00 B0 12 68 6E 5D 42 41 11 3C 40 
13 00 B0 12 68 6E 5D 42 40 11 3C 40 14 00 B0 12 
68 6E 5D 42 3F 11 3C 40 15 00 B0 12 68 6E 5D 42 
42 11 3C 40 41 00 B0 12 68 6E 5D 42 41 11 3C 40 
42 00 B0 12 68 6E 5D 42 40 11 3C 40 43 00 B0 12 
68 6E 5D 42 3F 11 3C 40 44 00 B0 12 68 6E E2 B3 
3E 11 0C 20 3C 40 4A 00 3D 40 07 00 B0 12 68 6E 
3C 40 79 00 3D 42 B0 12 68 6E 23 3C 0E 43 0C 4E 
B0 12 BA 7C 1E 53 2E 92 FA 2B D2 43 64 11 3C 40 
4A 00 3D 40 06 00 B0 12 68 6E B0 12 9C 55 3C 40 
79 00 B0 12 C6 70 C2 4C 65 11 3C 40 78 00 B0 12 
C6 70 C2 4C 66 11 3C 40 6D 00 B0 12 C6 70 C2 4C 
67 11 3C 40 43 11 B0 12 4A 69 30 40 E0 7E 0A 12 
09 12 08 12 31 80 0A 00 08 4E 0A 4D 09 4C 3E 40 
2A 00 2F 4A 6E 9F 1D 24 0C 41 0D 43 3E 40 0A 00 
B0 12 EE 7D 2F 4A FF 90 30 00 00 00 09 28 0E 41 
2F 4A FF 90 3A 00 00 00 03 2C B0 12 94 5E F8 2F 
C1 93 00 00 18 24 0C 41 B0 12 32 72 89 4C 02 00 
12 3C A8 53 00 00 2F 48 1F 4F FE FF 0F 93 03 38 
89 4F 02 00 06 3C 3F E3 1F 53 89 4F 02 00 99 D3 
00 00 9A 53 00 00 3E 40 2E 00 2F 4A 6E 9F 2E 20 
9A 53 00 00 2F 4A 3E 40 2A 00 6E 9F 1F 24 0C 41 
0D 43 3E 40 0A 00 B0 12 EE 7D 2F 4A FF 90 30 00 
00 00 09 28 0E 41 2F 4A FF 90 3A 00 00 00 03 2C 
B0 12 94 5E F8 2F C1 93 00 00 04 24 0C 41 B0 12 
32 72 01 3C 0C 43 89 4C 04 00 08 3C A8 53 00 00 
2F 48 99 4F FE FF 04 00 9A 53 00 00 31 50 0A 00 
30 40 AA 7E 0D 4F 1D 53 8A 4D 00 00 1E 53 EE 4F 
FF FF 2F 4A FF 90 30 00 00 00 30 41 0A 12 D2 C3 
2D 00 F2 D0 10 00 19 00 3C 40 2B 00 B0 12 C6 70 
3C 90 20 00 F9 23 3C 40 29 00 3D 40 10 00 B0 12 
68 6E 5D 42 65 11 3C 40 79 00 B0 12 68 6E 5D 42 
66 11 3C 40 78 00 B0 12 68 6E 3C 40 6E 00 1D 43 
B0 12 68 6E 1A 42 70 01 3C 40 4A 00 2D 43 B0 12 
68 6E 3C 40 27 00 0D 43 B0 12 68 6E 3C 40 69 00 
3D 40 0F 00 B0 12 68 6E 5D 42 67 11 3C 40 6D 00 
B0 12 68 6E D2 B3 28 00 FD 27 1F 42 70 01 0F 8A 
3F 90 6D 07 FA 2B 3C 40 6A 00 3D 40 23 00 B0 12 
68 6E 3C 40 E2 00 3D 40 F0 00 B0 12 68 6E 3C 40 
6E 00 3D 40 11 00 B0 12 68 6E 1F 42 70 01 0F 8A 
3F 90 8A 08 FA 2B 3C 40 74 00 3D 40 19 00 B0 12 
68 6E 1F 42 70 01 0F 8A 3F 90 99 08 FA 2B 3C 40 
37 00 B0 12 C6 70 3C B0 10 00 03 24 0C 43 B0 12 
06 70 3A 41 30 41 0A 12 B2 40 80 5A 20 01 C2 43 
21 00 C2 43 22 00 C2 43 29 00 F2 40 F6 00 2A 00 
F2 40 11 00 19 00 F2 40 F1 00 1A 00 F2 40 17 00 
1D 00 F2 40 DF 00 1E 00 C2 43 31 00 F2 40 F0 00 
32 00 C2 43 35 00 F2 43 36 00 F2 40 C4 00 57 00 
B2 40 50 00 72 01 B2 40 10 02 60 01 E2 C3 02 00 
82 43 70 01 92 C3 62 01 92 B3 62 01 FD 27 E2 B3 
02 00 F4 23 F2 40 D0 00 58 00 82 43 60 01 3C 40 
3A 11 0D 43 3E 40 24 00 B0 12 EE 7D 3C 40 5E 11 
0D 43 2E 43 B0 12 EE 7D B0 12 04 7B 0A 43 B0 12 
9C 7C 0C 93 1A 20 B0 12 BA 7B 0C 93 16 20 32 D2 
B0 12 DC 7B 0C 93 11 20 B0 12 B2 7E 1A 43 3C 40 
92 00 2D 42 B0 12 C6 7D 0C 93 07 20 B0 12 80 6B 
0C 93 03 20 E2 D3 3B 11 09 3C 0A 93 01 20 FF 3F 
3C 40 03 00 B0 12 CC 77 D2 D3 3B 11 3A 41 30 41 
0A 12 09 12 08 12 07 12 21 83 2C 93 0A 24 81 43 
00 00 3C 40 03 00 B0 12 16 7E 3C 43 B0 12 24 77 
54 3C 3C 40 84 11 2D 43 B0 12 9A 63 0C 93 4D 20 
C2 93 3D 11 05 20 0C 43 0D 43 B0 12 B2 7A 46 3C 
5A 42 4E 11 1C 43 B0 12 C6 70 4D 4A B0 12 02 7E 
08 4C 1C 42 84 11 0C 98 08 2C 4D 4A B0 12 5E 7D 
4D 4A B0 12 02 7E 09 4C 01 3C 09 48 4C 43 0D 49 
B0 12 D4 6E 0C 93 29 20 05 3C 92 53 5A 11 F2 D0 
40 00 3C 11 4F 4A 09 9F 11 2C 82 98 84 11 0C 28 
3C 40 2E 00 3D 40 EF FF B0 12 68 6E 3C 40 30 00 
3D 40 10 00 B0 12 68 6E 0C 43 10 3C 37 40 8A 11 
0C 47 4D 4A 0E 43 B0 12 EA 66 4F 4A 09 8F 4D 4A 
0C 47 B0 12 2E 7A 0C 93 D8 27 3C 43 21 53 30 40 
A8 7E 0A 12 09 12 31 80 12 00 0A 4D 09 4C 09 93 
04 24 0C 4A B0 12 24 77 4E 3C C2 93 A7 11 2B 20 
D2 93 A8 11 06 24 81 43 00 00 1C 43 B0 12 16 7E 
44 3C E2 D2 A3 11 2D 42 B0 12 80 71 0C 93 3D 20 
0A 93 39 24 3A 92 02 2C 09 4A 01 3C 39 42 0C 41 
3C 50 0A 00 0D 49 B0 12 9A 63 0C 93 31 20 0A 89 
0C 41 3C 50 0A 00 0D 49 B0 12 80 71 0C 93 25 20 
0A 93 E8 23 20 3C B0 12 D2 79 0C 49 2D 42 B0 12 
AA 75 0C 93 1A 20 0A 93 16 24 3A 92 02 2C 09 4A 
01 3C 39 42 0C 41 2C 53 0D 49 B0 12 9A 63 0C 93 
0F 20 0A 89 0C 41 2C 53 0D 49 B0 12 AA 75 0C 93 
04 20 0A 93 EA 23 0C 43 04 3C 0C 4A B0 12 24 77 
3C 43 31 50 12 00 30 40 AC 7E 0A 12 09 12 08 12 
07 12 31 80 10 00 59 42 4D 11 F2 90 06 00 3D 11 
52 20 5A 42 6F 11 F2 B2 6E 11 0A 20 49 93 12 24 
4E 49 0F 41 1F 53 CF 4A FF FF 1E 83 FB 23 0A 3C 
49 93 08 24 4E 49 0F 41 1F 53 CF 4A FF FF 5A 53 
1E 83 FA 23 17 42 70 11 0F 47 1F 83 3F 90 40 00 
02 28 37 40 40 00 08 43 4D 49 0C 41 0E 43 B0 12 
A6 65 0C 93 16 24 18 53 08 97 10 2C F2 B2 6E 11 
F3 27 49 93 F1 27 0E 41 0F 43 1E 53 CE 4A FF FF 
5A 53 1F 53 4D 49 0F 9D E7 2F F7 3F C2 4A 6F 11 
02 3C E2 41 6F 11 08 93 0E 24 82 93 70 11 06 24 
82 88 70 11 03 20 F2 F0 EF 00 3A 11 82 58 58 11 
F2 D0 40 00 3C 11 31 50 10 00 30 40 A8 7E 0A 12 
31 80 06 00 0C 41 2C 53 2D 42 B0 12 9A 63 0C 93 
4E 20 5D 41 05 00 4F 4D 8F 10 5D 41 04 00 0D DF 
5E 41 02 00 3F 40 0F 00 0F FE 0F 93 37 24 3F 90 
03 00 07 24 0C 41 2C 53 B0 12 52 61 0C 93 13 24 
36 3C 0C 4E B0 12 A8 7A 0F 4C 0C 4E B0 12 7C 7A 
4C DF C2 4C A9 11 D2 D3 A6 11 5C 41 03 00 B0 12 
00 40 0C 93 04 20 E2 B3 78 00 23 24 20 3C D2 B3 
A6 11 1D 24 B0 12 FA 7E 0A 4C 7C 40 7F 00 0D 4A 
B0 12 A8 5B 0C 93 13 20 2C 4A 1D 4A 02 00 B0 12 
8A 7D 0C 93 0C 24 B0 12 82 7E 09 3C 81 43 00 00 
3C 40 0A 00 B0 12 16 7E 3C 43 B0 12 24 77 B0 12 
0A 79 31 50 06 00 3A 41 30 41 0A 12 09 12 21 83 
5F 42 A7 11 0F 93 24 24 1F 83 45 20 09 4D 0A 4C 
09 93 3F 24 1E 42 B4 11 F2 B2 A3 11 09 20 1F 42 
B4 11 0F 8E 3F 90 D2 07 F7 2B 3C 40 06 00 34 3C 
F2 C2 A3 11 3C 40 1F 00 B0 12 C6 70 1A 53 CA 4C 
FF FF 3C 40 20 00 B0 12 22 75 19 83 E3 23 21 3C 
0D 93 1F 24 1E 42 B4 11 F2 B0 10 00 03 00 0D 20 
E2 B3 A6 11 08 20 1F 42 B4 11 0F 8E 3F 90 D2 07 
F3 2B 3C 42 11 3C E2 C3 A6 11 1C 53 DC 42 7E 00 
FF FF F2 D0 80 00 22 00 F2 F0 7F 00 22 00 1D 83 
E1 23 0C 43 08 3C 1C 43 81 43 00 00 B0 12 16 7E 
3C 43 D2 C3 A6 11 21 53 30 40 AC 7E 0A 12 09 12 
3C 40 10 00 B0 12 C6 70 0A 4C 3C 40 0F 00 B0 12 
C6 70 09 4C 0F 4A 0F D9 0F 93 11 24 3C 40 11 00 
3D 40 03 00 B0 12 68 6E 3C 40 11 00 0D 43 B0 12 
68 6E 82 5A 56 11 82 59 54 11 E2 D2 3C 11 F2 B0 
20 00 A4 11 30 24 3C 40 38 00 B0 12 C6 70 0A 4C 
3A B0 10 00 0A 24 92 43 50 11 E2 D2 3C 11 3C 40 
38 00 3D 40 EF FF B0 12 68 6E 3A B0 20 00 12 24 
3C 40 24 00 3D 40 8A 00 B0 12 68 6E 3C 40 24 00 
3D 40 0A 00 B0 12 68 6E 3C 40 38 00 3D 40 DF FF 
B0 12 68 6E F2 F0 DF 00 A4 11 3C 40 34 00 3D 40 
20 00 B0 12 68 6E 30 40 AC 7E 0A 12 09 12 08 12 
07 12 06 12 05 12 04 12 09 4F 04 4D 05 4C 17 41 
10 00 AE 53 00 00 2F 4E 18 4F FE FF 08 93 3F 24 
1A 45 04 00 0A 93 07 38 0C 48 B0 12 70 7E 0A 9C 
02 2C 0C 4A 03 3C 0C 48 B0 12 70 7E 06 4C 1A 45 
02 00 06 9A 01 38 0A 46 89 5A 00 00 06 9A 0E 34 
1F 43 2F B5 0B 20 0F 4A 0F 86 1F 93 07 38 09 4F 
7C 40 20 00 0D 44 87 12 19 83 FA 23 16 93 08 38 
18 83 09 46 18 53 6C 48 0D 44 87 12 19 83 FA 23 
06 9A 0F 34 1F 43 2F B5 0C 24 0A 86 1A 93 09 38 
7C 40 20 00 0D 44 87 12 1A 83 FA 23 02 3C 4C 43 
87 12 30 40 A2 7E 0A 12 09 12 08 12 07 12 06 12 
05 12 06 4E 09 4D 07 4C 08 49 08 93 02 20 0C 43 
41 3C 1A 42 6A 11 15 42 B4 11 1C 43 B0 12 5C 7C 
0A 93 07 24 2D 3C 0C 47 0D 4A B0 12 D6 78 07 5A 
08 8A 3C 40 03 00 B0 12 C6 70 3A 40 40 00 0A 8C 
19 20 06 93 0A 24 1F 42 B4 11 0F 85 0E 46 2E 53 
0F 9E 03 2C E2 B3 A3 11 04 24 82 43 6A 11 09 88 
18 3C 1E 42 B4 11 1F 42 B4 11 0F 8E 3F 90 03 00 
E0 2F F9 3F 5D 42 4D 11 0C 4A B0 12 02 7E 0A 4C 
0A 98 D1 2B 0C 47 0D 48 B0 12 D6 78 0A 88 82 4A 
6A 11 0C 49 30 40 A4 7E E2 B3 A0 11 27 20 0C 93 
23 24 3C 40 5C 00 B0 12 C6 70 3D 40 30 00 0D DC 
3C 40 5C 00 B0 12 68 6E 3C 40 5D 00 B0 12 C6 70 
3D 40 71 00 0D DC 3C 40 5D 00 B0 12 68 6E 3C 40 
6A 00 B0 12 C6 70 3D 40 40 00 0D DC 3C 40 6A 00 
B0 12 68 6E E2 D3 A0 11 0C 43 30 41 0C 93 23 20 
3C 40 5C 00 B0 12 C6 70 3D 40 CF FF 0D FC 3C 40 
5C 00 B0 12 68 6E 3C 40 5D 00 B0 12 C6 70 3D 40 
8E FF 0D FC 3C 40 5D 00 B0 12 68 6E 3C 40 6A 00 
B0 12 C6 70 3D 40 BF FF 0D FC 3C 40 6A 00 B0 12 
68 6E E2 C3 A0 11 1C 43 30 41 0A 12 09 12 08 12 
07 12 06 12 05 12 07 4E 09 4D 06 4C 08 49 08 93 
02 20 0C 43 3F 3C 1A 42 6C 11 15 42 B4 11 0A 93 
07 24 2E 3C 0C 46 0D 4A B0 12 BA 73 06 5A 08 8A 
1C 43 B0 12 C6 70 0A 4C 0A 93 1D 20 F2 F0 EF 00 
A3 11 3C 40 30 00 3D 40 10 00 B0 12 68 6E F2 B0 
10 00 A3 11 ED 23 07 93 0A 24 1F 42 B4 11 0F 85 
0E 47 2E 53 0F 9E 03 2C E2 B3 A3 11 F0 27 82 43 
6C 11 09 88 0E 3C 5D 42 4E 11 B0 12 02 7E 0A 4C 
0A 98 D0 2B 0C 46 0D 48 B0 12 BA 73 0A 88 82 4A 
6C 11 0C 49 30 40 A4 7E 0A 12 09 12 08 12 07 12 
06 12 3C 40 6A 00 B0 12 C6 70 09 4C 3D 40 20 00 
0D D9 3C 40 6A 00 B0 12 68 6E 0A 43 F2 B0 20 00 
1C 00 02 24 08 43 0F 3C 3C 40 6E 00 3D 40 19 00 
B0 12 68 6E 1E 42 70 01 1F 42 70 01 0F 8E 3F 90 
FF 10 FA 2B 18 43 1C 43 B0 12 EC 75 06 4C 17 42 
B4 11 3C 40 18 00 B0 12 B6 68 0A 9C 01 2C 0A 4C 
1F 42 B4 11 0F 87 3F 90 0D 00 F3 2B 0C 46 B0 12 
EC 75 08 93 05 24 3C 40 6E 00 0D 43 B0 12 68 6E 
3C 40 6A 00 0D 49 B0 12 68 6E 0C 4A 30 40 A6 7E 
02 12 0F 12 0E 12 0D 12 0C 12 32 C2 03 43 A2 41 
30 01 82 48 38 01 1C 42 3A 01 92 42 3C 01 3A 01 
82 43 3C 01 A2 41 34 01 82 49 38 01 92 41 02 00 
34 01 82 48 38 01 1D 42 3A 01 92 42 3C 01 3A 01 
92 42 3E 01 3C 01 82 49 38 01 92 41 04 00 34 01 
82 48 38 01 A2 41 34 01 82 4A 38 01 1E 42 3A 01 
92 42 3C 01 3A 01 92 42 3E 01 3C 01 82 4B 38 01 
92 41 02 00 34 01 82 4A 38 01 92 41 04 00 34 01 
82 49 38 01 92 41 06 00 34 01 82 48 38 01 1F 42 
3A 01 31 52 00 13 0A 12 09 12 08 12 21 83 09 4C 
5A 42 A0 11 1A F3 1D 43 0D D9 3C 40 74 00 B0 12 
68 6E 0A 93 08 20 1E 42 70 01 1F 42 70 01 0F 8E 
3F 90 10 00 FA 2B 3D 40 03 00 0D D9 3C 40 74 00 
B0 12 68 6E 1E 42 70 01 1F 42 70 01 0F 8E 3F 90 
03 00 FA 2B 19 42 B4 11 3C 40 75 00 B0 12 C6 70 
08 4C 38 B0 20 00 0E 20 1F 42 B4 11 0F 89 3F 90 
66 00 F2 2B 81 43 00 00 3C 40 0A 00 B0 12 28 7E 
08 43 02 3C 38 F0 1F 00 3C 40 74 00 0D 4A B0 12 
68 6E 0C 48 21 53 30 40 AA 7E 0A 12 09 12 09 4C 
6D 49 3C 40 19 00 B0 12 68 6E 5D 49 04 00 3C 40 
05 00 B0 12 68 6E 5A 49 02 00 4D 4A 2C 42 B0 12 
68 6E C2 4A 4D 11 5A 49 03 00 4D 4A 2C 43 B0 12 
68 6E C2 4A 4E 11 3C 40 17 00 B0 12 C6 70 0A 4C 
5D 49 01 00 3C 40 17 00 B0 12 68 6E 5F 49 01 00 
3A F0 03 00 0E 4F 3E F0 03 00 0E 9A 05 24 2C 43 
B0 12 F8 6D 5F 49 01 00 3F F0 03 00 3F 90 03 00 
03 24 3D 40 AA 00 02 3C 3D 40 D8 00 3C 40 06 00 
B0 12 68 6E E2 D3 3C 11 30 40 AC 7E 0A 12 09 12 
08 12 07 12 06 12 31 80 10 00 58 42 4E 11 59 42 
72 11 0A 43 F2 B0 10 00 6E 11 01 24 1A 43 36 40 
40 00 07 43 4D 48 0C 41 0E 43 B0 12 EA 66 0C 93 
21 24 E2 B2 6E 11 1B 24 78 90 0F 00 09 20 0F 49 
6F E1 5F B3 02 24 92 53 5C 11 49 5A 1D 43 01 3C 
0D 43 4F 48 0D 9F 0B 2C 0E 4D 0E 51 4F 48 0F 8D 
79 9E 02 24 92 53 5C 11 49 5A 1F 83 F9 23 17 53 
16 83 D8 23 C2 49 72 11 82 57 5A 11 F2 D0 40 00 
3C 11 31 50 10 00 30 40 A6 7E 0A 12 21 83 0A 4C 
F2 C2 A4 11 3C 40 2A 00 3D 42 B0 12 68 6E 3C 40 
29 00 2D 43 B0 12 68 6E 2A B2 05 24 3C 40 25 00 
0D 43 B0 12 68 6E 1E 42 B4 11 F2 B2 A4 11 0C 20 
1F 42 B4 11 0F 8E 3F 90 20 00 F7 2B 81 43 00 00 
3C 40 07 00 B0 12 28 7E 3C 40 29 00 0D 43 B0 12 
68 6E 1A B3 04 24 3C 40 20 00 B0 12 2E 76 2A B3 
0A 24 3C 40 40 00 B0 12 2E 76 3C 40 2E 00 3D 40 
EF FF B0 12 68 6E E2 C3 A3 11 F2 F0 F3 00 A5 11 
21 53 3A 41 30 41 0A 12 09 12 08 12 09 4D 0A 4E 
0B 4F 08 4C 1E 41 08 00 0F 4E 3F 82 03 24 3F 82 
04 24 07 3C 3C 40 03 00 01 3C 2C 42 B0 12 04 74 
2D 3C 0B 93 09 28 0D 20 0A 93 06 28 0A 20 19 93 
03 28 07 20 08 93 05 2C 0D 4E B0 12 5E 7D 0D 43 
11 3C 0B 93 09 28 11 20 1A 93 06 28 0E 20 09 93 
03 28 0B 20 08 93 09 2C 3E B0 00 80 0F 7F 3F E3 
B0 12 DA 71 0E 43 0F 43 09 3C 0C 4E 3C B0 00 80 
0F 7F 3F E3 0E 4F 0D 4F B0 12 F6 44 30 40 AA 7E 
0A 12 21 82 3C 40 62 11 0D 43 3E 40 22 00 B0 12 
EE 7D F2 40 10 00 69 11 B0 12 B0 76 B0 12 7C 7C 
0C 93 27 20 F2 D0 10 00 19 00 1E 42 B4 11 D2 B3 
28 00 06 20 1F 42 B4 11 0F 8E 3F 90 FC 00 F7 2B 
F2 F0 EF 00 19 00 3C 42 B0 12 14 7D 3C 40 7F 00 
B0 12 C6 70 0A 4C 2C 42 B0 12 14 7D 1A 93 0B 24 
B1 40 FA 80 00 00 81 4A 02 00 3C 40 11 00 B0 12 
16 7E 3C 43 05 3C B0 12 8C 59 B0 12 6E 78 0C 43 
21 52 3A 41 30 41 0C 93 3D 20 D2 83 9B 11 3A 20 
E2 42 9B 11 D2 83 9C 11 0C 20 F2 40 0F 00 9C 11 
C2 93 9F 11 03 20 F2 F0 EF 00 1D 00 F2 F0 EF 00 
9E 11 D2 B3 9A 11 0A 24 3C 40 03 00 B0 12 C6 70 
0C 93 04 20 D2 D3 9D 11 D2 C3 9A 11 E2 B3 9A 11 
09 24 1C 43 B0 12 C6 70 0C 93 04 20 E2 D3 9D 11 
E2 C3 9A 11 C2 93 9F 11 03 20 D2 D2 9E 11 1D 00 
D2 42 9D 11 9E 11 F2 90 03 00 9F 11 03 20 F2 E0 
17 00 1D 00 30 41 0A 12 09 12 21 83 0E 93 09 4D 
0A 4C 04 20 B0 12 68 6E 0C 43 32 3C 0A 93 04 34 
3A F0 FF 7F 3A D0 80 00 3A B0 80 00 22 20 D2 C3 
A3 11 3C 40 1D 00 B0 12 68 6E 0C 4A B0 12 22 75 
1E 42 B4 11 D2 B3 A3 11 0B 20 1F 42 B4 11 0F 8E 
3F 90 8A 13 03 2C E2 B3 A3 11 F4 27 1C 43 0B 3C 
3C 40 1E 00 B0 12 C6 70 49 49 0C 99 D5 27 2C 43 
02 3C 3C 40 0D 00 81 43 00 00 B0 12 28 7E 3C 43 
21 53 30 40 AC 7E 0A 12 B0 12 96 5F C2 93 3A 11 
1A 24 D2 B3 3A 11 02 24 B0 12 3C 7C E2 B3 3A 11 
02 24 B0 12 06 7F E2 B2 3A 11 02 24 B0 12 3C 79 
F2 B2 3A 11 02 24 B0 12 6E 78 F2 B0 10 00 3A 11 
02 24 B0 12 1A 62 1F 42 B4 11 1E 42 5E 11 0F 8E 
3F 90 34 00 DB 2B B2 50 32 00 5E 11 1F 42 B4 11 
0A 43 0F 8E 3F 80 32 00 3F 90 34 00 01 28 1A 43 
E2 B3 3B 11 03 24 0C 4A B0 12 A8 48 0C 4A B0 12 
06 6C C4 3F 0A 12 0A 4C 3C 40 16 00 B0 12 C6 70 
CA 4C 03 00 3C 40 13 00 B0 12 C6 70 CA 4C 02 00 
3C 40 14 00 B0 12 C6 70 CA 4C 01 00 3C 40 15 00 
B0 12 C6 70 CA 4C 00 00 3C 40 19 00 B0 12 C6 70 
CA 4C 04 00 3C 40 17 00 B0 12 C6 70 CA 4C 05 00 
2C 42 B0 12 C6 70 CA 4C 06 00 2C 43 B0 12 C6 70 
7C F0 0F 00 CA 4C 07 00 3C 40 05 00 B0 12 C6 70 
CA 4C 08 00 3A 41 30 41 0A 12 09 12 08 12 08 4C 
38 B0 20 00 23 24 3C 40 27 00 3D 40 20 00 0E 43 
B0 12 86 6C 0A 43 09 4A 3C 42 B0 12 2E 76 3C 40 
52 00 0D 43 B0 12 66 70 0A 5C 19 53 39 90 14 00 
F3 2B 3C 40 0A 00 0C 5A 3D 40 14 00 B0 12 5E 7D 
0D 4C 3C 40 52 00 0E 43 B0 12 86 6C 38 F0 DF FF 
08 93 08 24 3C 40 27 00 0D 48 B0 12 68 6E 3C 42 
B0 12 2E 76 30 40 AA 7E 0A 12 09 12 08 12 08 4D 
09 4C 0A 42 3A F2 32 C2 03 43 39 B0 80 80 02 20 
1C 43 03 3C 39 F0 7F 00 2C 43 39 90 2B 00 07 24 
5F 42 A1 11 0C 9F 0C 24 B0 12 D6 72 09 3C C2 48 
A2 11 18 B3 02 24 6F 43 01 3C 5F 43 C2 4F A1 11 
D2 C3 19 00 C2 49 77 00 F2 B0 80 FF 02 00 FC 27 
C2 48 77 00 D2 B3 71 00 FD 27 D2 D3 19 00 02 DA 
30 40 AA 7E 31 80 06 00 D2 C3 A6 11 D1 42 A9 11 
02 00 C1 4D 04 00 8D 10 C1 4D 05 00 4C 93 03 20 
C1 43 03 00 03 3C F1 40 7F 00 03 00 5F 42 A7 11 
0F 93 03 24 1F 83 09 24 10 3C B0 12 D2 79 0C 41 
2C 53 2D 42 B0 12 AA 75 0E 3C E2 D2 A3 11 0C 41 
2C 53 2D 42 B0 12 80 71 06 3C 81 43 00 00 1C 43 
B0 12 16 7E 3C 43 31 50 06 00 30 41 0C 93 26 24 
3C 40 19 00 B0 12 68 6E E2 D3 3C 11 3C 40 61 00 
3D 40 05 00 B0 12 68 6E 3C 40 17 00 B0 12 C6 70 
3C F0 03 00 3C 90 03 00 03 24 3D 40 0C 00 01 3C 
3D 42 3C 40 66 00 B0 12 68 6E 3C 40 6E 00 3D 40 
07 00 B0 12 68 6E 0C 43 30 40 5C 7C 3C 40 61 00 
0D 43 B0 12 68 6E 3C 40 6E 00 0D 43 B0 12 68 6E 
30 40 D6 7E 0A 12 21 83 3C 40 78 00 3D 40 1A 00 
B0 12 68 6E 3C 40 6E 00 1D 43 B0 12 68 6E 1E 42 
70 01 1F 42 70 01 0F 8E 3F 90 D1 07 FA 2B 3C 40 
78 00 B0 12 C6 70 0A 4C 3C 40 78 00 0D 4A B0 12 
68 6E 3C 40 6E 00 0D 43 B0 12 68 6E 3A B0 40 00 
06 20 81 43 00 00 3C 40 12 00 B0 12 28 7E 0C 4A 
21 53 3A 41 30 41 0A 12 21 83 0A 4C 0A 93 05 20 
3C 40 38 00 B0 12 C6 70 0A 4C 2A B3 12 24 81 43 
00 00 3C 40 0C 00 B0 12 16 7E 3C 40 29 00 3D 40 
10 00 B0 12 68 6E 3C 40 38 00 3D 40 FD FF B0 12 
68 6E 1A B3 0C 24 3C 40 38 00 3D 40 FE FF B0 12 
68 6E 81 43 00 00 3C 40 0F 00 B0 12 16 7E 0C 4A 
21 53 3A 41 30 41 21 83 0D 93 19 24 0C 93 04 34 
3C F0 FF 7F 3C D0 80 00 3C B0 80 00 03 24 3C 40 
0D 00 1A 3C D2 C3 A3 11 3C D0 80 00 B0 12 22 75 
1E 42 B4 11 D2 B3 A3 11 05 24 3C 40 1E 00 B0 12 
C6 70 0F 3C 1F 42 B4 11 0F 8E 3F 90 8A 13 03 2C 
E2 B3 A3 11 EF 27 1C 43 81 43 00 00 B0 12 28 7E 
3C 43 21 53 30 41 0A 12 09 12 0A 4C 09 42 39 F2 
32 C2 03 43 3A B0 80 80 02 20 1C 43 03 3C 3A F0 
7F 00 2C 43 5F 42 A1 11 0C 9F 05 24 3A 90 2B 00 
02 24 B0 12 D6 72 D2 C3 19 00 7A D0 80 00 C2 4A 
77 00 F2 B0 80 FF 02 00 FC 27 C2 43 77 00 D2 B3 
71 00 FD 27 5C 42 76 00 D2 D3 19 00 02 D9 4C 4C 
30 40 AC 7E 0A 12 09 12 09 4D 0A 4C D2 B3 00 11 
25 20 0A 93 02 20 3A 40 B8 80 82 49 20 11 3D 40 
1E 11 8D 4A 00 00 C2 43 22 11 0E 93 08 24 2C 42 
0C 5D 3D 40 17 00 B0 12 86 72 C2 43 39 11 82 93 
04 11 0C 20 82 49 04 11 3F 40 02 11 8F 4A 00 00 
2C 42 0C 5F 3D 40 22 11 B0 12 74 7D 30 40 AC 7E 
0A 12 09 12 21 83 09 4D 1C 83 0A 4C 09 93 21 24 
1E 42 B4 11 E2 B2 A3 11 0E 20 1F 42 B4 11 0F 8E 
3F 90 D2 07 F7 2B 81 43 00 00 3C 40 07 00 B0 12 
16 7E 3C 43 0F 3C E2 C2 A3 11 1A 53 6D 4A 3C 40 
1D 00 B0 12 68 6E 3C 40 1F 00 B0 12 22 75 19 83 
DF 23 0C 43 21 53 30 40 AC 7E 0A 12 09 12 09 43 
0A 43 1B 43 0F 93 04 24 09 4D 0D 4C 0C 43 0D 3C 
0C 5C 0D 6D 09 69 09 8E 04 28 1C D3 0B 5B F8 2B 
03 3C 09 5E 0B 5B F4 2B 1B 43 0C 5C 0D 6D 09 69 
0A 6A 09 8E 0A 7F 04 28 1C D3 0B 5B F6 2B 04 3C 
09 5E 0A 6F 0B 5B F1 2B 0E 49 0F 4A 39 41 3A 41 
30 41 0A 12 0B 4C 0C 43 0C 3C 3D 40 0A 00 B0 12 
02 7E 4F 4F 0C 5F 3C 80 30 00 1B 53 6F 4B 11 3C 
1B 53 6F 4B 4E 4F FE B2 1D 7F FA 23 7F 90 2D 00 
05 24 0A 43 7F 90 2B 00 04 20 01 3C 1A 43 1B 53 
6F 4B 4E 4F EE B2 1D 7F E0 23 0A 93 02 24 3C E3 
1C 53 3A 41 30 41 0A 12 31 80 0A 00 0A 4D 0D 4F 
81 4E 02 00 0A 93 03 24 0F 4A 1F 83 01 3C 0F 43 
81 4F 06 00 81 43 08 00 81 4C 04 00 B1 40 38 78 
00 00 0C 41 2C 53 0E 41 2E 52 3F 40 F6 7C B0 12 
6E 4D 0A 93 04 24 1F 41 04 00 CF 43 00 00 31 50 
0A 00 3A 41 30 41 0A 12 0A 4C 5F 42 A1 11 4F 93 
0F 20 3C 40 2B 00 B0 12 C6 70 C2 4C A2 11 5C B3 
04 20 D2 43 A1 11 5F 43 03 3C E2 43 A1 11 6F 43 
4F 4F 0A 9F 0D 24 2A 93 03 24 D2 C3 A2 11 02 3C 
D2 D3 A2 11 5D 42 A2 11 3C 40 2B 00 B0 12 68 6E 
3A 41 30 41 0A 12 21 83 3C 40 56 00 1D 43 B0 12 
68 6E 3A 40 14 00 1E 42 70 01 1F 42 70 01 0F 8E 
3F 90 E9 03 FA 2B 3C 40 56 00 B0 12 C6 70 2C B2 
07 20 1A 83 F0 23 81 43 00 00 3C 42 B0 12 28 7E 
3C 40 56 00 0D 43 B0 12 68 6E 21 53 3A 41 30 41 
0A 12 09 12 3C 40 27 00 3D 42 B0 12 68 6E 39 40 
14 00 0A 43 3C 42 B0 12 2E 76 3C 40 6B 00 B0 12 
C6 70 0A 5C 19 83 F6 23 3C 40 0A 00 0C 5A 3D 40 
14 00 B0 12 5E 7D 1C 83 0A 4C 3C 40 6B 00 0D 4A 
B0 12 68 6E 0C 4A 30 40 AC 7E 0F 42 3F F2 32 C2 
03 43 D2 C3 19 00 F2 40 AD 00 77 00 F2 B0 80 FF 
02 00 FC 27 C2 43 77 00 09 3C D2 B3 71 00 FD 27 
1C 53 DC 42 76 00 FF FF C2 43 77 00 1D 83 F5 23 
D2 B3 71 00 FD 27 DC 42 76 00 00 00 D2 D3 19 00 
02 DF 30 41 0A 12 09 12 08 12 07 12 07 4C 0F 4B 
37 90 11 00 0E 38 0E 47 1E 83 0C 4E B0 12 7C 7A 
3E F0 F0 FF 07 8E 08 49 09 4A 0A 4F 0F 43 1C 83 
FA 23 17 93 07 38 12 C3 0F 10 0A 10 09 10 08 10 
17 83 F9 23 0C 48 0D 49 0E 4A 30 40 A8 7E 0A 12 
09 12 08 12 07 12 07 4C 0E 4A 0F 4B 37 90 11 00 
0E 38 0F 47 1F 83 0C 4F B0 12 7C 7A 3F F0 F0 FF 
07 8F 0F 4E 0E 49 09 48 08 43 1C 83 FA 23 17 93 
06 38 08 58 09 69 0E 6E 0F 6F 17 83 FA 23 0C 48 
0D 49 30 40 A8 7E 0A 12 0A 4C 5F 42 3D 11 CA 4F 
01 00 0F 93 02 20 E2 C3 3C 11 DA 42 3C 11 00 00 
B0 12 F2 7E 0C 93 02 24 F2 C2 3C 11 B0 12 EA 7E 
0C 93 03 24 F2 F0 EF 00 3C 11 B0 12 00 7F 8C 93 
02 00 02 24 DA D3 00 00 3A 41 30 41 0A 12 09 12 
3F 40 00 81 3F 93 12 24 3D 40 00 81 0C 3C 8F 12 
2A 53 12 3C 3C 4D 0A 4D 0E 49 B0 12 5E 7E 0A 59 
0D 4A 1D 53 1D C3 39 4D 09 93 F4 23 3F 40 FF FF 
3F 93 05 24 3A 40 FF FF 2F 4A 0F 93 E8 23 30 40 
AC 7E 0A 12 21 83 0D 4C 0A 42 3A F2 32 C2 03 43 
1E 42 B4 11 F2 B0 20 00 1C 00 0D 24 1F 42 B4 11 
0F 8E 3F 90 34 00 F6 2B 81 43 00 00 3C 40 0F 00 
B0 12 28 7E 04 3C 3C 40 1C 00 B0 12 68 6E 02 DA 
21 53 3A 41 30 41 11 3C BC D0 10 00 00 00 0B 3C 
9C D3 00 00 08 3C AC D3 00 00 05 3C BC D2 00 00 
02 3C AC D2 00 00 9D 53 00 00 2F 4D 6F 4F 3F 80 
20 00 F7 27 3F 80 03 00 F1 27 3F 82 EC 27 2F 83 
E7 27 3F 80 03 00 E0 27 30 41 21 83 0D 93 1B 24 
1E 42 B4 11 F2 B0 80 FF 23 00 0E 20 1F 42 B4 11 
0F 8E 3F 90 D2 07 F6 2B 81 43 00 00 3C 40 09 00 
B0 12 16 7E 3C 43 08 3C F2 F0 7F 00 23 00 F2 4C 
7F 00 1D 83 E5 23 0C 43 21 53 30 41 D2 B3 A0 11 
13 20 0C 93 0F 24 3C 40 74 00 1D 43 B0 12 68 6E 
D2 D3 A0 11 1E 42 70 01 1F 42 70 01 0F 8E 3F 90 
10 00 FA 2B 0C 43 30 41 0C 93 07 20 3C 40 74 00 
0D 43 B0 12 68 6E D2 C3 A0 11 1C 43 30 41 0A 12 
21 82 0A 4C D2 C3 A4 11 3C 40 29 00 0D 4A B0 12 
68 6E 1E 42 B4 11 D2 B3 A4 11 0F 20 1F 42 B4 11 
0F 8E 3F 90 66 00 F7 2B B1 40 EE 80 00 00 81 4A 
02 00 3C 40 09 00 B0 12 28 7E 21 52 3A 41 30 41 
C2 93 3D 11 1C 20 B0 12 A2 78 5D 42 42 11 3C 40 
16 00 B0 12 68 6E 5D 42 41 11 3C 40 13 00 B0 12 
68 6E 5D 42 40 11 3C 40 14 00 B0 12 68 6E 5D 42 
3F 11 3C 40 15 00 B0 12 68 6E E2 D3 3C 11 30 41 
3C 40 3E 11 0D 43 3E 40 0F 00 B0 12 EE 7D D2 43 
42 11 D2 43 41 11 D2 43 3E 11 7F 40 0E 00 C2 4F 
45 11 C2 4F 46 11 F2 40 1F 00 47 11 3C 40 48 11 
3D 40 43 11 3E 40 05 00 30 40 5E 7E 3C 40 25 00 
3D 40 7F 00 B0 12 68 6E E2 C2 A4 11 3C 40 2A 00 
0D 43 B0 12 68 6E 1E 42 B4 11 E2 B2 A4 11 02 24 
1C 43 30 41 1F 42 B4 11 0F 8E 3F 90 2A 00 F5 2B 
0C 43 30 41 0A 12 09 12 31 82 0A 4C 1C 43 B0 12 
92 7E 0A 93 0D 24 3A 92 02 2C 09 4A 01 3C 39 42 
0C 41 0D 49 B0 12 9A 63 0C 93 02 20 0A 89 F3 23 
0C 43 B0 12 92 7E 31 52 30 40 AC 7E E2 93 3D 11 
02 28 B0 12 6E 78 B0 12 70 76 3C 40 1A 00 3D 40 
0F 00 B0 12 68 6E 3C 40 48 11 B0 12 4A 69 F2 40 
05 00 3D 11 3C 40 2A 00 0D 43 B0 12 68 6E D2 D3 
62 11 30 41 31 80 06 00 91 41 08 00 02 00 81 4C 
04 00 B1 40 2E 7D 00 00 0D 41 3D 50 0A 00 0C 41 
2C 53 0E 41 2E 52 3F 40 3A 7E B0 12 6E 4D 1F 41 
04 00 CF 43 00 00 31 50 06 00 30 41 0F 4C 0F 93 
0D 24 1F 83 07 24 1F 83 2F 93 12 2C F2 F0 E8 00 
1D 00 0C 3C F2 D0 17 00 1D 00 08 3C 3F 40 E8 00 
5F F2 1D 00 5F D2 9D 11 C2 4F 1D 00 C2 4C 9F 11 
30 41 C2 43 70 00 D2 43 70 00 0F 4C 7F D0 05 00 
C2 4F 70 00 7C F0 C0 00 7C D0 12 00 C2 4C 71 00 
C2 4D 74 00 C2 43 75 00 C2 43 73 00 F2 D0 40 00 
04 00 D2 C3 70 00 30 41 0A 12 09 12 08 12 08 4E 
09 4D 0D 4C 1A 49 02 00 1F 49 04 00 0F 9A 0A 2C 
0A 8F 0A 98 01 28 0A 48 2C 49 0E 4A B0 12 5E 7E 
89 5A 00 00 89 58 04 00 0C 48 30 40 AA 7E C2 93 
3D 11 02 24 B0 12 D8 7C F2 F0 E1 00 3A 11 B0 12 
0C 7F B0 12 D6 7E B0 12 CC 7E 82 43 6A 11 82 43 
6C 11 F2 F0 FC 00 62 11 C2 43 6E 11 C2 43 3D 11 
30 41 21 83 F2 D0 10 00 19 00 1E 42 B4 11 F2 B2 
A4 11 0C 20 1F 42 B4 11 0F 8E 3F 90 FC 00 F7 2B 
81 43 00 00 3C 40 0B 00 B0 12 28 7E F2 F0 EF 00 
19 00 21 53 30 41 0F 42 3F F2 32 C2 03 43 D2 C3 
19 00 F2 40 2D 00 77 00 0D 93 08 24 F2 B0 80 FF 
02 00 FC 27 F2 4C 77 00 1D 83 F8 23 D2 B3 71 00 
FD 27 D2 D3 19 00 02 DF 30 41 D2 B3 79 00 03 20 
E2 B3 78 00 FA 23 D2 D3 78 00 F2 40 15 00 78 00 
F2 40 42 00 79 00 C2 43 7B 00 F2 D0 10 00 05 00 
D2 C3 78 00 F2 D0 10 00 01 00 30 41 E2 B3 6E 11 
02 20 0F 43 03 3C B0 12 DC 69 1F 43 E2 C2 3A 11 
0F 93 0C 24 3C 40 2E 00 3D 40 EF FF B0 12 68 6E 
3C 40 30 00 3D 40 10 00 30 40 68 6E 30 41 3C 40 
31 00 3D 40 FF 00 B0 12 68 6E 3C 40 35 00 3D 40 
FF 00 B0 12 68 6E F2 F0 FC 00 A0 11 C2 43 A1 11 
F2 C2 A4 11 E2 C3 A3 11 F2 F0 F3 00 A5 11 30 41 
0A 12 09 12 08 12 07 12 08 4E 09 4D 07 4C 0A 42 
3A F2 32 C2 03 43 B0 12 C6 70 0D 4C 08 93 02 20 
0D C9 01 3C 0D D9 0C 47 B0 12 68 6E 02 DA 30 40 
A8 7E D2 D3 78 00 F2 40 17 00 78 00 F2 40 52 00 
79 00 E2 43 7C 00 C2 43 7D 00 C2 43 7B 00 F2 D0 
10 00 05 00 D2 C3 78 00 F2 D0 80 00 23 00 30 41 
0A 12 0A 4C F2 90 06 00 3D 11 02 24 B0 12 6E 78 
3C 40 6E 11 0D 4A 3E 40 06 00 B0 12 5E 7E 1F 43 
6F BA 03 24 F2 D0 10 00 3A 11 3A 41 30 41 21 83 
5F 42 A7 11 0F 93 03 24 1F 83 04 24 06 3C B0 12 
AA 75 09 3C B0 12 80 71 06 3C 81 43 00 00 1C 43 
B0 12 16 7E 3C 43 21 53 30 41 3D F0 0F 00 3D E0 
0F 00 0D 5D 00 5D 0C 11 0C 11 0C 11 0C 11 0C 11 
0C 11 0C 11 0C 11 0C 11 0C 11 0C 11 0C 11 0C 11 
0C 11 0C 11 30 41 3D F0 0F 00 3D E0 0F 00 0D 5D 
00 5D 0C 5C 0C 5C 0C 5C 0C 5C 0C 5C 0C 5C 0C 5C 
0C 5C 0C 5C 0C 5C 0C 5C 0C 5C 0C 5C 0C 5C 0C 5C 
30 41 0A 12 09 12 0A 4D 09 4C 4C 43 B0 12 D4 6E 
0C 93 02 24 3C 43 08 3C 0A 93 05 24 0C 49 0D 4A 
B0 12 2E 7A 01 3C 0C 43 30 40 AC 7E 0A 12 1F 93 
0E 38 1D 83 0B 4C 1B 83 1D 53 6A 4D 1C 53 1B 53 
CB 4A 00 00 4A 4A 0A 9E 03 24 1F 83 F5 23 0C 43 
3A 41 30 41 3C 40 9A 11 0D 43 3E 40 06 00 B0 12 
EE 7D E2 42 9B 11 F2 40 0F 00 9C 11 F2 40 17 00 
9D 11 F2 D0 17 00 1D 00 30 41 31 40 00 39 B2 40 
1A 7F AA 11 B2 40 1A 7F AC 11 B0 12 12 7F 0C 93 
02 24 B0 12 DC 74 0C 43 B0 12 06 6D B0 12 16 7F 
0A 12 0A 4C E2 93 3D 11 04 28 B0 12 6E 78 B0 12 
70 76 3C 40 19 00 0D 4A B0 12 68 6E E2 D3 3C 11 
3A 41 30 41 0F 12 A2 53 B4 11 B2 50 D0 07 72 01 
1F 42 72 01 1F 82 70 01 1F 83 3F 90 D0 07 02 28 
92 D3 62 01 3F 41 00 13 C2 93 9F 11 02 20 E2 C3 
1D 00 E2 C3 9D 11 E2 C3 9E 11 0C 93 02 24 E2 D3 
9A 11 F2 D0 10 00 3C 11 30 41 3C 40 B4 11 0D 43 
2E 43 B0 12 EE 7D B2 40 10 00 62 01 B2 40 D0 07 
72 01 B2 40 E0 01 60 01 0C 43 30 41 3C 40 A6 11 
0D 43 2E 42 B0 12 EE 7D D2 43 A8 11 B0 12 48 7D 
0C 93 02 24 3C 43 30 41 0C 43 30 41 3C 40 4A 00 
3D 40 06 00 B0 12 68 6E B0 12 D8 7C D2 B3 28 00 
FD 23 D2 C3 2B 00 D2 D3 2D 00 30 41 0F 12 0E 12 
0D 12 0C 12 0B 12 D2 B3 2B 00 02 24 B0 12 24 4B 
3B 41 3C 41 3D 41 3E 41 3F 41 00 13 D2 C3 3A 11 
C2 43 A7 11 F2 B0 10 00 03 00 02 20 E2 D3 A6 11 
B0 12 DE 62 F2 D0 10 00 01 00 30 41 C2 93 9F 11 
02 20 D2 C3 1D 00 D2 C3 9D 11 D2 C3 9E 11 0C 93 
02 24 D2 D3 9A 11 F2 D2 3C 11 30 41 3C 40 A0 11 
0D 43 3E 40 03 00 B0 12 EE 7D 3C 40 A3 11 0D 43 
3E 40 03 00 B0 12 EE 7D 0C 43 30 41 3C 40 00 11 
0D 43 3E 40 3A 00 B0 12 EE 7D B2 40 B8 80 02 11 
B2 40 B8 80 1E 11 0C 43 30 41 0C 5C 0C 5C 3C 50 
62 11 7F 40 03 00 CC 4F 14 00 CC 4F 15 00 EC 43 
13 00 CC 43 12 00 30 41 B0 12 6E 79 F2 F0 EF 00 
19 00 3C 40 2A 00 0D 43 B0 12 68 6E 3C 40 29 00 
2D 43 30 40 68 6E 9D 9D 02 00 04 00 07 2C 2E 4D 
0F 4E 1F 53 8D 4F 00 00 CE 4C 00 00 9D 53 04 00 
4C 4C 30 41 0A 12 0D 4C 0A 42 3A F2 32 C2 03 43 
3C 40 92 00 B0 12 02 78 02 DA 3A 41 30 41 0A 12 
09 12 0A 4E 09 4D 0D 4C 2C 49 B0 12 5E 7E 89 5A 
00 00 0C 4A 30 40 AC 7E F2 D0 80 00 24 00 B0 12 
0A 79 E2 D3 33 00 F2 D2 33 00 0C 43 30 41 0E 43 
0F 4C 1C 43 0F 5F 0E 6E 0E 9D 01 28 0E 8D 0C 6C 
F9 2B 30 41 1D 83 0F 4C 1F 83 1D 53 6E 4D 1F 53 
CF 4E 00 00 4E 93 F9 23 30 41 0F 43 1D 92 04 11 
04 20 1C 92 02 11 01 20 1F 43 0C 4F 30 41 0E 43 
0C 4E B0 12 BA 7C 1E 53 2E 92 FA 2B D2 43 64 11 
30 41 C2 93 9F 11 02 20 E2 C2 1D 00 E2 C2 9D 11 
E2 C2 9E 11 30 41 B0 12 02 78 E2 D3 1B 00 E2 D2 
1B 00 F2 D2 1B 00 0C 43 30 41 B0 12 6E 79 3C 40 
5F 00 3D 40 52 00 B0 12 68 6E 30 40 A2 78 0F 4C 
0E 93 06 24 4D 4D 1F 53 CF 4D FF FF 1E 83 FB 23 
30 41 02 12 32 C2 03 43 82 4C 30 01 82 4D 38 01 
1C 42 3A 01 00 13 0D 4C 0F 41 2F 52 1C 42 60 11 
1E 41 02 00 30 40 24 71 0D 4C 0F 41 2F 52 1C 42 
B2 11 1E 41 02 00 30 40 24 71 2E 4D 0F 4E 1F 53 
8D 4F 00 00 CE 4C 00 00 4C 4C 30 41 3E F0 1F 00 
05 24 12 C3 0D 10 0C 10 1E 83 FB 23 30 41 0F 4C 
0E 93 05 24 1F 53 FF 4D FF FF 1E 83 FB 23 30 41 
1C 83 3F 43 1F 53 1C 53 CC 93 00 00 FB 23 0C 4F 
30 41 82 43 04 11 B2 40 B8 80 02 11 C2 43 06 11 
30 41 0C 93 03 20 D2 C3 00 11 30 41 D2 D3 00 11 
30 41 34 41 35 41 36 41 37 41 38 41 39 41 3A 41 
30 41 3C 40 84 11 0D 43 3E 40 16 00 30 40 EE 7D 
F2 F0 EF 00 01 00 D2 D3 3A 11 00 13 E2 D3 9D 11 
E2 C3 9A 11 30 41 D2 D3 9D 11 D2 C3 9A 11 30 41 
2C 42 B0 12 2E 76 30 40 24 73 5C 42 9D 11 2C F3 
30 41 5C 42 9D 11 1C F3 30 41 3C 40 1E 11 30 41 
3C 40 02 11 30 41 E2 C3 3A 11 30 41 E2 D2 9D 11 
30 41 1C 43 30 41 03 43 FF 3F 30 41 00 20 20 20 
20 20 20 20 20 20 28 28 28 28 28 20 20 20 20 20 
20 20 20 20 20 20 20 20 20 20 20 20 20 88 10 10 
10 10 10 10 10 10 10 10 10 10 10 10 10 44 44 44 
44 44 44 44 44 44 44 10 10 10 10 10 10 10 41 41 
41 41 41 41 01 01 01 01 01 01 01 01 01 01 01 01 
01 01 01 01 01 01 01 01 10 10 10 10 10 10 42 42 
42 42 42 42 02 02 02 02 02 02 02 02 02 02 02 02 
02 02 02 02 02 02 02 02 10 10 10 10 20 00 00 00 
00 00 00 00 00 00 00 00 00 00 00 00 00 00 00 00 
00 00 00 00 00 00 00 00 00 00 00 00 00 00 00 00 
00 00 00 00 00 00 00 00 00 00 00 00 00 00 00 00 
00 00 00 00 00 00 00 00 00 00 00 00 00 00 00 00 
00 00 00 00 00 00 00 00 00 00 00 00 00 00 00 00 
00 00 00 00 00 00 00 00 00 00 00 00 00 00 00 00 
00 00 00 00 00 00 00 00 00 00 00 00 00 00 00 00 
00 00 00 00 00 00 00 00 00 00 00 00 00 00 25 75 
00 00 41 49 4D 31 30 30 00 00 3B 20 00 00 5A 4C 
37 30 31 30 58 20 41 44 4B 20 32 2E 33 2E 30 20 
28 42 75 69 6C 64 20 30 32 30 30 2E 30 33 30 30 
2E 30 30 30 30 29 00 00 00 00 00 00 5A 4C 37 30 
31 30 58 20 41 44 4B 20 49 6D 70 6C 61 6E 74 00 
25 64 0C 25 64 00 30 31 32 33 34 35 36 37 38 39 
61 62 63 64 65 66 30 31 32 33 34 35 36 37 38 39 
41 42 43 44 45 46 00 00 25 00 25 64 00 00 2E 00 
3A 20 00 00 45 72 72 6F 72 20 6F 6E 20 69 6D 70 
6C 61 6E 74 00 00 00 00 55 6E 73 70 65 63 69 66 
69 65 64 45 72 72 47 72 6F 75 70 00 00 01 FF 03 
02 04 06 05 07 09 08 FF 4D 69 63 73 4C 69 62 45 
72 72 00 00 49 6D 41 70 70 45 72 72 00 00 30 78 
25 30 32 78 00 00 01 02 04 08 25 75 00 00 B8 80 
02 00 60 11 E4 80 02 00 B2 11 D8 80 00 00 
@ffe2
1C 7C 
@ffe6
C0 7E 
@ffec
74 7B 
@fffe
2A 7B 
q
