@4000
0A 12 09 12 08 12 07 12 31 80 06 00 09 4D D2 B3 
3B 11 12 24 0F 4C 3F 80 79 00 2F 93 0D 28 0C 49 
B0 12 16 7C B0 12 A6 83 0D 4C 7C 40 7F 00 B0 12 
E4 57 3C 43 30 40 44 44 0F 4C 1F 83 3F 90 1B 00 
0A 28 3F 80 78 00 71 24 1F 83 67 24 1F 83 3C 24 
1F 83 2C 24 1E 3C 0F 5F 10 4F 5C 40 32 44 92 40 
92 40 5E 43 32 43 FE 42 EA 42 E0 42 92 40 BC 42 
92 40 2A 44 7E 42 92 40 B4 43 AC 43 5A 42 2C 42 
DE 41 A4 43 8A 43 B2 41 6A 41 1A 41 5C 41 82 43 
38 41 B1 40 C4 84 00 00 81 4C 02 00 2C 43 B0 12 
C4 82 3C 43 B0 12 16 7C 3C 43 CC 3D 09 93 5E 21 
B0 12 A6 83 0D 4C 4C 43 B0 12 E4 57 0C 93 B3 21 
B0 12 1E 83 0C 43 BE 3D 09 93 50 21 4C 43 3D 40 
1A 00 B0 12 8E 73 0C 93 A6 21 3C 40 C8 84 3D 40 
06 00 B0 12 EE 7E 0C 93 9E 21 3C 40 D0 84 2D 43 
B0 12 EE 7E 0C 93 97 21 3C 40 D4 84 3D 40 11 00 
B0 12 EE 7E 0C 93 8F 21 3C 40 E6 84 1D 43 B0 12 
EE 7E 0C 93 88 21 0C 43 95 3D 09 93 27 21 3C 40 
E8 84 1D 43 B0 12 72 7F 8D 3D 09 93 1F 21 3C 40 
EA 84 3D 40 2C 00 F6 3F 39 90 06 00 17 21 3C 40 
82 11 3D 40 06 00 B0 12 78 60 0C 93 6C 21 3C 40 
82 11 B0 12 92 7E 0C 43 0D 43 E4 3F 09 93 06 21 
B0 12 24 73 B0 12 D6 76 F6 3F 19 93 FF 20 B0 12 
4C 44 59 21 B0 12 24 73 C2 93 82 11 0D 20 3C 40 
22 00 B0 12 1C 75 2C C3 0D 4C 3C 40 22 00 B0 12 
B8 72 D2 C3 3E 11 DF 3F 3C 40 22 00 B0 12 1C 75 
2C D3 0D 4C 3C 40 22 00 B0 12 B8 72 D2 D3 3E 11 
D2 3F E2 93 3D 11 02 28 B0 12 48 66 E2 C2 3C 11 
3C 40 50 11 3D 42 B0 12 72 7F 0C 93 2C 21 82 43 
56 11 82 43 54 11 82 43 50 11 0C 43 33 3D 19 93 
C5 20 B0 12 4C 44 1F 21 B0 12 24 73 5A 42 82 11 
3C 40 19 00 B0 12 1C 75 4F 4A 0F 9C 0E 24 E2 93 
3D 11 04 28 B0 12 40 79 B0 12 24 73 4D 4A 3C 40 
19 00 B0 12 B8 72 E2 D3 3C 11 3A 40 88 11 B0 12 
64 69 8A 4C 00 00 0C 4A 2D 43 7C 3F 29 93 9E 20 
3C 40 82 11 2D 43 B0 12 78 60 0C 93 F4 20 E2 93 
3D 11 02 28 B0 12 40 79 B0 12 24 73 5C 42 82 11 
5D 42 83 11 B0 12 F6 73 7E 3F 19 93 87 20 B0 12 
4C 44 E1 20 B0 12 24 73 3A 40 88 11 5C 42 82 11 
B0 12 BA 6B CA 4C 00 00 0C 4A 1D 43 53 3F 29 92 
75 20 3C 40 82 11 2D 42 B0 12 78 60 0C 93 CB 20 
B0 12 24 73 1C 42 82 11 2C 93 0B 28 3C 90 06 00 
06 28 3C 90 13 00 05 28 3C 90 1A 00 02 2C E2 D3 
3C 11 5D 42 84 11 B0 12 B8 72 4D 3F 29 93 56 20 
3C 40 82 11 2D 43 B0 12 78 60 0C 93 AC 20 B0 12 
24 73 3A 40 88 11 1C 42 82 11 B0 12 1C 75 CA 3F 
09 93 44 20 B0 12 4E 7C 36 3F 09 93 3F 20 B0 12 
40 79 E2 B3 3E 11 2F 27 B0 12 60 82 2C 3F 19 93 
35 20 B0 12 4C 44 8F 20 C2 93 3D 11 06 20 B0 12 
24 73 3C 40 43 11 B0 12 EE 70 C2 93 82 11 1B 27 
3C 40 1A 00 3D 40 0F 00 B0 12 B8 72 F2 C2 3A 11 
12 3F 39 90 10 00 1A 2C E2 93 3D 11 02 28 B0 12 
40 79 B0 12 24 73 3A 40 3E 11 0C 4A 0D 49 B0 12 
78 60 0C 93 68 20 0C 4A B0 12 E8 5B FC 3E 09 93 
05 20 3C 40 3E 11 3D 40 0F 00 DC 3E 81 43 00 00 
3C 40 03 00 B0 12 C4 82 3C 43 B0 12 16 7C 3C 43 
61 3C 0C 49 B0 12 E2 4F 5D 3C B0 12 24 73 E2 C3 
3C 11 3A 40 88 11 0C 4A B0 12 62 71 0C 4A 3D 40 
09 00 C0 3E 0C 49 B0 12 CE 62 4C 3C 0C 49 B0 12 
2C 68 48 3C B0 12 24 73 5A 42 4D 11 08 49 05 3C 
92 53 58 11 F2 D0 40 00 3C 11 4F 4A 08 9F 13 2C 
08 93 C1 26 B1 40 16 85 00 00 81 49 02 00 4A 4A 
81 4A 04 00 3C 40 0D 00 B0 12 C4 82 0C 48 B0 12 
16 7C 3C 43 27 3C 37 40 88 11 4D 4A 0C 47 B0 12 
78 60 0C 93 10 20 4F 4A 08 8F 4D 4A 0C 47 3E 40 
A0 0F B0 12 A4 65 4F 4A 0C 9F D2 27 81 43 00 00 
3C 40 05 00 E1 3F 3C 43 0D 3C 0C 49 B0 12 42 61 
09 3C 3A 40 88 11 0C 4A B0 12 88 79 0C 4A 2D 43 
B0 12 72 7F 31 50 06 00 30 40 44 83 3C 40 82 11 
1D 43 B0 12 78 60 0C 93 30 41 0A 12 09 12 08 12 
07 12 06 12 05 12 04 12 31 80 0E 00 B0 12 FA 6E 
B1 40 74 11 00 00 3A 40 72 11 B1 40 73 11 02 00 
81 4A 04 00 37 40 62 11 0F 43 81 4F 06 00 81 4F 
08 00 81 4F 0A 00 2F 41 CF 93 00 00 3A 20 3F 40 
13 00 0F 57 3E 40 12 00 0E 57 EE 4F 00 00 15 42 
70 01 38 40 10 27 09 43 04 43 03 3C 05 5F 08 8F 
09 73 B0 12 D0 46 3C 40 75 00 B0 12 1C 75 06 4C 
36 B0 20 00 F8 27 B0 12 C2 46 36 F0 1F 00 04 96 
07 2C 04 46 6E 4A 0F 44 3F 50 03 00 0E 9F 11 28 
1F 42 70 01 0F 85 08 9F E1 2F 09 93 DF 23 CA 44 
00 00 7F 40 03 00 CA 4F 02 00 CA 4F 03 00 CA 43 
01 00 B0 12 D0 46 3C 40 75 00 B0 12 1C 75 06 4C 
36 B0 20 00 F8 27 B0 12 C2 46 1F 41 02 00 CF 93 
00 00 3B 24 14 42 70 01 38 40 E8 03 09 43 06 43 
1C 3C 1E 41 0C 00 1F 41 04 00 2F 52 81 4F 04 00 
1F 41 02 00 2F 52 81 4F 02 00 2A 52 27 52 2F 41 
2F 52 81 4F 00 00 1F 42 70 01 0F 8E 3F 90 E9 03 
92 2F F9 3F 04 5F 08 8F 09 73 B0 12 D0 46 3C 40 
75 00 B0 12 1C 75 05 4C 35 B0 20 00 F8 27 B0 12 
C2 46 35 F0 1F 00 06 95 01 2C 06 45 1F 42 70 01 
0F 84 08 9F E7 2F 09 93 E5 23 1F 41 08 00 3F 50 
03 00 81 4F 08 00 3F 90 0A 00 08 2C 3C 40 6F 00 
0D 4F B0 12 B8 72 91 42 70 01 0C 00 3F 40 A0 85 
1F 51 06 00 36 F0 1F 00 1E 41 04 00 6D 4E 0E 46 
3E 50 03 00 0E 9D 28 28 D7 47 13 00 12 00 C7 93 
11 00 13 20 1E 41 04 00 6E 4E 0E 96 2F 2C 1E 41 
04 00 CE 46 00 00 7E 40 03 00 C7 4E 12 00 C7 4E 
13 00 D7 43 11 00 6F 4F 22 3C DA 83 01 00 6E 4A 
4D 4E 0D 96 03 2C CA 46 00 00 4E 46 4E 4E 16 53 
06 9E 14 28 6F 4F 13 3C DA 83 02 00 0A 20 FA 90 
80 00 03 00 03 28 FA 43 03 00 03 3C DA 5A 03 00 
03 00 CA 93 01 00 02 24 DA 83 01 00 0F 43 1E 41 
0A 00 0E DF 81 4E 0A 00 1F 41 06 00 1F 53 81 4F 
06 00 2F 92 66 2B 0A 4E 0A 93 0A 20 B0 12 DC 7A 
D2 B3 28 00 FD 23 D2 C3 2B 00 D2 D3 2D 00 15 3C 
3C 40 47 00 0D 43 B0 12 B8 72 C2 43 65 11 B0 12 
DC 7A D2 B3 28 00 FD 23 D2 C3 2B 00 D2 D3 2D 00 
B0 12 24 73 0C 4A B0 12 98 5F 31 50 0E 00 30 40 
3E 83 3C 40 74 00 3D 40 19 00 B0 12 B8 72 30 41 
3C 40 74 00 3D 40 1B 00 B0 12 B8 72 30 41 0A 12 
09 12 08 12 07 12 06 12 05 12 04 12 31 80 06 00 
04 4E 06 4D 05 4C 17 46 02 00 07 55 3A 40 63 00 
0A 55 81 4A 04 00 81 43 02 00 81 43 00 00 3D 40 
20 00 3E 40 64 00 B0 12 9C 82 1F 41 04 00 CF 43 
00 00 3E 40 62 00 0E 55 81 4E 04 00 09 43 08 43 
5F 46 06 00 3F 90 65 00 12 34 3F 90 64 00 29 24 
3F 80 25 00 1E 24 3F 80 20 00 2C 24 2F 83 2A 24 
3F 80 11 00 1E 24 3F 80 0B 00 2C 24 39 3C 3F 80 
65 00 3F 90 03 00 1E 28 2F 82 13 24 3F 80 06 00 
2F 93 0F 28 3F 80 06 00 0C 24 3F 80 03 00 09 24 
27 3C 0C 45 3D 40 3E 85 2E 43 B0 12 FA 82 1C 43 
AD 3C 0C 46 0D 41 2D 53 0E 41 2E 52 0F 44 B0 12 
DC 5C 16 3C 0C 46 0D 41 0E 41 2E 52 0F 44 B0 12 
6E 6D 0E 3C A4 53 00 00 2F 44 5F 4F FE FF 4F 93 
01 20 18 43 CE 4F 00 00 91 83 04 00 A6 C3 00 00 
2F 41 0F 93 04 24 1F 83 35 20 91 43 02 00 2F 43 
2F B6 0F 24 5F 46 06 00 7F 90 75 00 0A 24 7F 90 
6F 00 07 24 7F 90 78 00 04 24 7F 90 58 00 01 24 
19 43 81 93 02 00 08 20 09 93 0D 24 1F 41 04 00 
FF 40 2B 00 00 00 05 3C 1F 41 04 00 FF 40 2D 00 
00 00 91 83 04 00 0F 49 1F D1 02 00 0F 93 0A 20 
2F 42 2F B6 07 24 1F 41 04 00 FF 40 20 00 00 00 
91 83 04 00 1F 43 2F B6 0A 20 0F 4A 1F 81 04 00 
86 9F 02 00 04 38 0A 47 0A 8F 1A 53 01 3C 0A 45 
1D 43 1D 51 04 00 0C 4A 0E 43 3F 40 64 00 B0 12 
C6 7F 81 4C 04 00 08 93 04 24 CC 43 00 00 91 53 
04 00 17 91 04 00 0D 28 1C 41 04 00 1C 83 0E 47 
1E 81 04 00 1E 53 3D 40 20 00 B0 12 9C 82 C7 43 
00 00 3F 40 10 00 2F B6 16 24 0E 4A 0E 85 0C 45 
3D 40 30 00 B0 12 9C 82 19 D1 02 00 09 93 03 20 
2F 42 2F B6 0F 24 0A 95 0D 24 E5 4A 00 00 FA 40 
30 00 00 00 07 3C 0E 4A 0E 85 0C 45 3D 40 20 00 
B0 12 9C 82 0C 45 B0 12 0C 83 0C 58 31 50 06 00 
30 40 3E 83 0A 12 09 12 08 12 21 83 D2 C3 2B 00 
F2 3C 3C 40 36 00 B0 12 1C 75 08 4C 3C 40 37 00 
B0 12 1C 75 09 4C 0F 48 0F D9 0F 93 06 20 81 43 
00 00 3C 40 0B 00 B0 12 C4 82 0A 43 08 93 45 24 
38 B0 10 00 0B 24 3C 40 31 00 3D 40 10 00 B0 12 
B8 72 1C 43 B0 12 5E 80 E2 D2 3A 11 38 B2 02 24 
B0 12 F2 4A 28 B2 02 24 B0 12 F2 4A 18 B3 03 24 
1C 43 B0 12 5E 80 28 B3 20 24 3C 40 38 00 B0 12 
1C 75 0A 4C 3A B2 09 24 3C 40 38 00 3D 40 F7 FF 
B0 12 B8 72 1C 43 B0 12 5E 80 2A B2 0C 24 3C 40 
1A 00 3D 40 FF 00 B0 12 B8 72 3C 40 38 00 3D 40 
FB FF B0 12 B8 72 F2 D2 3A 11 C2 D8 A1 11 0D 48 
3D E3 3C 40 2E 00 B0 12 B8 72 09 93 90 24 39 B0 
10 00 04 24 0C 4A B0 12 26 6B 0A 4C 39 B2 45 24 
C2 93 3D 11 42 20 3C 40 30 00 3D 40 0F 00 B0 12 
B8 72 3C 40 34 00 3D 40 3F 00 B0 12 B8 72 D2 B3 
3E 11 05 24 3C 40 22 00 2D 43 B0 12 B8 72 5D 42 
66 11 3C 40 6B 00 B0 12 B8 72 3C 40 3C 00 2D 43 
B0 12 B8 72 F2 B0 10 00 18 00 1B 20 F2 42 3D 11 
5D 42 47 11 3C 40 05 00 B0 12 B8 72 58 42 45 11 
4D 48 2C 42 B0 12 B8 72 C2 48 4D 11 58 42 46 11 
4D 48 3D D0 10 00 2C 43 B0 12 B8 72 C2 48 4E 11 
02 3C D2 43 3D 11 E2 D3 3C 11 29 B2 1C 24 E2 B3 
62 11 06 24 F2 92 3D 11 16 20 F2 D2 3A 11 13 3C 
B0 12 74 82 3C 40 1A 00 3D 40 F0 00 B0 12 B8 72 
3C 40 30 00 3D 40 10 00 B0 12 B8 72 F2 40 06 00 
3D 11 E2 D3 3A 11 39 B0 20 00 06 24 3C 40 35 00 
3D 40 20 00 B0 12 B8 72 29 B3 0B 24 B0 12 F2 4A 
3C 40 21 00 B0 12 1C 75 3C B0 80 00 02 20 E2 D3 
3C 11 19 B3 04 24 82 43 68 11 82 43 6A 11 C2 D9 
A2 11 0D 49 3D E3 3C 40 32 00 B0 12 B8 72 C2 DA 
A3 11 D2 C3 2B 00 D2 B3 28 00 0B 23 21 53 30 40 
46 83 1C 43 B0 12 5E 80 1C 43 B0 12 24 81 30 41 
0A 12 09 12 08 12 07 12 06 12 05 12 31 80 72 00 
09 4F 06 4E 81 4D 04 00 0A 4C 17 41 80 00 25 4A 
2C 4A B0 12 0C 83 08 4C 08 55 81 43 02 00 05 98 
BC 2C 81 43 06 00 C1 43 0C 00 81 43 08 00 B1 43 
0A 00 0D 3C 2F 4A CF 93 00 00 AF 24 0E 4F 1E 53 
8A 4E 00 00 6C 4F 0D 46 89 12 91 53 02 00 3E 40 
25 00 2F 4A 6E 9F EE 23 9A 53 00 00 0C 41 3C 50 
06 00 0D 4A B0 12 14 7A 0C 41 3C 50 06 00 0E 41 
2E 52 B0 12 EA 5A 2F 4A 6F 4F 3F 80 4C 00 23 24 
3F 80 1C 00 11 24 2F 82 23 20 9A 53 00 00 2F 4A 
3E 40 6C 00 6E 9F 04 24 B1 D0 40 00 06 00 18 3C 
B1 D0 00 01 06 00 12 3C 9A 53 00 00 2F 4A 3E 40 
68 00 6E 9F 04 24 B1 D0 20 00 06 00 09 3C B1 D0 
00 02 06 00 03 3C B1 D0 80 00 06 00 9A 53 00 00 
2E 4A 0F 4E 1F 53 8A 4F 00 00 6F 4E C1 4F 0C 00 
3F 90 6E 00 23 24 3F 90 73 00 13 24 0C 41 3C 50 
0E 00 0D 41 3D 50 06 00 0E 41 2E 52 B0 12 DE 46 
0E 4C 0C 41 3C 50 0E 00 0D 46 87 12 81 5C 02 00 
41 3C 81 49 00 00 0C 41 3C 50 06 00 0D 46 0E 41 
2E 52 0F 41 2F 53 B0 12 4E 64 34 3C 3F 40 60 03 
1F F1 06 00 3F 80 20 00 23 24 3F 80 20 00 0E 24 
3F 80 C0 01 1D 20 2F 43 1F 51 04 00 81 4F 04 00 
1F 4F FE FF DF 41 02 00 00 00 1C 3C 2F 43 1F 51 
04 00 81 4F 04 00 1D 41 02 00 3D B0 00 80 0E 7E 
3E E3 1F 4F FE FF 8F 4D 00 00 8F 4E 02 00 0A 3C 
2F 43 1F 51 04 00 81 4F 04 00 1F 4F FE FF 9F 41 
02 00 00 00 8A 98 00 00 44 2B 1C 41 02 00 31 50 
72 00 30 40 40 83 0A 12 09 12 08 12 21 82 0D 4C 
3C 40 19 00 B0 12 B8 72 3C 40 25 00 3D 40 80 00 
B0 12 B8 72 F2 F0 EF 00 A1 11 3C 40 30 00 3D 40 
10 00 B0 12 B8 72 3C 40 2A 00 3D 40 9A 00 B0 12 
B8 72 18 42 70 01 39 40 29 19 0A 43 0A 3C 1F 42 
70 01 0F 88 09 9F 02 2C 0A 93 5C 24 08 5F 09 8F 
0A 73 F2 B0 10 00 A1 11 F2 27 0C 41 3D 40 03 00 
0E 43 B0 12 8C 67 0C 93 EA 27 5F 41 02 00 5E 42 
41 11 0F 9E 08 20 D1 92 40 11 01 00 04 20 D1 92 
3F 11 00 00 09 24 5E 41 01 00 0E DF 6F 41 0E DF 
0E 93 D5 23 E2 D3 62 11 3C 40 06 00 B0 12 78 6E 
E2 C2 3A 11 5D 42 47 11 3C 40 05 00 B0 12 B8 72 
5A 42 45 11 4D 4A 2C 42 B0 12 B8 72 C2 4A 4D 11 
E2 B3 62 11 0C 20 B0 12 DC 7B 0C 93 1B 24 B0 12 
44 4E 3C 40 2A 00 0D 43 B0 12 B8 72 30 3C 3C 40 
13 00 0D 43 B0 12 B8 72 3C 40 14 00 0D 43 B0 12 
B8 72 3C 40 15 00 0D 43 B0 12 B8 72 B0 12 DC 7B 
0C 93 0F 20 3C 40 06 00 B0 12 78 6E E2 C2 3A 11 
E2 B3 62 11 04 24 B0 12 1E 4E E2 C3 62 11 0C 43 
1B 3C 2C 42 B0 12 78 6E B0 12 1E 4E B0 12 44 4E 
F2 42 3D 11 3C 40 2A 00 0D 43 B0 12 B8 72 5F 42 
44 11 3F F0 03 00 3F 90 03 00 03 20 2C 43 B0 12 
14 80 E2 D3 3C 11 1C 43 21 52 30 40 46 83 5D 42 
41 11 3C 40 13 00 B0 12 B8 72 5D 42 40 11 3C 40 
14 00 B0 12 B8 72 5D 42 3F 11 3C 40 15 00 B0 12 
B8 72 30 41 3C 40 25 00 3D 40 17 00 B0 12 B8 72 
5A 42 46 11 4D 4A 3D D0 10 00 2C 43 B0 12 B8 72 
C2 4A 4E 11 30 41 0A 12 21 82 3C 40 62 11 0D 43 
3E 40 20 00 B0 12 9C 82 B0 12 44 81 0C 93 02 24 
3C 43 AC 3C D2 C3 2C 00 D2 C3 2B 00 D2 B3 28 00 
02 24 D2 D3 2B 00 D2 D3 2D 00 B0 12 96 7D 1C 42 
B0 11 3D 40 0B 00 B0 12 38 82 0C 93 0A 24 1C 42 
B0 11 3D 40 0B 00 B0 12 4C 82 0C 93 02 24 B0 12 
1E 83 C2 43 3D 11 B0 12 2A 7D 3C 40 2B 00 3D 40 
20 00 B0 12 B8 72 3C 40 7F 00 B0 12 1C 75 2C 93 
03 28 3C 90 05 00 0B 28 B1 40 9C 85 00 00 81 4C 
02 00 3C 40 11 00 B0 12 C4 82 3C 43 6F 3C 3C 40 
63 00 3D 40 3F 00 B0 12 B8 72 3C 40 72 00 3D 40 
10 00 B0 12 B8 72 3C 40 F9 00 0D 43 B0 12 B8 72 
3C 40 FC 00 0D 43 B0 12 B8 72 3C 40 FD 00 3D 40 
0C 00 B0 12 B8 72 3C 40 FE 00 0D 43 B0 12 B8 72 
3C 40 C9 00 3D 40 0F 00 B0 12 B8 72 3C 40 C1 00 
3D 40 05 00 B0 12 B8 72 3C 40 00 01 B0 12 14 80 
3C 40 DA 00 3D 40 06 00 B0 12 B8 72 3C 40 DC 00 
3D 40 F3 00 B0 12 B8 72 3C 40 DD 00 3D 40 0D 00 
B0 12 B8 72 B0 12 5C 74 12 C3 0C 10 0D 4C 3C 40 
59 00 B0 12 B8 72 B0 12 18 78 C2 4C 66 11 D2 43 
42 11 D2 43 41 11 3A 40 3E 11 DA 43 00 00 7F 40 
0E 00 C2 4F 45 11 C2 4F 46 11 F2 40 1F 00 47 11 
3C 40 48 11 3D 40 43 11 3E 40 05 00 B0 12 FA 82 
0C 4A B0 12 E8 5B B0 12 40 79 0C 43 21 52 3A 41 
30 41 0A 12 09 12 08 12 07 12 31 80 06 00 0C 93 
15 24 1C 93 0B 24 81 43 00 00 3C 40 03 00 B0 12 
C4 82 3C 43 B0 12 16 7C 3C 43 9B 3C 3C 40 82 11 
1D 43 B0 12 78 60 0C 93 03 24 8A 3C C2 43 82 11 
E2 93 3D 11 02 28 B0 12 48 66 C2 93 82 11 03 24 
F2 D0 46 00 3C 11 38 40 88 11 0C 48 B0 12 88 79 
57 42 88 11 2F 43 6F B8 03 24 3D 40 0D 00 02 3C 
3D 40 03 00 4A 47 2A F2 0A 93 02 24 3D 50 09 00 
49 47 39 F0 40 00 09 93 02 24 3D 50 07 00 4C 43 
B0 12 8E 73 0C 93 5C 20 E1 43 02 00 0C 41 2C 53 
1D 43 B0 12 EE 7E 0C 93 53 20 5D 41 02 00 0C 48 
B0 12 EE 7E 0C 93 4C 20 67 B3 17 24 E2 C3 3C 11 
0C 48 B0 12 62 71 F1 40 09 00 03 00 0C 41 3C 50 
03 00 1D 43 B0 12 EE 7E 0C 93 3A 20 5D 41 03 00 
0C 48 B0 12 EE 7E 0C 93 33 20 0A 93 19 24 E2 C2 
3C 11 F1 42 04 00 0C 41 2C 52 1D 43 B0 12 EE 7E 
0C 93 26 20 3C 40 50 11 5D 41 04 00 B0 12 EE 7E 
0C 93 1E 20 82 43 56 11 82 43 54 11 82 43 50 11 
09 93 1E 24 F2 F0 BF 00 3C 11 F1 40 06 00 05 00 
0C 41 3C 50 05 00 1D 43 B0 12 EE 7E 0C 93 08 20 
3C 40 58 11 5D 41 05 00 B0 12 EE 7E 0C 93 02 24 
3C 43 07 3C 82 43 58 11 82 43 5A 11 82 43 5C 11 
0C 43 31 50 06 00 30 40 44 83 0A 12 09 12 08 12 
07 12 06 12 05 12 04 12 21 82 09 4F 05 4D 06 4E 
07 4C 91 41 16 00 00 00 14 41 14 00 1F 43 0F 57 
81 4F 02 00 0A 4F 3F 40 30 00 C7 4F 00 00 08 43 
B0 12 A2 52 01 34 18 43 2F 41 8F 48 00 00 B0 12 
A2 52 06 34 0C 45 0D 46 B0 12 86 83 05 4C 06 4D 
08 43 1A 3C 3F 40 30 00 CE 4F 00 00 61 3C 0C 45 
0D 46 0E 43 3F 40 20 41 B0 12 FA 64 05 4C 06 4D 
18 83 14 3C 0C 45 0D 46 0E 43 3F 40 20 41 B0 12 
CA 68 05 4C 06 4D 18 53 0C 43 3D 40 00 4F 0E 45 
0F 46 B0 12 AC 78 0C 93 ED 3B 19 53 B0 12 A2 52 
09 24 0C 45 0D 46 0E 43 3F 40 80 3F B0 12 AC 78 
0C 93 D5 3B 0C 45 0D 46 B0 12 F6 6F 0E 4A B0 12 
F4 6D 0A 5C 08 5C 84 48 00 00 0C 99 20 34 09 8C 
19 93 20 38 0C 45 0D 46 B0 12 F6 6F B0 12 F6 78 
0E 4C 0F 4D 0C 45 0D 46 B0 12 CC 56 0E 43 3F 40 
20 41 B0 12 FA 64 05 4C 06 4D B0 12 CE 79 7C 50 
30 00 1A 53 CA 4C FF FF 19 83 E4 23 03 3C 09 57 
19 53 0A 49 1A 83 FA 90 35 00 00 00 13 28 0E 4A 
1E 83 6F 4E 1F 53 DE 53 00 00 7F 90 3A 00 92 2F 
0E 97 08 20 1A 83 CA 43 00 00 94 53 00 00 81 47 
02 00 02 3C CA 43 00 00 1C 41 02 00 21 52 30 40 
3E 83 0C 45 0D 46 0E 43 0F 43 B0 12 AC 78 0C 93 
30 41 0A 12 09 12 08 12 07 12 06 12 05 12 21 83 
5A 42 2D 00 1A F3 D2 C3 2D 00 3C 40 19 00 B0 12 
1C 75 05 4C 3C 40 38 00 3D 40 FE FF B0 12 B8 72 
3C 40 19 00 3D 40 03 00 B0 12 B8 72 3C 40 79 00 
3D 42 B0 12 B8 72 3C 40 6E 00 1D 43 B0 12 B8 72 
1E 42 70 01 1F 42 70 01 0F 8E 3F 90 63 11 FA 2B 
3C 40 79 00 B0 12 1C 75 07 4C 3C 40 79 00 0D 47 
B0 12 B8 72 3C 40 78 00 B0 12 1C 75 0D 4C 3C 40 
78 00 B0 12 B8 72 3C 40 6E 00 0D 43 B0 12 B8 72 
37 B0 10 00 06 20 81 43 00 00 3C 40 10 00 B0 12 
D6 82 06 43 0C 3C 17 83 36 43 04 3C 06 93 48 38 
17 53 16 43 3C 40 79 00 0D 47 B0 12 B8 72 09 43 
08 49 38 90 03 00 01 20 28 42 3C 40 19 00 0D 48 
B0 12 B8 72 3C 40 6E 00 1D 43 B0 12 B8 72 1E 42 
70 01 1F 42 70 01 0F 8E 3F 90 FA 07 FA 2B 3C 40 
38 00 B0 12 1C 75 1C B3 0B 24 3C 40 38 00 3D 40 
FE FF B0 12 B8 72 1C 43 0D 48 B0 12 46 7F 09 DC 
3C 40 6E 00 0D 43 B0 12 B8 72 18 53 38 90 0A 00 
D0 2B 3F 40 07 00 0F F9 0F 93 03 24 39 B0 F0 03 
BD 27 39 B0 00 03 04 24 0F 93 02 20 16 93 B3 3B 
09 93 06 24 81 43 00 00 3C 40 11 00 B0 12 D6 82 
0A 93 02 24 D2 D3 2D 00 3C 40 19 00 0D 45 B0 12 
B8 72 21 53 30 40 40 83 0A 12 09 12 08 12 07 12 
06 12 05 12 04 12 21 82 08 4F 05 4D 06 4E 09 4C 
91 41 16 00 00 00 14 41 14 00 1F 43 0F 59 81 4F 
02 00 0A 4F 3F 40 30 00 C9 4F 00 00 07 43 B0 12 
68 55 01 34 17 43 2F 41 8F 47 00 00 B0 12 68 55 
06 34 0C 45 0D 46 B0 12 86 83 05 4C 06 4D 07 43 
1A 3C 3F 40 30 00 CE 4F 00 00 5B 3C 0C 45 0D 46 
0E 43 3F 40 20 41 B0 12 FA 64 05 4C 06 4D 17 83 
14 3C 0C 45 0D 46 0E 43 3F 40 20 41 B0 12 CA 68 
05 4C 06 4D 17 53 0C 43 3D 40 00 4F 0E 45 0F 46 
B0 12 AC 78 0C 93 ED 3B 18 53 B0 12 68 55 09 24 
0C 45 0D 46 0E 43 3F 40 80 3F B0 12 AC 78 0C 93 
D5 3B 0C 45 0D 46 B0 12 F6 6F 0E 4A B0 12 F4 6D 
0A 5C 0C 57 84 4C 00 00 08 57 18 93 1C 38 0C 45 
0D 46 B0 12 F6 6F B0 12 F6 78 0E 4C 0F 4D 0C 45 
0D 46 B0 12 CC 56 0E 43 3F 40 20 41 B0 12 FA 64 
05 4C 06 4D B0 12 CE 79 7C 50 30 00 1A 53 CA 4C 
FF FF 18 83 E4 23 1A 83 FA 90 35 00 00 00 0B 28 
0E 4A 1E 83 6F 4E 1F 53 DE 53 00 00 7F 90 3A 00 
98 2F 0E 99 05 24 CA 43 00 00 19 41 02 00 08 3C 
09 9A 02 28 1A 41 02 00 CA 43 00 00 94 53 00 00 
0C 49 21 52 30 40 3E 83 0C 45 0D 46 0E 43 0F 43 
B0 12 AC 78 0C 93 30 41 0A 12 09 12 08 12 07 12 
06 12 05 12 31 80 28 00 05 4F 07 4E 09 4C 0A 4D 
16 47 04 00 06 93 05 34 B7 40 06 00 04 00 36 40 
06 00 08 43 3E 43 3F 40 7F 7F B0 12 AC 78 0C 93 
39 34 3C 43 3D 40 7F FF 0E 49 0F 4A B0 12 AC 78 
0C 93 12 34 0C 49 0D 4A 0E 43 0F 43 B0 12 AC 78 
0C 93 3C 24 0C 49 0D 4A 0E 43 3F 40 80 3F B0 12 
AC 78 0C 93 04 38 14 3C 39 43 3A 40 7F FF 18 83 
0C 49 0D 4A 0E 43 3F 40 20 41 B0 12 FA 64 09 4C 
0A 4D 0E 43 3F 40 80 3F B0 12 AC 78 0C 93 EF 3B 
0C 49 0D 4A 0E 43 3F 40 20 41 B0 12 AC 78 0C 93 
04 34 14 3C 39 43 3A 40 7F 7F 18 53 0C 49 0D 4A 
0E 43 3F 40 20 41 B0 12 CA 68 09 4C 0A 4D 0E 43 
3F 40 20 41 B0 12 AC 78 0C 93 EF 37 0F 41 3F 50 
06 00 81 4F 00 00 0F 41 2F 52 81 4F 02 00 0C 41 
3C 52 0D 49 0E 4A 0F 46 B0 12 18 54 0A 4C A1 93 
06 00 08 20 91 83 06 00 18 53 B0 12 0C 83 0C 5A 
CC 43 FF FF 5D 47 06 00 0C 48 0E 45 B0 12 74 70 
1E 47 04 00 0C 4A 1D 41 06 00 0F 45 B0 12 CA 77 
19 43 0C 4A B0 12 0C 83 81 9C 06 00 04 20 3F 42 
2F B7 01 20 09 43 0C 4A 1D 41 06 00 0E 49 0F 45 
B0 12 DE 6C 31 50 28 00 30 40 40 83 3B 40 80 00 
01 3C 0B 43 0A 12 09 12 08 12 07 12 21 83 3F B0 
80 7F 6F 24 3D B0 80 7F 05 20 0C 4E 0D 4F 8B 10 
0D EB 67 3C 0D 5D 08 4D 4D 10 38 F0 00 FF 0D D8 
0F 5F 08 4F 4F 10 38 F0 00 FF 0F D8 09 4C 0A 4D 
3D F0 80 00 C1 4D 00 00 0B EA 0B EF 3B C0 7F FF 
3A D0 80 00 3F D0 80 00 0A 9F 02 20 09 9E 0A 24 
0B 2C 0D 4F 0F 4A 0A 4D 0C 4E 0E 49 09 4C 81 EB 
00 00 02 3C 0B 93 43 20 0C 43 08 4A 88 10 47 48 
8F 10 48 8F 8F 10 0E 24 38 90 19 00 28 2C 18 83 
05 24 12 C3 4F 10 0E 10 18 83 FB 23 12 C3 4F 10 
0E 10 0C 10 0B 93 0B 24 09 8E 4A 7F 4A 93 17 30 
0C 6C 09 69 0C 43 4A 6A 17 83 21 24 F7 3F 09 5E 
4A 6F 04 28 4A 10 09 10 0C 10 17 53 0C 6C 09 63 
4A 63 07 63 17 93 13 38 37 90 FF 00 13 34 7A C0 
80 00 87 10 D1 51 00 00 00 00 07 10 0A D7 0C 49 
0D 4A 21 53 37 41 38 41 39 41 3A 41 30 41 0D 43 
0C 43 F7 3F 3D 40 FF FE D1 61 00 00 00 00 0D 10 
3C 43 EF 3F 0A 12 09 12 08 12 07 12 06 12 05 12 
31 80 0A 00 09 4D 06 4C B1 40 40 85 00 00 91 49 
02 00 02 00 0C 41 2C 52 B0 12 86 7C 2C 49 B0 12 
0C 83 07 4C 0C 41 2C 52 B0 12 0C 83 08 4C 2A 42 
0A 59 2C 42 0C 59 B0 12 0C 83 05 4C 0D 47 0D 58 
0D 5D 0D 55 3D 50 18 00 0C 46 B0 12 8E 73 0C 93 
4C 20 2C 49 0D 47 B0 12 EE 7E 0C 93 46 20 3C 40 
44 85 1D 43 B0 12 EE 7E 0C 93 3F 20 0C 41 2C 52 
0D 48 B0 12 EE 7E 0C 93 38 20 3C 40 46 85 2D 43 
B0 12 EE 7E 0C 93 31 20 3C 40 4A 85 3D 40 10 00 
B0 12 EE 7E 0C 93 29 20 3C 40 46 85 2D 43 B0 12 
EE 7E 0C 93 22 20 2C 49 0D 47 B0 12 EE 7E 0C 93 
1C 20 3C 40 44 85 1D 43 B0 12 EE 7E 0C 93 15 20 
0C 41 2C 52 0D 48 B0 12 EE 7E 0C 93 0E 20 3C 40 
5C 85 1D 43 B0 12 EE 7E 0C 93 07 20 1D 43 0D 55 
0C 4A B0 12 EE 7E 0C 93 02 24 3C 43 01 3C 0C 43 
31 50 0A 00 30 40 40 83 0A 12 09 12 08 12 31 80 
28 00 09 4F 0A 4E 0E 4D 0D 4C 1F 4A 04 00 0F 93 
08 24 0F 93 09 34 BA 40 06 00 04 00 3F 40 06 00 
03 3C 9A 43 04 00 1F 43 0C 41 3C 50 06 00 81 4C 
00 00 0C 41 2C 52 81 4C 02 00 0C 41 3C 52 B0 12 
4A 51 08 4C 0C 43 B1 90 FD FF 06 00 15 38 9A 91 
06 00 04 00 1A 34 06 3C 1F 41 06 00 1F 83 81 4F 
06 00 1C 53 A1 93 06 00 F7 37 06 3C 1F 43 1F 51 
06 00 81 4F 06 00 1C 83 91 93 06 00 F7 3B 5D 4A 
06 00 6D 83 0E 49 B0 12 74 70 0C 48 B0 12 0C 83 
1C 83 0D 43 1C 91 06 00 1F 38 0F 4C 1F 81 06 00 
1F 53 0C 93 07 38 0E 4C 0E 58 6E 4E 7E 90 30 00 
03 24 07 3C 7E 40 30 00 0D 93 03 20 3B 42 2B BA 
08 24 2B 49 0D 4B 1D 83 89 4D 00 00 CB 4E 00 00 
1D 43 1C 83 1F 83 E5 23 0E 43 3F 42 2F FA 0F DD 
0F 93 01 24 1E 43 0C 48 1D 41 06 00 0F 49 B0 12 
DE 6C 31 50 28 00 30 40 46 83 0A 12 0A 4C 5E 4A 
06 00 3E 90 70 00 70 24 0C 43 0F 43 3B 40 60 03 
2B FA 3B 80 20 00 4B 24 3B 80 20 00 2E 24 3B 80 
C0 01 13 24 3E 80 58 00 60 24 3E 80 0C 00 52 24 
3E 80 05 00 4F 24 3E 80 06 00 57 24 3E 80 06 00 
54 24 3E 80 03 00 56 20 50 3C 3E 80 58 00 0F 24 
3E 80 0C 00 3F 24 3E 80 05 00 3C 24 3E 80 06 00 
06 24 3E 80 06 00 03 24 3E 80 03 00 43 20 AD 53 
00 00 2E 4D 5C 4E FE FF 3D 3C 3E 80 58 00 0F 24 
3E 80 0C 00 0C 24 3E 80 05 00 09 24 3E 80 06 00 
06 24 3E 80 06 00 03 24 3E 80 03 00 2B 20 AD 52 
00 00 2F 4D 1C 4F FC FF 1F 4F FE FF 23 3C 3E 80 
58 00 1B 24 3E 80 0C 00 0D 24 3E 80 05 00 0A 24 
3E 80 06 00 12 24 3E 80 06 00 0F 24 3E 80 03 00 
11 20 0B 3C AD 53 00 00 2F 4D 1C 4F FE FF 3C B0 
00 80 0F 7F 3F E3 06 3C 0F 43 AD 53 00 00 2E 4D 
1C 4E FE FF 0D 4F 3A 41 30 41 0A 12 09 12 08 12 
31 80 0A 00 08 4E 0A 4D 09 4C 3E 40 2A 00 2F 4A 
6E 9F 1D 24 0C 41 0D 43 3E 40 0A 00 B0 12 9C 82 
2F 4A FF 90 30 00 00 00 09 28 0E 41 2F 4A FF 90 
3A 00 00 00 03 2C B0 12 D0 5B F8 2F C1 93 00 00 
18 24 0C 41 B0 12 82 76 89 4C 02 00 12 3C A8 53 
00 00 2F 48 1F 4F FE FF 0F 93 03 38 89 4F 02 00 
06 3C 3F E3 1F 53 89 4F 02 00 99 D3 00 00 9A 53 
00 00 3E 40 2E 00 2F 4A 6E 9F 2E 20 9A 53 00 00 
2F 4A 3E 40 2A 00 6E 9F 1F 24 0C 41 0D 43 3E 40 
0A 00 B0 12 9C 82 2F 4A FF 90 30 00 00 00 09 28 
0E 41 2F 4A FF 90 3A 00 00 00 03 2C B0 12 D0 5B 
F8 2F C1 93 00 00 04 24 0C 41 B0 12 82 76 01 3C 
0C 43 89 4C 04 00 08 3C A8 53 00 00 2F 48 99 4F 
FE FF 04 00 9A 53 00 00 31 50 0A 00 30 40 46 83 
0D 4F 1D 53 8A 4D 00 00 1E 53 EE 4F FF FF 2F 4A 
FF 90 30 00 00 00 30 41 0A 12 09 12 08 12 07 12 
0A 4C 3A 90 3E 11 07 24 3C 40 3E 11 0D 4A 3E 40 
0F 00 B0 12 FA 82 F2 40 05 00 63 11 1F 43 6F BA 
06 20 3C 40 22 00 0D 43 B0 12 B8 72 05 3C 3C 40 
22 00 2D 43 B0 12 B8 72 5D 4A 04 00 3C 40 16 00 
B0 12 B8 72 07 4A 39 40 03 00 09 57 6D 49 3C 40 
13 00 B0 12 B8 72 28 43 08 57 6D 48 3C 40 14 00 
B0 12 B8 72 17 53 6D 47 3C 40 15 00 B0 12 B8 72 
5D 4A 04 00 3C 40 41 00 B0 12 B8 72 6D 49 3C 40 
42 00 B0 12 B8 72 6D 48 3C 40 43 00 B0 12 B8 72 
6D 47 3C 40 44 00 B0 12 B8 72 2F 43 6F BA 0C 20 
3C 40 4A 00 3D 40 87 00 B0 12 B8 72 3C 40 79 00 
3D 42 B0 12 B8 72 11 3C 0E 43 0C 4E B0 12 82 81 
1E 53 2E 92 FA 2B D2 43 64 11 3C 40 4A 00 3D 40 
86 00 B0 12 B8 72 B0 12 B2 52 3C 40 05 00 0C 5A 
B0 12 EE 70 B0 12 D6 76 30 40 44 83 0A 12 09 12 
08 12 07 12 21 83 0A 4D 0D 4F 09 4E 08 4C 88 93 
04 00 04 38 B8 F0 EF FF 00 00 02 3C 98 43 04 00 
5F 48 06 00 3F 80 58 00 0A 24 3F 80 17 00 0A 24 
1F 83 05 24 3F 82 03 24 37 40 0A 00 04 3C 37 40 
10 00 01 3C 37 42 B0 12 EA 59 88 93 04 00 04 20 
0D 93 02 20 0C 93 40 24 5F 48 06 00 7F 90 64 00 
03 24 7F 90 69 00 0A 20 0D 93 08 34 9A 43 00 00 
3C E3 3D E3 1C 53 0D 63 5F 48 06 00 81 49 00 00 
4F 4F 0E 47 B0 12 FC 69 3E 40 30 00 02 3C B0 12 
BE 5D 1C 53 88 9C 04 00 FA 37 5F 48 06 00 7F 90 
78 00 03 24 7F 90 58 00 0F 20 3D 42 2D B8 0C 24 
2D 49 0F 4D 1F 83 89 4F 00 00 DD 48 06 00 00 00 
B0 12 BE 5D 5F 48 06 00 3F 90 6F 00 05 20 3F 42 
2F B8 02 24 B0 12 BE 5D 21 53 30 40 44 83 2D 49 
0F 4D 1F 83 89 4F 00 00 CD 4E 00 00 30 41 0A 12 
B2 40 80 5A 20 01 C2 43 21 00 C2 43 22 00 C2 43 
29 00 F2 40 F6 00 2A 00 F2 40 11 00 19 00 F2 40 
F1 00 1A 00 F2 40 17 00 1D 00 F2 40 DF 00 1E 00 
C2 43 31 00 F2 40 F0 00 32 00 C2 43 35 00 F2 43 
36 00 F2 40 C4 00 57 00 B2 40 50 00 72 01 B2 40 
10 02 60 01 E2 C3 02 00 82 43 70 01 92 C3 62 01 
92 B3 62 01 FD 27 E2 B3 02 00 F4 23 F2 40 D0 00 
58 00 82 43 60 01 3C 40 3A 11 0D 43 3E 40 24 00 
B0 12 9C 82 3C 40 5E 11 0D 43 2E 43 B0 12 9C 82 
B0 12 EE 7F 0A 43 B0 12 64 81 0C 93 1A 20 B0 12 
80 80 0C 93 16 20 32 D2 B0 12 C4 80 0C 93 11 20 
B0 12 4E 83 1A 43 3C 40 92 00 2D 42 B0 12 88 82 
0C 93 07 20 B0 12 66 4E 0C 93 03 20 E2 D3 3B 11 
09 3C 0A 93 01 20 FF 3F 3C 40 03 00 B0 12 BE 7C 
D2 D3 3B 11 3A 41 30 41 0A 12 09 12 31 80 12 00 
0A 4D 09 4C 09 93 05 24 0C 4A B0 12 16 7C 0C 43 
5F 3C C2 93 A5 11 32 20 D2 93 A6 11 0A 24 81 43 
00 00 1C 43 B0 12 C4 82 0C 4A B0 12 16 7C 3C 43 
4F 3C E2 D2 A1 11 2D 42 B0 12 BE 74 0C 93 F4 23 
0A 93 26 24 3A 92 02 2C 09 4A 01 3C 39 42 0C 41 
3C 50 0A 00 0D 49 B0 12 78 60 0C 93 0D 20 0A 89 
0C 41 3C 50 0A 00 0D 49 B0 12 BE 74 0C 93 DC 23 
0A 93 E8 23 0C 43 2C 3C 3C 43 2A 3C B0 12 64 7E 
0C 49 2D 42 B0 12 58 7A 0C 93 CE 23 0A 93 02 20 
0C 43 1E 3C 3A 92 02 2C 09 4A 01 3C 39 42 0C 41 
2C 53 0D 49 B0 12 78 60 0C 93 11 20 0A 89 0C 41 
2C 53 0D 49 B0 12 58 7A 0C 93 04 20 0A 93 EA 23 
0C 43 06 3C 0C 4A B0 12 16 7C 3C 43 01 3C 3C 43 
31 50 12 00 30 40 48 83 0A 12 09 12 08 12 07 12 
06 12 31 80 06 00 28 42 0E 41 3D 40 A0 85 0F 43 
0A 4F CD BC 00 00 0A 24 0B 4F 0B 5B 0B 5B 5B 4B 
72 11 49 4B 0A 99 02 2C 4A 4B 07 4F 1D 53 1F 53 
2F 92 EF 2B 0A 93 0A 24 CE 47 00 00 5F 47 A0 85 
0C CF 0C 93 03 24 1E 53 18 83 DF 23 1E 53 FE 43 
00 00 2C 43 3D 40 13 00 B0 12 B8 72 F2 40 03 00 
4E 11 C2 93 44 11 06 24 5D 42 44 11 3C 40 17 00 
B0 12 B8 72 07 41 08 43 69 47 79 93 27 24 4F 49 
0A 4F 0A 5A 0A 5F 06 43 0F 46 0F 5A 5C 4F 7E 85 
7C 93 18 24 4C 4C B0 12 B6 4C 0C 93 05 20 16 53 
36 90 03 00 F1 2B 0E 3C 3F 40 73 11 2E 42 CF 43 
00 00 2F 52 1E 83 FB 23 4C 49 B0 12 82 81 E2 43 
64 11 06 3C 17 53 18 53 28 92 D6 2B B0 12 40 79 
31 50 06 00 30 40 42 83 0A 12 09 12 21 83 5F 42 
A5 11 0F 93 2B 24 1F 83 51 20 09 4D 0A 4C 09 93 
4B 24 1E 42 B2 11 F2 B2 A1 11 0E 20 1F 42 B2 11 
0F 8E 3F 90 D2 07 F7 2B 81 43 00 00 3C 40 06 00 
B0 12 C4 82 3C 43 40 3C F2 C2 A1 11 3C 40 1F 00 
B0 12 1C 75 1A 53 CA 4C FF FF 3C 40 1C 00 3D 40 
20 00 B0 12 B8 72 19 83 DC 23 26 3C 0D 93 24 24 
1E 42 B2 11 F2 B0 10 00 03 00 12 20 E2 B3 A4 11 
0D 20 1F 42 B2 11 0F 8E 3F 90 D2 07 F3 2B 81 43 
00 00 3C 42 B0 12 C4 82 3C 43 16 3C E2 C3 A4 11 
1C 53 DC 42 7E 00 FF FF F2 D0 80 00 22 00 F2 F0 
7F 00 22 00 1D 83 DC 23 0C 43 08 3C 81 43 00 00 
1C 43 B0 12 C4 82 3C 43 D2 C3 A4 11 21 53 30 40 
48 83 0A 12 09 12 08 12 07 12 21 83 2C 93 0B 24 
81 43 00 00 3C 40 03 00 B0 12 C4 82 3C 43 B0 12 
16 7C 3C 43 4F 3C 3C 40 82 11 2D 43 B0 12 78 60 
0C 93 47 20 C2 93 3D 11 05 20 0C 43 0D 43 B0 12 
72 7F 40 3C 5A 42 4E 11 1C 43 B0 12 1C 75 4D 4A 
B0 12 B0 82 08 4C 1C 42 82 11 0C 98 08 2C 4D 4A 
B0 12 0C 82 4D 4A B0 12 B0 82 09 4C 01 3C 09 48 
4C 43 0D 49 B0 12 8E 73 0C 93 23 20 05 3C 92 53 
5A 11 F2 D0 40 00 3C 11 4F 4A 09 9F 0B 2C 82 98 
82 11 06 28 3C 40 30 00 3D 40 10 00 B0 12 B8 72 
0C 43 10 3C 37 40 88 11 4D 4A 0C 47 0E 43 B0 12 
8C 67 4F 4A 09 8F 4D 4A 0C 47 B0 12 EE 7E 0C 93 
DE 27 3C 43 21 53 30 40 44 83 0A 12 09 12 08 12 
07 12 31 80 10 00 59 42 4D 11 F2 90 06 00 3D 11 
52 20 5A 42 6D 11 F2 B2 6C 11 0A 20 49 93 12 24 
4E 49 0F 41 1F 53 CF 4A FF FF 1E 83 FB 23 0A 3C 
49 93 08 24 4E 49 0F 41 1F 53 CF 4A FF FF 5A 53 
1E 83 FA 23 17 42 6E 11 0F 47 1F 83 3F 90 40 00 
02 28 37 40 40 00 08 43 4D 49 0C 41 0E 43 B0 12 
A4 65 0C 93 16 24 18 53 08 97 10 2C F2 B2 6C 11 
F3 27 49 93 F1 27 0E 41 0F 43 1E 53 CE 4A FF FF 
5A 53 1F 53 4D 49 0F 9D E7 2F F7 3F C2 4A 6D 11 
02 3C E2 41 6D 11 08 93 0E 24 82 93 6E 11 06 24 
82 88 6E 11 03 20 F2 F0 EF 00 3A 11 82 58 58 11 
F2 D0 40 00 3C 11 31 50 10 00 30 40 44 83 0A 12 
21 83 2C 93 0B 24 81 43 00 00 3C 40 03 00 B0 12 
C4 82 3C 43 B0 12 16 7C 3C 43 4E 3C 3C 40 82 11 
2D 43 B0 12 78 60 0C 93 02 24 3C 43 45 3C B0 12 
24 73 C2 93 82 11 0E 20 B0 12 68 83 D2 93 3D 11 
05 20 3C 40 6E 00 0D 43 B0 12 B8 72 0C 43 B0 12 
EA 66 2E 3C 0C 43 B0 12 5E 80 5A 42 83 11 3C 40 
19 00 B0 12 1C 75 4F 4A 0F 9C 0E 24 E2 93 3D 11 
04 28 B0 12 40 79 B0 12 24 73 4D 4A 3C 40 19 00 
B0 12 B8 72 E2 D3 3C 11 D2 93 3D 11 0E 20 3C 40 
6E 00 3D 40 19 00 B0 12 B8 72 1E 42 70 01 1F 42 
70 01 0F 8E 3F 90 FF 10 FA 2B 1C 43 B0 12 EA 66 
0C 43 0D 43 B0 12 72 7F 21 53 3A 41 30 41 0A 12 
31 80 06 00 0C 41 2C 53 2D 42 B0 12 78 60 0C 93 
50 20 5D 41 05 00 4F 4D 8F 10 5D 41 04 00 0D DF 
5E 41 02 00 3F 40 0F 00 0F FE 0F 93 39 24 3F 90 
03 00 07 24 0C 41 2C 53 B0 12 B8 5E 0C 93 13 24 
38 3C 0C 4E B0 12 68 7F 0F 4C 0C 4E B0 12 3C 7F 
4C DF C2 4C A7 11 D2 D3 A4 11 5C 41 03 00 B0 12 
00 40 0C 93 06 20 E2 B3 78 00 25 24 B0 12 32 7E 
22 3C D2 B3 A4 11 1D 24 B0 12 A0 83 0A 4C 7C 40 
7F 00 0D 4A B0 12 E4 57 0C 93 13 20 2C 4A 1D 4A 
02 00 B0 12 4C 82 0C 93 0C 24 B0 12 1E 83 09 3C 
81 43 00 00 3C 40 0A 00 B0 12 C4 82 3C 43 B0 12 
16 7C B0 12 32 7E 31 50 06 00 3A 41 30 41 0A 12 
09 12 08 12 07 12 06 12 05 12 04 12 09 4F 04 4D 
05 4C 17 41 10 00 AE 53 00 00 2F 4E 18 4F FE FF 
08 93 3F 24 1A 45 04 00 0A 93 07 38 0C 48 B0 12 
0C 83 0A 9C 02 2C 0C 4A 03 3C 0C 48 B0 12 0C 83 
06 4C 1A 45 02 00 06 9A 01 38 0A 46 89 5A 00 00 
06 9A 0E 34 1F 43 2F B5 0B 20 0F 4A 0F 86 1F 93 
07 38 09 4F 7C 40 20 00 0D 44 87 12 19 83 FA 23 
16 93 08 38 18 83 09 46 18 53 6C 48 0D 44 87 12 
19 83 FA 23 06 9A 0F 34 1F 43 2F B5 0C 24 0A 86 
1A 93 09 38 7C 40 20 00 0D 44 87 12 1A 83 FA 23 
02 3C 4C 43 87 12 30 40 3E 83 0A 12 09 12 08 12 
07 12 07 4F 07 ED 0A 4F 0A 5A 8A 10 4A 4A 0A 93 
40 24 7F D0 80 00 0B 4D 0B 5B 8B 10 4B 4B 0B 93 
33 24 7D D0 80 00 0B 5A 3B 80 7F 00 08 43 09 43 
0E 93 09 24 1A 43 0E 10 02 28 08 5C 09 6D 09 10 
08 10 0A 5A F8 2B 1A 43 0F 10 02 28 08 5C 09 6D 
09 10 08 10 0E 10 4A 5A F7 23 49 93 02 34 1B 53 
03 3C 0E 6E 08 68 49 69 0E 6E 08 63 49 63 0B 63 
1B 93 0F 38 3B 90 FF 00 0F 34 49 59 8B 10 09 DB 
07 57 09 10 0D 49 0C 48 37 41 38 41 39 41 3A 41 
30 41 0C 43 0D 43 F8 3F 3D 40 FF FE 3C 43 07 57 
0D 10 F2 3F 0A 12 09 12 08 12 07 12 06 12 05 12 
06 4E 07 4D 08 4C 09 47 09 93 02 20 0C 43 42 3C 
1A 42 68 11 15 42 B2 11 1C 43 B0 12 24 81 0A 93 
07 24 2E 3C 0C 48 0D 4A B0 12 CA 7D 08 5A 09 8A 
3C 40 03 00 B0 12 1C 75 3A 40 40 00 0A 8C 1A 20 
06 93 0A 24 1F 42 B2 11 0F 85 0E 46 2E 53 0F 9E 
03 2C F2 B2 3A 11 05 24 82 43 68 11 0C 47 0C 89 
19 3C 1E 42 B2 11 1F 42 B2 11 0F 8E 3F 90 03 00 
DF 2F F9 3F 5D 42 4D 11 0C 4A B0 12 B0 82 0A 4C 
0A 99 D0 2B 0C 48 0D 49 B0 12 CA 7D 0A 89 82 4A 
68 11 0C 47 30 40 40 83 0A 12 09 12 3C 40 06 00 
3D 40 03 00 B0 12 B8 72 3C 40 10 00 B0 12 1C 75 
0A 4C 3C 40 0F 00 B0 12 1C 75 09 4C 3C 40 06 00 
0D 43 B0 12 B8 72 0F 4A 0F D9 0F 93 06 24 82 5A 
56 11 82 59 54 11 E2 D2 3C 11 F2 B0 20 00 A2 11 
2A 24 3C 40 38 00 B0 12 1C 75 0A 4C 3A B0 10 00 
0A 24 92 43 50 11 E2 D2 3C 11 3C 40 38 00 3D 40 
EF FF B0 12 B8 72 3A B0 20 00 0C 24 3C 40 24 00 
3D 40 8A 00 B0 12 B8 72 3C 40 38 00 3D 40 DF FF 
B0 12 B8 72 F2 F0 DF 00 A2 11 3C 40 34 00 3D 40 
20 00 B0 12 B8 72 30 40 48 83 E2 B3 9E 11 27 20 
0C 93 23 24 3C 40 5C 00 B0 12 1C 75 3D 40 30 00 
0D DC 3C 40 5C 00 B0 12 B8 72 3C 40 5D 00 B0 12 
1C 75 3D 40 71 00 0D DC 3C 40 5D 00 B0 12 B8 72 
3C 40 6A 00 B0 12 1C 75 3D 40 40 00 0D DC 3C 40 
6A 00 B0 12 B8 72 E2 D3 9E 11 0C 43 30 41 0C 93 
23 20 3C 40 5C 00 B0 12 1C 75 3D 40 CF FF 0D FC 
3C 40 5C 00 B0 12 B8 72 3C 40 5D 00 B0 12 1C 75 
3D 40 8E FF 0D FC 3C 40 5D 00 B0 12 B8 72 3C 40 
6A 00 B0 12 1C 75 3D 40 BF FF 0D FC 3C 40 6A 00 
B0 12 B8 72 E2 C3 9E 11 1C 43 30 41 0A 12 09 12 
08 12 07 12 06 12 05 12 08 4E 06 4D 07 4C 09 46 
09 93 02 20 0C 43 40 3C 1A 42 6A 11 15 42 B2 11 
0A 93 07 24 2F 3C 0C 47 0D 4A B0 12 62 78 07 5A 
09 8A 1C 43 B0 12 1C 75 0A 4C 0A 93 1E 20 F2 F0 
EF 00 A1 11 3C 40 30 00 3D 40 10 00 B0 12 B8 72 
F2 B0 10 00 A1 11 ED 23 08 93 0A 24 1F 42 B2 11 
0F 85 0E 48 2E 53 0F 9E 03 2C F2 B2 3A 11 F0 27 
82 43 6A 11 0C 46 0C 89 0F 3C 5D 42 4E 11 B0 12 
B0 82 0A 4C 0A 99 CF 2B 0C 47 0D 49 B0 12 62 78 
0A 89 82 4A 6A 11 0C 46 30 40 40 83 0A 12 09 12 
21 83 0D 4C 3D 90 03 00 0F 24 2D 93 0B 24 81 43 
00 00 3C 40 03 00 B0 12 C4 82 3C 43 B0 12 16 7C 
3C 43 38 3C C2 43 84 11 3C 40 82 11 B0 12 78 60 
0C 93 02 24 3C 43 2E 3C 59 42 84 11 89 10 5F 42 
82 11 09 DF B0 12 24 73 39 B0 40 00 1C 24 5A 42 
83 11 8A 11 0A 93 17 38 3C 40 19 00 B0 12 1C 75 
0A 9C 11 24 5A 42 83 11 8A 11 E2 93 3D 11 04 28 
B0 12 40 79 B0 12 24 73 0D 4A 3C 40 19 00 B0 12 
B8 72 E2 D3 3C 11 0C 49 B0 12 14 80 0C 43 0D 43 
B0 12 72 7F 21 53 30 40 48 83 0A 12 09 12 08 12 
07 12 07 4F 07 ED 0A 4F 0A 5A 8A 10 4A 4A 0A 93 
3B 24 7F D0 80 00 0B 4D 0B 5B 8B 10 4B 4B 0B 93 
2B 24 7D D0 80 00 0B 8A 3B 50 7F 00 3A 40 18 00 
08 43 09 43 0C 8E 0D 7F 03 2C 0C 5E 0D 6F 12 C3 
08 68 09 69 0C 5C 0D 6D 1A 83 F4 23 49 93 03 30 
1A 53 1B 83 EF 3F 0C 7E 0D 7F 08 63 49 63 0B 63 
1B 93 0F 38 3B 90 FF 00 0F 34 49 59 8B 10 09 DB 
07 57 09 10 0D 49 0C 48 37 41 38 41 39 41 3A 41 
30 41 0C 43 0D 43 F8 3F 3C 40 FF FE 3D 43 07 57 
0D 10 F2 3F 0A 12 09 12 08 12 07 12 06 12 3C 40 
6A 00 B0 12 1C 75 09 4C 3D 40 20 00 0D D9 3C 40 
6A 00 B0 12 B8 72 0A 43 F2 B0 20 00 1C 00 02 24 
08 43 0F 3C 3C 40 6E 00 3D 40 19 00 B0 12 B8 72 
1E 42 70 01 1F 42 70 01 0F 8E 3F 90 FF 10 FA 2B 
18 43 1C 43 B0 12 9A 7A 06 4C 17 42 B2 11 3C 40 
18 00 B0 12 BA 6B 0A 9C 01 2C 0A 4C 1F 42 B2 11 
0F 87 3F 90 0D 00 F3 2B 0C 46 B0 12 9A 7A 08 93 
05 24 3C 40 6E 00 0D 43 B0 12 B8 72 3C 40 6A 00 
0D 49 B0 12 B8 72 0C 4A 30 40 42 83 0A 12 09 12 
08 12 07 12 06 12 05 12 04 12 21 83 05 4F 08 4E 
0A 4C 09 4D 17 41 12 00 09 93 0B 20 0A 93 09 20 
2E 47 0F 4E 1F 83 87 4F 00 00 FE 40 30 00 00 00 
29 3C 38 B0 00 80 06 76 36 E3 0C 4A 0D 49 0E 48 
B0 12 FE 7D 81 4C 00 00 04 4D 0C 48 0D 46 2E 41 
0F 44 B0 12 C0 7E 0A 8C 09 7D 75 90 58 00 03 20 
3A 50 10 00 09 63 2F 47 0E 4F 1E 83 87 4E 00 00 
3A 50 1C 85 EF 4A 00 00 2A 41 09 44 09 93 DD 23 
0A 93 DB 23 2C 47 B0 12 0C 83 1C 83 21 53 30 40 
3E 83 0C 93 47 20 5F 42 99 11 5F 83 0F 93 40 20 
E2 42 99 11 5F 42 9A 11 5F 83 0F 93 0D 20 F2 40 
0F 00 9A 11 C2 93 9D 11 03 20 F2 F0 EF 00 1D 00 
F2 F0 EF 00 9C 11 02 3C C2 4F 9A 11 D2 B3 98 11 
0A 24 3C 40 03 00 B0 12 1C 75 0C 93 04 20 D2 D3 
9B 11 D2 C3 98 11 E2 B3 98 11 09 24 1C 43 B0 12 
1C 75 0C 93 04 20 E2 D3 9B 11 E2 C3 98 11 C2 93 
9D 11 03 20 D2 D2 9C 11 1D 00 D2 42 9B 11 9C 11 
F2 90 03 00 9D 11 06 20 F2 E0 17 00 1D 00 30 41 
C2 4F 99 11 30 41 0A 12 21 83 0A 4C 0A 93 05 20 
3C 40 38 00 B0 12 1C 75 0A 4C 2A B3 12 24 81 43 
00 00 3C 40 0C 00 B0 12 C4 82 3C 40 29 00 3D 40 
10 00 B0 12 B8 72 3C 40 38 00 3D 40 FD FF B0 12 
B8 72 1A B3 0C 24 3C 40 38 00 3D 40 FE FF B0 12 
B8 72 81 43 00 00 3C 40 0F 00 B0 12 C4 82 3A B0 
40 00 17 24 3C 40 C0 00 3D 40 80 00 B0 12 B8 72 
3C 40 5A 00 3D 40 0F 00 B0 12 B8 72 3C 40 5B 00 
3D 40 0F 00 B0 12 B8 72 3C 40 C0 00 0D 43 B0 12 
B8 72 0C 4A 21 53 3A 41 30 41 0A 12 09 12 08 12 
21 83 09 4C 5A 42 9E 11 1A F3 1D 43 0D D9 3C 40 
74 00 B0 12 B8 72 0A 93 08 20 1E 42 70 01 1F 42 
70 01 0F 8E 3F 90 10 00 FA 2B 3D 40 03 00 0D D9 
3C 40 74 00 B0 12 B8 72 1E 42 70 01 1F 42 70 01 
0F 8E 3F 90 03 00 FA 2B 19 42 B2 11 3C 40 75 00 
B0 12 1C 75 08 4C 38 B0 20 00 0E 20 1F 42 B2 11 
0F 89 3F 90 66 00 F2 2B 81 43 00 00 3C 40 0A 00 
B0 12 D6 82 08 43 02 3C 38 F0 1F 00 3C 40 74 00 
0D 4A B0 12 B8 72 0C 48 21 53 30 40 46 83 0A 12 
09 12 08 12 07 12 06 12 05 12 31 80 10 00 5F 42 
6C 11 6F B3 02 20 05 43 2C 3C 58 42 4E 11 59 42 
70 11 0A 43 7F B0 10 00 01 24 1A 43 36 40 40 00 
15 43 07 43 4D 48 0C 41 0E 43 B0 12 8C 67 0C 93 
11 24 E2 B2 6C 11 0B 24 48 93 09 24 4F 48 0E 41 
79 9E 02 24 92 53 5C 11 49 5A 1F 83 F9 23 17 53 
16 83 E8 23 C2 49 70 11 82 57 5A 11 F2 D0 40 00 
3C 11 E2 C2 3A 11 05 93 06 24 3C 40 30 00 3D 40 
10 00 B0 12 B8 72 31 50 10 00 30 40 40 83 0A 12 
09 12 08 12 07 12 06 12 08 4F 06 4E 09 4D 07 4C 
0A 43 19 93 07 38 B0 12 0C 83 0C 99 03 38 0A 47 
0A 59 1A 83 06 93 08 24 2E 48 0F 4E 1F 83 88 4F 
00 00 FE 40 2E 00 00 00 36 40 30 00 08 3C 2E 48 
0F 4E 1F 83 88 4F 00 00 CE 46 00 00 19 83 0C 47 
B0 12 0C 83 0C 99 F3 3B 19 93 10 38 0A 97 15 28 
0F 4A 0F 87 1F 53 2D 48 0E 4D 1E 83 88 4E 00 00 
ED 4A 00 00 1A 83 1F 83 F6 23 07 3C 2E 48 0F 4E 
1F 83 88 4F 00 00 CE 46 00 00 30 40 42 83 0A 12 
09 12 08 12 07 12 06 12 07 4E 06 4D 08 4C AF 52 
00 00 2F 4F 19 4F FC FF 1A 4F FE FF 0C 49 0D 4A 
0E 43 0F 43 B0 12 AC 78 0C 93 08 34 96 43 00 00 
0C 49 0D 4A B0 12 86 83 09 4C 0A 4D 5F 48 06 00 
3F 80 45 00 17 24 2F 83 07 24 3F 80 1E 00 12 24 
1F 83 09 24 1F 83 14 20 0C 49 0D 4A 0E 48 0F 47 
B0 12 E8 58 0D 3C 0C 49 0D 4A 0E 48 0F 47 B0 12 
D6 71 06 3C 0C 49 0D 4A 0E 48 0F 47 B0 12 78 55 
30 40 42 83 0A 12 09 12 08 12 07 12 06 12 31 80 
14 00 09 4E 0A 43 0D 93 01 34 1A 43 06 4C 07 4D 
08 41 38 50 13 00 C8 43 00 00 3E 40 0A 00 0F 43 
B0 12 5E 7B 0C 4E B0 12 7C 83 7C 50 30 00 18 83 
C8 4C 00 00 0C 46 0D 47 3E 40 0A 00 0F 43 B0 12 
5E 7B 06 4C 07 4D 07 93 E8 23 06 93 E6 23 0A 93 
04 24 18 83 F8 40 2D 00 00 00 0A 41 0A 88 3A 50 
14 00 0E 4A 0C 49 0D 48 B0 12 FA 82 0C 4A 1C 83 
31 50 14 00 30 40 42 83 0A 12 21 83 0A 4C F2 C2 
A2 11 3C 40 2A 00 3D 42 B0 12 B8 72 3C 40 29 00 
2D 43 B0 12 B8 72 2A B2 05 24 3C 40 25 00 0D 43 
B0 12 B8 72 1E 42 B2 11 F2 B2 A2 11 0C 20 1F 42 
B2 11 0F 8E 3F 90 20 00 F7 2B 81 43 00 00 3C 40 
07 00 B0 12 D6 82 3C 40 29 00 0D 43 B0 12 B8 72 
1A B3 04 24 3C 40 20 00 B0 12 28 77 2A B3 0A 24 
3C 40 40 00 B0 12 28 77 3C 40 2E 00 3D 40 EF FF 
B0 12 B8 72 21 53 3A 41 30 41 0A 12 D2 C3 2D 00 
F2 D0 10 00 19 00 D2 B3 28 00 FD 27 3C 40 6F 00 
0D 43 B0 12 B8 72 3C 40 6E 00 1D 43 B0 12 B8 72 
1A 42 70 01 1F 42 70 01 0F 8A 3F 90 A5 06 FA 2B 
3C 40 6E 00 3D 40 31 00 B0 12 B8 72 1F 42 70 01 
0F 8A 3F 90 C2 07 FA 2B 3C 40 74 00 3D 40 19 00 
B0 12 B8 72 1F 42 70 01 0F 8A 3F 90 D1 07 FA 2B 
3C 40 37 00 B0 12 1C 75 3C B0 10 00 03 24 0C 43 
B0 12 26 6B 3A 41 30 41 0A 12 B0 12 CE 5D C2 93 
3A 11 1A 24 D2 B3 3A 11 02 24 B0 12 04 81 E2 B3 
3A 11 02 24 B0 12 AC 83 E2 B2 3A 11 02 24 B0 12 
4E 6C F2 B2 3A 11 02 24 B0 12 40 79 F2 B0 10 00 
3A 11 02 24 B0 12 0A 62 1F 42 B2 11 1E 42 5E 11 
0F 8E 3F 90 34 00 DB 2B B2 50 32 00 5E 11 1F 42 
B2 11 0A 43 0F 8E 3F 80 32 00 3F 90 34 00 01 28 
1A 43 E2 B3 3B 11 03 24 0C 4A B0 12 9E 7B 0C 4A 
B0 12 92 6A C4 3F 0B 4D 0E 4B 3B F0 80 7F 37 24 
0B 5B 8B 10 7E D0 80 00 3B 80 7F 00 30 30 3B 90 
1F 00 16 24 26 34 3B 80 17 00 05 30 1B 83 08 30 
0C 5C 0E 6E FB 3F 0E 11 0C 10 1B 53 01 24 FB 3F 
0D 93 04 34 3E E3 3C E3 1C 53 0E 63 0D 4E 30 41 
3E D0 00 01 0C 5C 0E 6E FD 2F 0E 11 0C 10 3E 90 
00 40 01 24 06 3C 0D 93 04 34 3D 40 00 80 0C 43 
30 41 0D 93 FA 33 3D 40 FF 7F 3C 43 30 41 0D 43 
0C 43 30 41 0A 12 09 12 08 12 21 83 0A 4E 08 4D 
09 4C 19 93 02 34 3C E3 1C 53 3C B0 00 80 0D 7D 
3D E3 81 4A 00 00 3E 40 0A 00 7F 40 64 00 B0 12 
FC 69 39 90 0A 00 10 34 39 90 F7 FF 08 38 2E 4A 
0F 4E 1F 83 8A 4F 00 00 FE 40 30 00 00 00 09 93 
03 34 7E 40 2D 00 02 3C 7E 40 2B 00 2D 4A 0F 4D 
1F 83 8A 4F 00 00 CD 4E 00 00 2E 4A 0F 4E 1F 83 
8A 4F 00 00 CE 48 00 00 21 53 30 40 46 83 0A 12 
09 12 09 4C 6D 49 3C 40 19 00 B0 12 B8 72 5D 49 
04 00 3C 40 05 00 B0 12 B8 72 5A 49 02 00 4D 4A 
2C 42 B0 12 B8 72 C2 4A 4D 11 5A 49 03 00 4D 4A 
3D D0 10 00 2C 43 B0 12 B8 72 C2 4A 4E 11 3C 40 
17 00 B0 12 1C 75 0A 4C 5D 49 01 00 3C 40 17 00 
B0 12 B8 72 3A F0 03 00 5F 49 01 00 3F F0 03 00 
0F 9A 03 24 2C 43 B0 12 14 80 E2 D3 3C 11 30 40 
48 83 0A 12 0A 4C 3C 40 16 00 B0 12 1C 75 CA 4C 
03 00 3C 40 13 00 B0 12 1C 75 CA 4C 02 00 3C 40 
14 00 B0 12 1C 75 CA 4C 01 00 3C 40 15 00 B0 12 
1C 75 CA 4C 00 00 3C 40 19 00 B0 12 1C 75 CA 4C 
04 00 3C 40 17 00 B0 12 1C 75 CA 4C 05 00 2C 42 
B0 12 1C 75 CA 4C 06 00 2C 43 B0 12 1C 75 7C F0 
0F 00 CA 4C 07 00 3C 40 05 00 B0 12 1C 75 CA 4C 
08 00 3A 41 30 41 0A 12 09 12 08 12 07 12 31 80 
6C 00 09 4F 0A 4E 0E 4D 0D 4C 1F 4A 04 00 0F 93 
05 34 BA 40 06 00 04 00 3F 40 06 00 28 49 0C 41 
3C 50 06 00 81 4C 00 00 0C 41 2C 52 81 4C 02 00 
0C 41 3C 52 B0 12 18 54 07 4C 1E 4A 04 00 1D 41 
06 00 0F 49 B0 12 CA 77 1E 43 28 99 04 20 3F 42 
2F BA 01 20 0E 43 0C 47 1D 41 06 00 0F 49 B0 12 
DE 6C 31 50 6C 00 30 40 44 83 3E F0 1F 00 05 24 
12 C3 0D 10 0C 10 1E 83 FB 23 30 41 12 C3 0D 10 
0C 10 12 C3 0D 10 0C 10 12 C3 0D 10 0C 10 12 C3 
0D 10 0C 10 12 C3 0D 10 0C 10 12 C3 0D 10 0C 10 
12 C3 0D 10 0C 10 12 C3 0D 10 0C 10 12 C3 0D 10 
0C 10 12 C3 0D 10 0C 10 12 C3 0D 10 0C 10 12 C3 
0D 10 0C 10 12 C3 0D 10 0C 10 12 C3 0D 10 0C 10 
12 C3 0D 10 0C 10 30 41 0A 12 09 12 08 12 08 4D 
09 4C 0A 42 3A F2 32 C2 03 43 39 B0 80 80 02 20 
1C 43 03 3C 39 F0 7F 00 2C 43 39 90 2B 00 07 24 
5F 42 9F 11 0C 9F 0C 24 B0 12 2E 76 09 3C C2 48 
A0 11 18 B3 02 24 6F 43 01 3C 5F 43 C2 4F 9F 11 
D2 C3 19 00 C2 49 77 00 F2 B0 80 FF 02 00 FC 27 
C2 48 77 00 D2 B3 71 00 FD 27 D2 D3 19 00 02 DA 
30 40 46 83 C2 93 3D 11 31 20 D2 B3 65 11 12 24 
B0 12 FA 6E 3C 40 47 00 0D 43 B0 12 B8 72 C2 43 
65 11 B0 12 DC 7A D2 B3 28 00 FD 23 D2 C3 2B 00 
D2 D3 2D 00 B0 12 96 7D 5D 42 42 11 3C 40 16 00 
B0 12 B8 72 5D 42 41 11 3C 40 13 00 B0 12 B8 72 
5D 42 40 11 3C 40 14 00 B0 12 B8 72 5D 42 3F 11 
3C 40 15 00 B0 12 B8 72 E2 D3 3C 11 30 41 31 80 
06 00 D2 C3 A4 11 D1 42 A7 11 02 00 C1 4D 04 00 
8D 10 C1 4D 05 00 4C 93 03 24 7F 40 7F 00 01 3C 
4F 43 C1 4F 03 00 5F 42 A5 11 0F 93 03 24 1F 83 
09 24 10 3C B0 12 64 7E 0C 41 2C 53 2D 42 B0 12 
58 7A 0E 3C E2 D2 A1 11 0C 41 2C 53 2D 42 B0 12 
BE 74 06 3C 81 43 00 00 1C 43 B0 12 C4 82 3C 43 
31 50 06 00 30 41 0C 93 25 24 3C 40 19 00 B0 12 
B8 72 E2 D3 3C 11 3C 40 17 00 B0 12 1C 75 3C F0 
03 00 3C 90 03 00 07 24 3C 40 BE 00 3D 40 1C 00 
B0 12 B8 72 06 3C 3C 40 BE 00 3D 40 18 00 B0 12 
B8 72 3C 40 6E 00 3D 40 07 00 B0 12 B8 72 0C 43 
30 40 24 81 3C 40 6E 00 0D 43 B0 12 B8 72 3C 40 
BE 00 0D 43 B0 12 B8 72 30 40 72 83 0A 12 21 83 
3C 40 78 00 3D 40 1A 00 B0 12 B8 72 3C 40 6E 00 
1D 43 B0 12 B8 72 1E 42 70 01 1F 42 70 01 0F 8E 
3F 90 D1 07 FA 2B 3C 40 78 00 B0 12 1C 75 0A 4C 
3C 40 78 00 0D 4A B0 12 B8 72 3C 40 6E 00 0D 43 
B0 12 B8 72 3A B0 40 00 06 20 81 43 00 00 3C 40 
12 00 B0 12 D6 82 0C 4A 21 53 3A 41 30 41 0A 12 
09 12 21 83 09 4D 1C 83 0A 4C 09 93 23 24 1E 42 
B2 11 E2 B2 A1 11 0E 20 1F 42 B2 11 0F 8E 3F 90 
D2 07 F7 2B 81 43 00 00 3C 40 07 00 B0 12 C4 82 
3C 43 11 3C E2 C2 A1 11 1A 53 6D 4A 3C 40 1D 00 
B0 12 B8 72 3C 40 1C 00 3D 40 1F 00 B0 12 B8 72 
19 83 DD 23 0C 43 21 53 30 40 48 83 0A 12 09 12 
0A 4C 09 42 39 F2 32 C2 03 43 3A B0 80 80 02 20 
1C 43 03 3C 3A F0 7F 00 2C 43 5F 42 9F 11 0C 9F 
05 24 3A 90 2B 00 02 24 B0 12 2E 76 D2 C3 19 00 
7A D0 80 00 C2 4A 77 00 F2 B0 80 FF 02 00 FC 27 
C2 43 77 00 D2 B3 71 00 FD 27 5C 42 76 00 D2 D3 
19 00 02 D9 4C 4C 30 40 48 83 0A 12 09 12 09 4D 
0A 4C D2 B3 00 11 25 20 0A 93 02 20 3A 40 5E 85 
82 49 20 11 3D 40 1E 11 8D 4A 00 00 C2 43 22 11 
0E 93 08 24 2C 42 0C 5D 3D 40 17 00 B0 12 7A 77 
C2 43 39 11 82 93 04 11 0C 20 82 49 04 11 3F 40 
02 11 8F 4A 00 00 2C 42 0C 5F 3D 40 22 11 B0 12 
22 82 30 40 48 83 0A 12 09 12 09 43 0A 43 1B 43 
0F 93 04 24 09 4D 0D 4C 0C 43 0D 3C 0C 5C 0D 6D 
09 69 09 8E 04 28 1C D3 0B 5B F8 2B 03 3C 09 5E 
0B 5B F4 2B 1B 43 0C 5C 0D 6D 09 69 0A 6A 09 8E 
0A 7F 04 28 1C D3 0B 5B F6 2B 04 3C 09 5E 0A 6F 
0B 5B F1 2B 0E 49 0F 4A 39 41 3A 41 30 41 0A 12 
0A 4C 5F 42 9F 11 0F 93 11 20 3C 40 2B 00 B0 12 
1C 75 4C 4C C2 4C A0 11 1C B3 05 20 D2 43 9F 11 
5F 42 9F 11 03 3C E2 43 9F 11 2F 43 0A 9F 0F 24 
5D 42 A0 11 2A 93 04 24 1D C3 C2 4D A0 11 03 3C 
1D D3 C2 4D A0 11 3C 40 2B 00 B0 12 B8 72 3A 41 
30 41 0A 12 0B 4C 0C 43 0C 3C 3D 40 0A 00 B0 12 
B0 82 4F 4F 0C 5F 3C 80 30 00 1B 53 6F 4B 11 3C 
1B 53 6F 4B 4E 4F FE B2 C3 83 FA 23 7F 90 2D 00 
05 24 0A 43 7F 90 2B 00 04 20 01 3C 1A 43 1B 53 
6F 4B 4E 4F EE B2 C3 83 E0 23 0A 93 02 24 3C E3 
1C 53 3A 41 30 41 0A 12 21 83 2C 42 B0 12 28 77 
3C 40 56 00 1D 43 B0 12 B8 72 3A 40 14 00 1E 42 
70 01 1F 42 70 01 0F 8E 3F 90 E9 03 FA 2B 3C 40 
56 00 B0 12 1C 75 2C B2 07 20 1A 83 F0 23 81 43 
00 00 3C 42 B0 12 D6 82 3C 40 56 00 0D 43 B0 12 
B8 72 21 53 3A 41 30 41 0A 12 21 82 0A 4C D2 C3 
A2 11 3C 40 29 00 0D 4A B0 12 B8 72 3A B2 03 24 
3D 40 98 3A 02 3C 3D 40 64 00 1E 42 B2 11 D2 B3 
A2 11 10 20 1F 42 B2 11 0F 8E 0C 4D 2C 53 0F 9C 
F6 2B B1 40 94 85 00 00 81 4A 02 00 3C 40 09 00 
B0 12 D6 82 21 52 3A 41 30 41 0A 12 31 80 0A 00 
0A 4D 0D 4F 81 4E 02 00 0A 93 03 24 0F 4A 1F 83 
01 3C 0F 43 81 4F 06 00 81 43 08 00 81 4C 04 00 
B1 40 60 7D 00 00 0C 41 2C 53 0E 41 2E 52 3F 40 
BE 81 B0 12 00 4B 0A 93 04 24 1F 41 04 00 CF 43 
00 00 31 50 0A 00 3A 41 30 41 0A 12 09 12 08 12 
07 12 08 4F 0A 4E 07 4C 0D 5A 1D 83 09 4D B0 12 
0C 83 1A 83 0A 93 16 38 1F 43 0F 5A 09 93 02 38 
09 9C 03 38 7D 40 30 00 03 3C 0E 49 0E 57 6D 4E 
2B 48 0E 4B 1E 83 88 4E 00 00 CB 4D 00 00 19 83 
1F 83 EC 23 30 40 44 83 0A 12 09 12 3C 40 94 00 
3D 42 B0 12 B8 72 39 40 14 00 0A 43 3C 42 B0 12 
28 77 3C 40 6B 00 B0 12 1C 75 0A 5C 19 83 F6 23 
3C 40 0A 00 0C 5A 3D 40 14 00 B0 12 0C 82 1C 83 
0A 4C 3C 40 6B 00 0D 4A B0 12 B8 72 0C 4A 30 40 
48 83 0F 42 3F F2 32 C2 03 43 D2 C3 19 00 F2 40 
AD 00 77 00 F2 B0 80 FF 02 00 FC 27 C2 43 77 00 
09 3C D2 B3 71 00 FD 27 1C 53 DC 42 76 00 FF FF 
C2 43 77 00 1D 83 F5 23 D2 B3 71 00 FD 27 DC 42 
76 00 00 00 D2 D3 19 00 02 DF 30 41 0B 4D 0B EF 
0A 30 0D 93 12 30 0D 9F 02 24 19 34 16 3C 0C 9E 
18 24 13 28 14 3C 3D B0 80 7F 04 20 3F B0 80 7F 
01 20 0F 24 0D 9F 0B 34 08 3C 0F 9D 02 24 07 34 
04 3C 0E 9C EC 27 01 28 02 3C 3C 43 30 41 1C 43 
30 41 0C 43 30 41 0E 4D 0C 93 02 20 0D 93 1F 24 
0E 93 05 34 3D E3 3C E3 1C 53 0D 63 15 30 3B 40 
9F 00 1B 83 0C 5C 0D 6D FC 2B 12 C3 0D 10 0C 10 
3F 40 06 00 0D 11 0C 10 1F 83 FC 37 8B 10 0D DB 
0E 5E 0D 10 0C 10 30 41 3D 40 00 CF 0C 43 30 41 
C2 93 3D 11 0C 24 E2 B3 3E 11 07 24 3C 40 47 00 
1D 43 B0 12 B8 72 D2 43 65 11 B0 12 DC 7A F2 F0 
E1 00 3A 11 B0 12 B2 83 B0 12 72 83 B0 12 68 83 
82 43 68 11 82 43 6A 11 F2 F0 FC 00 62 11 C2 43 
6C 11 C2 43 3D 11 30 41 0A 12 0A 4C 5F 42 3D 11 
CA 4F 01 00 0F 93 02 20 E2 C3 3C 11 DA 42 3C 11 
00 00 B0 12 98 83 0C 93 02 24 F2 C2 3C 11 B0 12 
90 83 0C 93 03 24 F2 F0 EF 00 3C 11 B0 12 A6 83 
8C 93 02 00 02 24 DA D3 00 00 3A 41 30 41 0B 4D 
0E 4B 3B F0 80 7F 1C 24 0B 5B 8B 10 7E D0 80 00 
3B 80 7F 00 15 30 3B 90 10 00 10 34 0E 11 0C 10 
1E 93 01 24 FB 3F 1B 83 03 30 0C 5C 0E 6E FB 3F 
0D 93 02 34 3E E3 1E 53 0C 4E 30 41 3C 43 30 41 
0C 43 30 41 11 3C BC D0 10 00 00 00 0B 3C 9C D3 
00 00 08 3C AC D3 00 00 05 3C BC D2 00 00 02 3C 
AC D2 00 00 9D 53 00 00 2F 4D 6F 4F 3F 80 20 00 
F7 27 3F 80 03 00 F1 27 3F 82 EC 27 2F 83 E7 27 
3F 80 03 00 E0 27 30 41 21 83 0D 93 1B 24 1E 42 
B2 11 F2 B0 80 FF 23 00 0E 20 1F 42 B2 11 0F 8E 
3F 90 D2 07 F6 2B 81 43 00 00 3C 40 09 00 B0 12 
C4 82 3C 43 08 3C F2 F0 7F 00 23 00 F2 4C 7F 00 
1D 83 E5 23 0C 43 21 53 30 41 D2 B3 9E 11 13 20 
0C 93 0F 24 3C 40 74 00 1D 43 B0 12 B8 72 D2 D3 
9E 11 1E 42 70 01 1F 42 70 01 0F 8E 3F 90 10 00 
FA 2B 0C 43 30 41 0C 93 07 20 3C 40 74 00 0D 43 
B0 12 B8 72 D2 C3 9E 11 1C 43 30 41 3C 40 31 00 
3D 40 FF 00 B0 12 B8 72 3C 40 35 00 3D 40 FF 00 
B0 12 B8 72 F2 F0 EF 00 19 00 3C 40 2A 00 0D 43 
B0 12 B8 72 3C 40 29 00 2D 43 B0 12 B8 72 F2 C2 
A2 11 F2 F0 FC 00 9E 11 C2 43 9F 11 30 41 0A 12 
09 12 0D 4C 3D 93 10 24 0C 3C 8F 12 2A 53 12 3C 
3C 4D 0A 4D 0E 49 B0 12 FA 82 0A 59 0D 4A 1D 53 
1D C3 39 4D 09 93 F4 23 3F 40 FF FF 3F 93 05 24 
3A 40 FF FF 2F 4A 0F 93 E8 23 30 40 48 83 0A 12 
0A 43 0F 93 05 34 3E E3 3F E3 1E 53 0F 63 1A D3 
0D 93 05 34 3C E3 3D E3 1C 53 0D 63 3A E3 B0 12 
D6 75 1A B3 04 24 3C E3 3D E3 1C 53 0D 63 2A B3 
04 24 3E E3 3F E3 1E 53 0F 63 3A 41 30 41 0A 12 
0A 4C E2 B3 3E 11 0B 24 C2 93 3D 11 08 20 D2 83 
64 11 05 20 F2 40 64 00 64 11 B0 12 5A 44 0A 93 
0B 20 E2 93 3D 11 08 28 D2 83 63 11 05 20 F2 40 
05 00 63 11 B0 12 48 66 3A 41 30 41 3C 40 25 00 
3D 40 7F 00 B0 12 B8 72 E2 C2 A2 11 3C 40 2A 00 
3D 40 80 00 B0 12 B8 72 1E 42 B2 11 E2 B2 A2 11 
02 24 1C 43 30 41 1F 42 B2 11 0F 8E 3F 90 2A 00 
F5 2B 0C 43 30 41 0A 12 09 12 31 82 0A 4C 1C 43 
B0 12 2E 83 0A 93 0D 24 3A 92 02 2C 09 4A 01 3C 
39 42 0C 41 0D 49 B0 12 78 60 0C 93 02 20 0A 89 
F3 23 0C 43 B0 12 2E 83 31 52 30 40 48 83 E2 93 
3D 11 02 28 B0 12 40 79 B0 12 24 73 3C 40 1A 00 
3D 40 0F 00 B0 12 B8 72 3C 40 48 11 B0 12 EE 70 
F2 40 05 00 3D 11 3C 40 2A 00 0D 43 B0 12 B8 72 
D2 D3 62 11 30 41 31 80 06 00 91 41 08 00 02 00 
81 4C 04 00 B1 40 DC 81 00 00 0D 41 3D 50 0A 00 
0C 41 2C 53 0E 41 2E 52 3F 40 E8 82 B0 12 00 4B 
1F 41 04 00 CF 43 00 00 31 50 06 00 30 41 0F 4C 
0F 93 0D 24 1F 83 07 24 1F 83 2F 93 12 2C F2 F0 
E8 00 1D 00 0C 3C F2 D0 17 00 1D 00 08 3C 3F 40 
E8 00 5F F2 1D 00 5F D2 9B 11 C2 4F 1D 00 C2 4C 
9D 11 30 41 C2 43 70 00 D2 43 70 00 0F 4C 7F D0 
05 00 C2 4F 70 00 7C F0 C0 00 7C D0 12 00 C2 4C 
71 00 C2 4D 74 00 C2 43 75 00 C2 43 73 00 F2 D0 
40 00 04 00 D2 C3 70 00 30 41 3C 40 31 00 3D 40 
FF 00 B0 12 B8 72 3C 40 35 00 3D 40 FF 00 B0 12 
B8 72 F2 C2 A2 11 3C 40 5F 00 3D 40 52 00 B0 12 
B8 72 F2 F0 FC 00 9E 11 C2 43 9F 11 30 40 96 7D 
0A 12 09 12 08 12 08 4E 09 4D 0D 4C 1A 49 02 00 
1F 49 04 00 0F 9A 0A 2C 0A 8F 0A 98 01 28 0A 48 
2C 49 0E 4A B0 12 FA 82 89 5A 00 00 89 58 04 00 
0C 48 30 40 46 83 21 83 F2 D0 10 00 19 00 1E 42 
B2 11 F2 B2 A2 11 0C 20 1F 42 B2 11 0F 8E 3F 90 
FC 00 F7 2B 81 43 00 00 3C 40 0B 00 B0 12 D6 82 
F2 F0 EF 00 19 00 21 53 30 41 0F 42 3F F2 32 C2 
03 43 D2 C3 19 00 F2 40 2D 00 77 00 0D 93 08 24 
F2 B0 80 FF 02 00 FC 27 F2 4C 77 00 1D 83 F8 23 
D2 B3 71 00 FD 27 D2 D3 19 00 02 DF 30 41 0F 4E 
3F 82 03 24 3F 82 03 24 04 3C 30 40 A4 72 30 40 
9E 72 0D 93 07 20 3C 93 05 2C 0D 4E B0 12 0C 82 
0D 43 30 41 3E B0 00 80 0F 7F 3F E3 30 40 D6 75 
30 41 D2 B3 79 00 03 20 E2 B3 78 00 FA 23 D2 D3 
78 00 F2 40 15 00 78 00 F2 40 42 00 79 00 C2 43 
7B 00 F2 D0 10 00 05 00 D2 C3 78 00 F2 D0 10 00 
01 00 30 41 D2 D3 78 00 F2 40 17 00 78 00 F2 40 
52 00 79 00 E2 43 7C 00 C2 43 7D 00 C2 43 7B 00 
F2 D0 10 00 05 00 D2 C3 78 00 F2 D0 80 00 23 00 
30 41 0A 12 0A 4C F2 90 06 00 3D 11 02 24 B0 12 
40 79 3C 40 6C 11 0D 4A 3E 40 06 00 B0 12 FA 82 
1F 43 6F BA 03 24 F2 D0 10 00 3A 11 3A 41 30 41 
02 12 32 C2 03 43 82 4C 30 01 82 4E 38 01 82 4C 
34 01 1C 42 3A 01 92 42 3C 01 3A 01 82 4F 38 01 
82 4D 34 01 82 4E 38 01 1D 42 3A 01 00 13 21 83 
5F 42 A5 11 0F 93 03 24 1F 83 04 24 06 3C B0 12 
58 7A 09 3C B0 12 BE 74 06 3C 81 43 00 00 1C 43 
B0 12 C4 82 3C 43 21 53 30 41 3D F0 0F 00 3D E0 
0F 00 0D 5D 00 5D 0C 11 0C 11 0C 11 0C 11 0C 11 
0C 11 0C 11 0C 11 0C 11 0C 11 0C 11 0C 11 0C 11 
0C 11 0C 11 30 41 3D F0 0F 00 3D E0 0F 00 0D 5D 
00 5D 0C 5C 0C 5C 0C 5C 0C 5C 0C 5C 0C 5C 0C 5C 
0C 5C 0C 5C 0C 5C 0C 5C 0C 5C 0C 5C 0C 5C 0C 5C 
30 41 0A 12 09 12 0A 4D 09 4C 4C 43 B0 12 8E 73 
0C 93 02 24 3C 43 08 3C 0A 93 05 24 0C 49 0D 4A 
B0 12 EE 7E 01 3C 0C 43 30 40 48 83 0A 12 0A 4C 
92 12 A8 11 82 93 AE 11 03 24 0C 4A 92 12 AE 11 
82 93 AC 11 02 24 92 12 AC 11 92 12 AA 11 B0 12 
BC 83 3A 41 30 41 0A 12 1F 93 0E 38 1D 83 0B 4C 
1B 83 1D 53 6A 4D 1C 53 1B 53 CB 4A 00 00 4A 4A 
0A 9E 03 24 1F 83 F5 23 0C 43 3A 41 30 41 3C 40 
98 11 0D 43 3E 40 06 00 B0 12 9C 82 E2 42 99 11 
F2 40 0F 00 9A 11 F2 40 17 00 9B 11 F2 D0 17 00 
1D 00 30 41 0A 12 0A 4C 4D 4A 3C 40 94 00 B0 12 
B8 72 0D 4A 8D 10 4D 4D 3C 40 95 00 B0 12 B8 72 
3C 42 B0 12 28 77 3A 41 30 41 0F 12 A2 53 B2 11 
B2 50 D0 07 72 01 1F 42 72 01 1F 82 70 01 1F 83 
3F 90 D0 07 02 28 92 D3 62 01 3F 41 00 13 C2 93 
9D 11 02 20 E2 C3 1D 00 E2 C3 9B 11 E2 C3 9C 11 
0C 93 02 24 E2 D3 98 11 F2 D0 10 00 3C 11 30 41 
3C 40 B2 11 0D 43 2E 43 B0 12 9C 82 B2 40 10 00 
62 01 B2 40 D0 07 72 01 B2 40 E0 01 60 01 0C 43 
30 41 3D 40 FF FF 3F 40 FF FF 3F 93 05 20 3D 93 
03 20 0C 43 0D 43 04 3C 0F 4D 2C 4F 2D 43 0D 5F 
30 40 78 6F 3C 40 A4 11 0D 43 2E 42 B0 12 9C 82 
D2 43 A6 11 B0 12 F6 81 0C 93 02 24 3C 43 30 41 
0C 43 30 41 0F 12 0E 12 0D 12 0C 12 0B 12 D2 B3 
2B 00 02 24 B0 12 F4 48 3B 41 3C 41 3D 41 3E 41 
3F 41 00 13 D2 C3 3A 11 C2 43 A5 11 F2 B0 10 00 
03 00 02 20 E2 D3 A4 11 B0 12 8E 63 F2 D0 10 00 
01 00 30 41 C2 93 9D 11 02 20 D2 C3 1D 00 D2 C3 
9B 11 D2 C3 9C 11 0C 93 02 24 D2 D3 98 11 F2 D2 
3C 11 30 41 3C 40 9E 11 0D 43 3E 40 03 00 B0 12 
9C 82 3C 40 A1 11 0D 43 3E 40 03 00 B0 12 9C 82 
0C 43 30 41 3C 40 00 11 0D 43 3E 40 3A 00 B0 12 
9C 82 B2 40 5E 85 02 11 B2 40 5E 85 1E 11 0C 43 
30 41 0C 5C 0C 5C 3C 50 62 11 7F 40 03 00 CC 4F 
12 00 CC 4F 13 00 EC 43 11 00 CC 43 10 00 30 41 
31 40 00 39 B0 12 B8 83 0C 93 04 24 3C 40 A6 85 
B0 12 1E 7B B0 12 A2 80 1C 43 B0 12 9C 7F 9D 9D 
02 00 04 00 07 2C 2E 4D 0F 4E 1F 53 8D 4F 00 00 
CE 4C 00 00 9D 53 04 00 4C 4C 30 41 0A 12 09 12 
0A 4E 09 4D 0D 4C 2C 49 B0 12 FA 82 89 5A 00 00 
0C 4A 30 40 48 83 F2 D0 80 00 24 00 B0 12 32 7E 
E2 D3 33 00 F2 D2 33 00 0C 43 30 41 0E 43 0F 4C 
1C 43 0F 5F 0E 6E 0E 9D 01 28 0E 8D 0C 6C F9 2B 
30 41 1D 83 0F 4C 1F 83 1D 53 6E 4D 1F 53 CF 4E 
00 00 4E 93 F9 23 30 41 0F 43 1D 92 20 11 04 20 
1C 92 1E 11 01 20 1F 43 0C 4F 30 41 0F 43 1D 92 
04 11 04 20 1C 92 02 11 01 20 1F 43 0C 4F 30 41 
0E 43 0C 4E B0 12 82 81 1E 53 2E 92 FA 2B D2 43 
64 11 30 41 C2 93 9D 11 02 20 E2 C2 1D 00 E2 C2 
9B 11 E2 C2 9C 11 30 41 B0 12 F4 7C E2 D3 1B 00 
E2 D2 1B 00 F2 D2 1B 00 0C 43 30 41 0F 4C 0E 93 
06 24 4D 4D 1F 53 CF 4D FF FF 1E 83 FB 23 30 41 
02 12 32 C2 03 43 82 4C 30 01 82 4D 38 01 1C 42 
3A 01 00 13 0D 4C 0F 41 2F 52 1C 42 60 11 1E 41 
02 00 30 40 7A 75 0D 4C 0F 41 2F 52 1C 42 B0 11 
1E 41 02 00 30 40 7A 75 2E 4D 0F 4E 1F 53 8D 4F 
00 00 CE 4C 00 00 4C 4C 30 41 0F 4C 0E 93 05 24 
1F 53 FF 4D FF FF 1E 83 FB 23 30 41 1C 83 3F 43 
1F 53 1C 53 CC 93 00 00 FB 23 0C 4F 30 41 82 43 
04 11 B2 40 5E 85 02 11 C2 43 06 11 30 41 0C 93 
03 20 D2 C3 00 11 30 41 D2 D3 00 11 30 41 34 41 
35 41 36 41 37 41 38 41 39 41 3A 41 30 41 3C 40 
82 11 0D 43 3E 40 16 00 30 40 9C 82 F2 F0 EF 00 
01 00 D2 D3 3A 11 00 13 E2 D3 9B 11 E2 C3 98 11 
30 41 D2 D3 9B 11 D2 C3 98 11 30 41 0C 93 02 34 
3C E3 1C 53 30 41 0D 93 02 24 3D E0 00 80 30 41 
5C 42 9B 11 2C F3 30 41 5C 42 9B 11 1C F3 30 41 
3C 40 1E 11 30 41 3C 40 02 11 30 41 E2 C3 3A 11 
30 41 E2 D2 9B 11 30 41 1C 43 30 41 03 43 FF 3F 
30 41 00 20 20 20 20 20 20 20 20 20 28 28 28 28 
28 20 20 20 20 20 20 20 20 20 20 20 20 20 20 20 
20 20 20 88 10 10 10 10 10 10 10 10 10 10 10 10 
10 10 10 44 44 44 44 44 44 44 44 44 44 10 10 10 
10 10 10 10 41 41 41 41 41 41 01 01 01 01 01 01 
01 01 01 01 01 01 01 01 01 01 01 01 01 01 10 10 
10 10 10 10 42 42 42 42 42 42 02 02 02 02 02 02 
02 02 02 02 02 02 02 02 02 02 02 02 02 02 10 10 
10 10 20 00 00 00 00 00 00 00 00 00 00 00 00 00 
00 00 00 00 00 00 00 00 00 00 00 00 00 00 00 00 
00 00 00 00 00 00 00 00 00 00 00 00 00 00 00 00 
00 00 00 00 00 00 00 00 00 00 00 00 00 00 00 00 
00 00 00 00 00 00 00 00 00 00 00 00 00 00 00 00 
00 00 00 00 00 00 00 00 00 00 00 00 00 00 00 00 
00 00 00 00 00 00 00 00 00 00 00 00 00 00 00 00 
00 00 00 00 00 00 00 00 00 00 00 00 00 00 00 00 
00 00 00 00 25 75 00 00 41 49 4D 32 30 30 00 00 
3B 20 00 00 5A 4C 37 30 31 30 58 20 41 44 4B 20 
32 2E 31 2E 31 00 00 00 00 00 5A 61 72 6C 69 6E 
6B 20 41 70 70 6C 69 63 61 74 69 6F 6E 20 49 6D 
70 6C 61 6E 74 20 4D 65 7A 7A 61 6E 69 6E 65 20 
42 6F 61 72 64 00 25 64 0C 25 64 00 30 31 32 33 
34 35 36 37 38 39 61 62 63 64 65 66 30 31 32 33 
34 35 36 37 38 39 41 42 43 44 45 46 00 00 25 00 
25 64 00 00 2E 00 3A 20 00 00 45 72 72 6F 72 20 
6F 6E 20 69 6D 70 6C 61 6E 74 00 00 00 00 55 6E 
73 70 65 63 69 66 69 65 64 45 72 72 47 72 6F 75 
70 00 4D 69 63 73 4C 69 62 45 72 72 00 00 00 01 
FF 03 02 04 06 05 07 09 08 FF 49 6D 41 70 70 45 
72 72 00 00 30 78 25 30 32 78 00 00 25 75 00 00 
01 02 04 08 5E 85 02 00 A8 11 C0 83 02 00 AA 11 
C0 83 02 00 AC 11 00 00 02 00 AE 11 00 00 02 00 
60 11 8A 85 02 00 B0 11 72 85 00 00 00 00 00 00 
@ffe2
E4 80 
@ffe6
5C 83 
@ffec
3A 80 
@fffe
A0 81 
q
