@4000
0A 12 09 12 08 12 07 12 31 80 06 00 09 4D D2 B3 
3B 11 12 24 0F 4C 3F 80 79 00 2F 93 0D 28 0C 49 
B0 12 B8 7D B0 12 F2 84 0D 4C 7C 40 7F 00 B0 12 
62 52 3C 43 30 40 A0 46 0F 4C 1F 83 3F 90 1E 00 
0A 28 3F 80 78 00 75 24 1F 83 81 24 1F 83 AF 24 
1F 83 98 24 89 3C 0F 5F 10 4F 5C 40 98 40 68 41 
68 41 AE 40 64 46 1A 46 F8 45 E0 45 68 41 AA 45 
68 41 CA 40 5E 45 68 41 DC 44 76 44 40 44 04 44 
BA 43 2C 43 D4 40 00 43 B2 42 F4 40 94 42 0E 41 
5E 42 3E 42 1E 42 18 41 3A 40 84 11 0C 4A B0 12 
E6 7B 0C 4A 2D 43 B0 12 CE 78 30 40 A0 46 09 93 
04 24 B0 12 C6 82 30 40 A0 46 3C 40 3E 11 3D 40 
0F 00 B0 12 CE 78 30 40 A0 46 0C 49 B0 12 CE 67 
30 40 A0 46 B0 12 66 77 E2 C3 3C 11 3A 40 84 11 
0C 4A B0 12 FA 74 0C 4A 3D 40 09 00 B0 12 CE 78 
30 40 A0 46 09 93 04 24 B0 12 C6 82 30 40 A0 46 
3C 40 12 86 1D 43 B0 12 CE 78 30 40 A0 46 0C 49 
B0 12 DC 64 30 40 A0 46 09 93 04 24 B0 12 C6 82 
30 40 A0 46 1C 42 A6 11 2D 42 B0 12 CE 78 30 40 
A0 46 09 93 04 24 B0 12 C6 82 30 40 A0 46 3C 40 
14 86 3D 40 14 00 B0 12 CE 78 30 40 A0 46 09 93 
04 24 B0 12 C6 82 30 40 A0 46 3C 40 12 86 1D 43 
B0 12 CE 78 30 40 A0 46 B1 40 28 86 00 00 81 4C 
02 00 2C 43 B0 12 00 84 3C 43 B0 12 B8 7D 3C 43 
30 40 A0 46 09 93 04 24 B0 12 C6 82 30 40 A0 46 
B0 12 F2 84 0D 4C 4C 43 B0 12 62 52 0C 93 02 24 
30 40 8E 46 B0 12 7E 84 0C 43 30 40 A0 46 09 93 
04 24 B0 12 C6 82 30 40 A0 46 4C 43 3D 40 1A 00 
B0 12 6E 75 0C 93 02 24 30 40 8E 46 3C 40 2C 86 
3D 40 06 00 B0 12 90 80 0C 93 02 24 30 40 8E 46 
3C 40 34 86 2D 43 B0 12 90 80 0C 93 02 24 30 40 
8E 46 3C 40 38 86 3D 40 11 00 B0 12 90 80 0C 93 
02 24 30 40 8E 46 3C 40 4A 86 1D 43 B0 12 90 80 
0C 93 02 24 30 40 8E 46 0C 43 30 40 A0 46 09 93 
04 24 B0 12 C6 82 30 40 A0 46 B0 12 66 77 B0 12 
BA 7A 0C 43 0D 43 B0 12 CE 78 30 40 A0 46 09 93 
04 24 B0 12 C6 82 30 40 A0 46 B0 12 66 77 B0 12 
76 58 0C 43 0D 43 B0 12 CE 78 30 40 A0 46 39 90 
06 00 04 24 B0 12 C6 82 30 40 A0 46 3C 40 7E 11 
3D 40 06 00 B0 12 8C 69 0C 93 02 24 30 40 8E 46 
3C 40 7E 11 B0 12 36 80 0C 43 0D 43 B0 12 CE 78 
30 40 A0 46 09 93 04 24 B0 12 C6 82 30 40 A0 46 
B0 12 66 77 B0 12 8A 72 0C 43 0D 43 B0 12 CE 78 
F7 3D 19 93 03 24 B0 12 C6 82 F2 3D 3C 40 7E 11 
1D 43 B0 12 8C 69 0C 93 E2 21 B0 12 66 77 C2 93 
7E 11 09 20 3C 40 22 00 2D 43 0E 43 B0 12 2A 7E 
D2 C3 3E 11 08 3C 3C 40 22 00 2D 43 1E 43 B0 12 
2A 7E D2 D3 3E 11 0C 43 0D 43 B0 12 CE 78 D0 3D 
E2 93 3D 11 02 28 B0 12 86 6C E2 C2 3C 11 3C 40 
50 11 3D 42 B0 12 CE 78 0C 93 B9 21 82 43 56 11 
82 43 54 11 82 43 50 11 0C 43 BA 3D 29 93 03 24 
B0 12 C6 82 B5 3D 3C 40 7E 11 2D 43 B0 12 8C 69 
0C 93 A5 21 B0 12 66 77 C2 93 7E 11 0E 20 B0 12 
C8 84 D2 93 3D 11 05 20 3C 40 6E 00 0D 43 B0 12 
80 74 0C 43 B0 12 90 6E 23 3C 0C 43 B0 12 CE 81 
5A 42 7F 11 3C 40 19 00 B0 12 D6 75 4F 4A 0F 9C 
03 24 4C 4A B0 12 62 81 D2 93 3D 11 0E 20 3C 40 
6E 00 3D 40 19 00 B0 12 80 74 1E 42 70 01 1F 42 
70 01 0F 8E 3F 90 FF 10 FA 2B 1C 43 B0 12 90 6E 
0C 43 0D 43 B0 12 CE 78 73 3D 19 93 03 24 B0 12 
C6 82 6E 3D 3C 40 7E 11 1D 43 B0 12 8C 69 0C 93 
5E 21 B0 12 66 77 5A 42 7E 11 3C 40 19 00 B0 12 
D6 75 4F 4A 0F 9C 03 24 4C 4A B0 12 62 81 B0 12 
36 6D 0F 4C 3C 40 84 11 CC 4F 00 00 1D 43 B0 12 
CE 78 4E 3D 29 93 03 24 B0 12 C6 82 49 3D 3C 40 
7E 11 2D 43 B0 12 8C 69 0C 93 39 21 E2 93 3D 11 
02 28 B0 12 24 79 B0 12 66 77 5C 42 7E 11 5D 42 
7F 11 B0 12 3E 76 0C 43 0D 43 B0 12 CE 78 30 3D 
19 93 03 24 B0 12 C6 82 2B 3D 3C 40 7E 11 1D 43 
B0 12 8C 69 0C 93 1B 21 B0 12 66 77 5C 42 7E 11 
B0 12 32 6F 0F 4C 3C 40 84 11 CC 4F 00 00 1D 43 
B0 12 CE 78 15 3D 39 90 03 00 07 24 29 93 03 24 
B0 12 C6 82 0D 3D C2 43 80 11 3C 40 7E 11 B0 12 
8C 69 0C 93 FC 20 59 42 80 11 89 10 5F 42 7E 11 
09 DF B0 12 66 77 39 B0 40 00 10 24 5A 42 7F 11 
8A 11 0A 93 0B 38 3C 40 19 00 B0 12 D6 75 0A 9C 
05 24 5C 42 7F 11 8C 11 B0 12 62 81 0C 49 B0 12 
3C 81 0C 43 0D 43 B0 12 CE 78 E2 3C B0 12 66 77 
5A 42 4D 11 08 49 08 9A 23 28 37 40 84 11 0C 47 
0D 4A B0 12 8C 69 0C 93 CA 20 08 8A 0C 47 0D 4A 
3E 40 A0 0F B0 12 14 6B 0C 9A 0B 24 81 43 00 00 
3C 40 05 00 B0 12 00 84 0C 48 B0 12 B8 7D 3C 43 
BF 3C 92 53 58 11 F2 D0 40 00 3C 11 08 9A DD 2F 
08 93 10 24 B1 40 4C 86 00 00 81 49 02 00 81 4A 
04 00 3C 40 0D 00 B0 12 00 84 0C 48 B0 12 B8 7D 
3C 43 A6 3C 0C 43 0D 43 B0 12 CE 78 A1 3C 29 92 
03 24 B0 12 C6 82 9C 3C 3C 40 7E 11 2D 42 B0 12 
8C 69 0C 93 8C 20 B0 12 66 77 1C 42 7E 11 2C 93 
0B 28 3C 90 06 00 06 28 3C 90 13 00 05 28 3C 90 
1A 00 02 2C E2 D3 3C 11 5D 42 80 11 B0 12 80 74 
0C 43 0D 43 B0 12 CE 78 7B 3C 29 93 03 24 B0 12 
C6 82 76 3C 3C 40 7E 11 2D 43 B0 12 8C 69 0C 93 
66 20 B0 12 66 77 1C 42 7E 11 B0 12 D6 75 0F 4C 
3C 40 84 11 CC 4F 00 00 1D 43 B0 12 CE 78 60 3C 
09 93 03 24 B0 12 C6 82 5B 3C B0 12 F2 7D 0C 43 
0D 43 B0 12 CE 78 54 3C 09 93 03 24 B0 12 C6 82 
4F 3C B0 12 24 79 E2 B3 3E 11 02 24 B0 12 52 7B 
0C 43 0D 43 B0 12 CE 78 43 3C 19 93 03 24 B0 12 
C6 82 3E 3C 3C 40 7E 11 1D 43 B0 12 8C 69 0C 93 
2E 20 C2 93 3D 11 06 20 B0 12 66 77 3C 40 43 11 
B0 12 06 74 C2 93 7E 11 08 24 3C 40 1A 00 3D 40 
0F 00 B0 12 80 74 F2 C2 3A 11 0C 43 0D 43 B0 12 
CE 78 1E 3C 39 90 10 00 03 28 B0 12 C6 82 18 3C 
E2 93 3D 11 02 28 B0 12 24 79 B0 12 66 77 3A 40 
3E 11 0C 4A 0D 49 B0 12 8C 69 0C 93 02 24 3C 43 
07 3C 0C 4A B0 12 B0 63 0C 43 0D 43 B0 12 CE 78 
31 50 06 00 37 41 38 41 39 41 3A 41 30 41 0A 12 
09 12 08 12 07 12 06 12 05 12 04 12 31 80 0E 00 
81 4C 0C 00 E2 B3 3E 11 8C 25 C2 93 3D 11 89 21 
5F 42 61 11 1F 83 C2 4F 61 11 4F 93 82 21 F2 40 
64 00 61 11 B0 12 0C 73 B0 12 BC 4D 0A 4C 0A 93 
03 20 B0 12 88 83 75 3D 3C 40 47 00 3D 42 B0 12 
80 74 F2 42 62 11 B0 12 88 83 B0 12 66 77 0F 43 
3C 40 E2 86 0E 43 09 4E CC BA 00 00 0A 24 0B 4E 
0B 5B 0B 5B 5B 4B 6E 11 48 4B 09 98 02 2C 49 4B 
0D 4E 1C 53 1E 53 2E 92 EF 2B 09 93 0C 24 0E 41 
0E 5F CE 4D 00 00 5E 4D E2 86 0A CE 0A 93 03 24 
1F 53 2F 92 DD 2B 0E 41 1E 53 0E 5F FE 43 00 00 
2C 43 3D 40 13 00 B0 12 80 74 3F 40 03 00 C2 4F 
4E 11 C2 93 44 11 06 24 5D 42 44 11 3C 40 17 00 
B0 12 80 74 05 41 04 43 6A 45 3A 90 FF 00 27 25 
0F 4A 0F 5F 0F 5A 81 4F 0A 00 06 43 1F 41 0A 00 
0F 56 5D 4F B6 86 7D 93 16 25 4D 4D 3C 40 19 00 
B0 12 80 74 3C 40 25 00 3D 40 80 00 B0 12 80 74 
F2 F0 EF 00 A1 11 3C 40 30 00 3D 40 10 00 B0 12 
80 74 3C 40 2A 00 3D 40 9A 00 B0 12 80 74 17 42 
70 01 38 40 29 19 09 43 03 3C 07 5F 08 8F 09 73 
F2 B0 10 00 A1 11 C7 24 0C 41 3C 50 06 00 3D 40 
03 00 0E 43 B0 12 CE 6B 0C 93 BD 24 5F 41 08 00 
5E 42 41 11 0F 9E 06 24 5E 41 07 00 0E DF 0E 93 
0E 24 B1 3C 5E 41 07 00 5D 42 40 11 0E 9D 04 20 
D1 92 3F 11 06 00 08 24 0E DF 0E 93 A4 20 C1 93 
06 00 A1 20 E2 D3 5E 11 3C 40 06 00 B0 12 EE 70 
E2 C2 3A 11 5D 42 47 11 3C 40 05 00 B0 12 80 74 
59 42 45 11 5D 42 45 11 2C 42 B0 12 80 74 C2 49 
4D 11 E2 B3 5E 11 1B 20 B0 12 7E 7D 0C 93 8A 24 
3C 40 25 00 3D 40 17 00 B0 12 80 74 59 42 46 11 
5D 42 46 11 3D D0 10 00 2C 43 B0 12 80 74 C2 49 
4E 11 3C 40 2A 00 0D 43 B0 12 80 74 42 3C 3C 40 
13 00 0D 43 B0 12 80 74 3C 40 14 00 0D 43 B0 12 
80 74 3C 40 15 00 0D 43 B0 12 80 74 B0 12 7E 7D 
0C 93 60 24 2C 42 B0 12 EE 70 5D 42 41 11 3C 40 
13 00 B0 12 80 74 5D 42 40 11 3C 40 14 00 B0 12 
80 74 5D 42 3F 11 3C 40 15 00 B0 12 80 74 3C 40 
25 00 3D 40 17 00 B0 12 80 74 59 42 46 11 5D 42 
46 11 3D D0 10 00 2C 43 B0 12 80 74 C2 49 4E 11 
E2 C3 5E 11 F2 42 3D 11 3C 40 2A 00 0D 43 B0 12 
80 74 5F 42 44 11 3F F0 03 00 3F 90 03 00 03 20 
2C 43 B0 12 3C 81 E2 D3 3C 11 3F 40 6F 11 0E 4F 
CE 43 00 00 2E 52 CE 43 00 00 2E 52 CE 43 00 00 
2E 52 CE 43 00 00 0A 5A 0A 5A 3E 40 03 00 CA 4E 
70 11 CA 4E 71 11 0F 5A EF 43 00 00 CA 43 6E 11 
E2 43 61 11 2E 3C 1F 42 70 01 0F 87 08 9F 2D 2F 
09 93 2B 23 3C 40 06 00 B0 12 EE 70 E2 C2 3A 11 
E2 B3 5E 11 14 24 5D 42 41 11 3C 40 13 00 B0 12 
80 74 5D 42 40 11 3C 40 14 00 B0 12 80 74 5D 42 
3F 11 3C 40 15 00 B0 12 80 74 E2 C3 5E 11 16 53 
36 90 03 00 E3 2A 15 53 14 53 24 92 D5 2A B0 12 
24 79 81 93 0C 00 30 20 E2 93 3D 11 0C 28 5F 42 
60 11 1F 83 C2 4F 60 11 4F 93 05 20 F2 40 05 00 
60 11 B0 12 86 6C E2 B3 3E 11 1E 20 E2 B2 3E 11 
1B 24 C2 93 3D 11 18 20 5F 42 5F 11 1F 83 C2 4F 
5F 11 4F 93 11 20 F2 40 14 00 5F 11 F2 D0 10 00 
19 00 1E 42 70 01 1F 42 70 01 0F 8E 3F 90 C9 00 
FA 2B F2 F0 EF 00 19 00 31 50 0E 00 34 41 35 41 
36 41 37 41 38 41 39 41 3A 41 30 41 07 12 06 12 
05 12 04 12 31 80 1C 00 07 48 06 49 05 4A 04 4B 
08 4C 09 4D 0A 4E 0B 4F 81 47 04 00 81 46 06 00 
81 45 08 00 81 44 0A 00 07 43 3E 40 1F 00 0E 87 
0C 4A 0D 4B B0 12 B2 4D 05 24 17 53 37 90 20 00 
F4 3B 03 3C 37 90 20 00 11 20 07 43 3E 40 1F 00 
0E 87 0C 48 0D 49 B0 12 B2 4D 06 24 17 53 37 90 
20 00 F4 3B 37 40 20 00 37 50 20 00 0F 45 81 4F 
00 00 0F 44 81 4F 02 00 06 4F 0F 43 3E 40 1F 00 
0E 8F 0C 45 0D 46 B0 12 B2 4D 05 24 1F 53 3F 90 
20 00 F4 3B 03 3C 3F 90 20 00 0C 20 0F 43 B0 12 
9E 4D 06 24 1F 53 3F 90 20 00 F9 3B 3F 40 20 00 
3F 50 20 00 07 8F 81 47 14 00 06 9B 15 28 0A 20 
05 9A 12 28 07 20 81 99 06 00 0E 28 03 20 81 98 
04 00 0A 28 06 93 0D 20 05 93 0B 20 81 93 06 00 
08 20 81 93 04 00 05 20 0C 43 0D 43 0E 43 0F 43 
1F 3D 0B 93 0B 20 0A 93 09 20 09 93 07 20 08 93 
05 20 3C 43 3D 43 3E 43 3F 43 12 3D 91 41 04 00 
0C 00 91 41 06 00 0E 00 0F 45 81 4F 10 00 0F 46 
81 4F 12 00 0C 47 B0 12 B6 7C 04 4C 05 4D 06 4E 
07 4F 2A 41 1B 41 02 00 0F 43 3E 40 1F 00 0E 8F 
0C 4A 0D 4B B0 12 B2 4D 05 24 1F 53 3F 90 20 00 
F4 3B 03 3C 3F 90 20 00 0C 20 0F 43 B0 12 9E 4D 
06 24 1F 53 3F 90 20 00 F9 3B 3F 40 20 00 3F 50 
20 00 0B 43 0F 93 01 20 1B 43 81 4B 1A 00 08 4B 
09 43 0A 43 0B 43 1C 41 14 00 B0 12 B6 7C 81 4C 
00 00 81 4D 02 00 81 4E 16 00 81 4F 18 00 81 97 
0A 00 0C 28 1D 20 81 96 08 00 08 28 19 20 81 95 
06 00 04 28 15 20 81 94 04 00 12 2C 12 C3 1F 41 
18 00 0F 10 81 4F 18 00 0F 4E 0F 10 81 4F 16 00 
0F 4D 0F 10 81 4F 02 00 0F 4C 0F 10 81 4F 00 00 
0F 43 0F 93 08 20 0F 93 06 20 0F 43 0F 93 03 20 
81 93 1A 00 2B 24 81 97 12 00 1A 28 0B 20 81 96 
10 00 16 28 07 20 81 95 0E 00 12 28 03 20 81 94 
0C 00 0E 28 81 84 0C 00 81 75 0E 00 81 76 10 00 
81 77 12 00 12 C3 07 10 06 10 05 10 04 10 10 3C 
12 C3 07 10 06 10 05 10 04 10 81 84 0C 00 81 75 
0E 00 81 76 10 00 81 77 12 00 02 3C 91 53 14 00 
1F 41 14 00 1F 93 44 38 0B 4F 1C 41 0C 00 1D 41 
0E 00 1E 41 10 00 1F 41 12 00 0C 84 0D 75 0E 76 
0F 77 0C 5C 0D 6D 0E 6E 0F 6F 1C D3 0D D3 0E D3 
0F D3 81 97 12 00 0C 28 21 20 81 96 10 00 08 28 
1D 20 81 95 0E 00 04 28 19 20 81 94 0C 00 16 2C 
1F 41 0C 00 0F 5F 81 4F 0C 00 1E 41 0E 00 0F 4E 
0F 6E 81 4F 0E 00 1E 41 10 00 0F 4E 0F 6E 81 4F 
10 00 1E 41 12 00 0F 4E 0F 6E 06 3C 81 4C 0C 00 
81 4D 0E 00 81 4E 10 00 81 4F 12 00 1B 83 BD 23 
81 93 14 00 1E 24 37 40 40 00 17 81 14 00 18 41 
0C 00 19 41 0E 00 1A 41 10 00 1B 41 12 00 0C 47 
B0 12 B6 7C 08 4C 09 4D 0A 4E 0B 4F 0C 47 B0 12 
2C 7C 2C D1 1D D1 02 00 1E D1 16 00 1F D1 18 00 
07 3C 2C 41 1D 41 02 00 1E 41 16 00 1F 41 18 00 
31 50 1C 00 34 41 35 41 36 41 37 41 30 41 3E 40 
1F 00 0E 8F 1C 41 06 00 1D 41 08 00 B0 12 B2 4D 
30 41 B0 12 5A 84 1C E3 1C B3 30 41 0A 12 09 12 
08 12 07 12 06 12 05 12 04 12 31 80 0E 00 09 43 
81 49 06 00 0F 49 81 4F 0A 00 C2 93 70 11 4C 24 
B1 40 6F 11 00 00 3F 40 6E 11 81 4F 02 00 0A 4F 
81 43 04 00 0C 3C 1F 41 0C 00 CF 44 00 00 7E 40 
03 00 CF 4E 02 00 CF 4E 03 00 CF 43 01 00 3C 40 
74 00 3D 40 1B 00 B0 12 80 74 3C 40 75 00 B0 12 
D6 75 08 4C 38 B0 20 00 F8 27 3C 40 74 00 3D 40 
19 00 B0 12 80 74 2F 41 CF 93 00 00 8A 24 16 42 
70 01 34 40 E8 03 05 43 08 43 63 3C 1E 41 08 00 
A1 52 04 00 3D 40 70 11 1D 51 04 00 1F 42 70 01 
0F 8E 3F 90 E9 03 FA 2B 2A 52 A1 52 02 00 A1 52 
00 00 CD 93 00 00 CB 23 0F 49 0F 5F 0F 5F 3E 40 
6E 11 0E 5F 81 4E 02 00 81 4E 0C 00 81 4F 04 00 
3A 40 6E 11 0A 5F DA 4A 03 00 02 00 15 42 70 01 
1E 41 04 00 3E 50 6F 11 81 4E 00 00 36 40 10 27 
07 43 04 43 3C 40 74 00 3D 40 1B 00 B0 12 80 74 
3C 40 75 00 B0 12 D6 75 08 4C 38 B0 20 00 F8 27 
3C 40 74 00 3D 40 19 00 B0 12 80 74 38 F0 1F 00 
04 98 09 2C 04 48 1F 41 0C 00 6E 4F 0F 44 3F 50 
03 00 0E 9F 8C 2B 1F 42 70 01 0F 85 06 9F 02 2C 
07 93 79 27 05 5F 06 8F 07 73 D4 3F 06 5F 04 8F 
05 73 3C 40 74 00 3D 40 1B 00 B0 12 80 74 3C 40 
75 00 B0 12 D6 75 07 4C 37 B0 20 00 F8 27 3C 40 
74 00 3D 40 19 00 B0 12 80 74 37 F0 1F 00 08 97 
01 2C 08 47 1F 42 70 01 0F 86 04 9F DF 2F 05 93 
DD 23 B1 50 03 00 06 00 1F 41 06 00 3F 90 0A 00 
08 2C 3C 40 6F 00 0D 4F B0 12 80 74 91 42 70 01 
08 00 3F 40 E2 86 0F 59 38 F0 1F 00 1E 41 02 00 
6D 4A 4B 4D 0C 48 3C 50 03 00 0C 9B 24 28 DA 4A 
03 00 02 00 CA 93 01 00 0F 20 4D 4D 0D 98 31 2C 
CA 48 00 00 7E 40 03 00 CA 4E 02 00 CA 4E 03 00 
DA 43 01 00 6F 4F 26 3C DE 83 01 00 6D 4E 4C 4D 
0C 98 03 2C CE 48 00 00 4D 48 4D 4D 18 53 08 9D 
18 28 6F 4F 17 3C 5F 4E 02 00 1F 83 CE 4F 02 00 
4F 93 0A 20 FE 90 80 00 03 00 03 28 FE 43 03 00 
03 3C DE 5E 03 00 03 00 CE 93 01 00 02 24 DE 83 
01 00 0F 43 81 DF 0A 00 1E 41 0A 00 19 53 29 92 
1D 2B 0C 4E 31 50 0E 00 34 41 35 41 36 41 37 41 
38 41 39 41 3A 41 30 41 0A 12 09 12 08 12 21 83 
D2 C3 2B 00 0E 3D 3C 40 36 00 B0 12 D6 75 08 4C 
3C 40 37 00 B0 12 D6 75 09 4C 0F 48 0F D9 0F 93 
06 20 81 43 00 00 3C 40 0B 00 B0 12 00 84 0A 43 
08 93 55 24 38 B0 10 00 0B 24 3C 40 31 00 3D 40 
10 00 B0 12 80 74 1C 43 B0 12 CE 81 E2 D2 3A 11 
38 B2 06 24 1C 43 B0 12 CE 81 1C 43 B0 12 30 82 
28 B2 06 24 1C 43 B0 12 CE 81 1C 43 B0 12 30 82 
18 B3 06 24 1C 43 B0 12 CE 81 1C 43 B0 12 30 82 
28 B3 25 24 3C 40 38 00 B0 12 D6 75 0A 4C 3A B2 
09 24 3C 40 38 00 3D 40 F7 FF B0 12 80 74 1C 43 
B0 12 CE 81 2A B2 0C 24 3C 40 1A 00 3D 40 FF 00 
B0 12 80 74 3C 40 38 00 3D 40 FB FF B0 12 80 74 
F2 D2 3A 11 3C 40 31 00 2D 43 B0 12 80 74 C2 D8 
A1 11 0D 48 3D E3 3C 40 2E 00 B0 12 80 74 09 93 
9C 24 39 B0 10 00 04 24 0C 4A B0 12 CA 6F 0A 4C 
39 B2 4D 24 C2 93 3D 11 4A 20 3C 40 30 00 3D 40 
0F 00 B0 12 80 74 3C 40 34 00 3D 40 1F 00 B0 12 
80 74 D2 B3 3E 11 05 24 3C 40 22 00 2D 43 B0 12 
80 74 1F 42 A6 11 5D 4F 01 00 7D 90 20 00 05 2C 
4D 4D 3C 40 6B 00 B0 12 80 74 3C 40 3C 00 2D 43 
B0 12 80 74 F2 B0 10 00 18 00 1D 20 F2 42 3D 11 
5D 42 47 11 3C 40 05 00 B0 12 80 74 58 42 45 11 
5D 42 45 11 2C 42 B0 12 80 74 C2 48 4D 11 58 42 
46 11 5D 42 46 11 3D D0 10 00 2C 43 B0 12 80 74 
C2 48 4E 11 02 3C D2 43 3D 11 E2 D3 3C 11 29 B2 
1C 24 E2 B3 5E 11 19 20 B0 12 9C 83 3C 40 1A 00 
3D 40 F0 00 B0 12 80 74 3C 40 30 00 3D 40 10 00 
B0 12 80 74 3C 40 34 00 3D 40 20 00 B0 12 80 74 
F2 40 06 00 3D 11 E2 D3 3A 11 39 B0 20 00 06 24 
3C 40 35 00 3D 40 20 00 B0 12 80 74 29 B3 0F 24 
1C 43 B0 12 CE 81 1C 43 B0 12 30 82 3C 40 21 00 
B0 12 D6 75 3C B0 80 00 02 20 E2 D3 3C 11 19 B3 
04 24 82 43 64 11 82 43 66 11 C2 D9 A2 11 0D 49 
3D E3 3C 40 32 00 B0 12 80 74 C2 DA A3 11 D2 C3 
2B 00 D2 B3 28 00 EF 22 21 53 38 41 39 41 3A 41 
30 41 0A 12 09 12 08 12 07 12 06 12 05 12 31 80 
0A 00 06 4D 05 4C B1 40 78 86 00 00 91 46 02 00 
02 00 0C 41 2C 52 B0 12 62 7E 2F 46 39 43 19 53 
CF 93 00 00 23 24 19 53 1F 53 CF 93 00 00 1E 24 
19 53 1F 53 CF 93 00 00 19 24 19 53 1F 53 CF 93 
00 00 14 24 19 53 1F 53 CF 93 00 00 0F 24 19 53 
1F 53 CF 93 00 00 0A 24 19 53 1F 53 CF 93 00 00 
05 24 19 53 1F 53 7E 4F 0E 93 D9 23 38 43 0F 41 
2F 52 18 53 CF 93 00 00 23 24 18 53 1F 53 CF 93 
00 00 1E 24 18 53 1F 53 CF 93 00 00 19 24 18 53 
1F 53 CF 93 00 00 14 24 18 53 1F 53 CF 93 00 00 
0F 24 18 53 1F 53 CF 93 00 00 0A 24 18 53 1F 53 
CF 93 00 00 05 24 18 53 1F 53 7E 4F 0E 93 D9 23 
27 42 07 56 2F 42 0F 56 3A 43 1A 53 CF 93 00 00 
23 24 1A 53 1F 53 CF 93 00 00 1E 24 1A 53 1F 53 
CF 93 00 00 19 24 1A 53 1F 53 CF 93 00 00 14 24 
1A 53 1F 53 CF 93 00 00 0F 24 1A 53 1F 53 CF 93 
00 00 0A 24 1A 53 1F 53 CF 93 00 00 05 24 1A 53 
1F 53 7E 4F 0E 93 D9 23 0D 49 0D 58 0D 5D 0D 5A 
3D 50 18 00 0C 45 B0 12 6E 75 0C 93 61 20 2C 46 
0D 49 B0 12 90 80 0C 93 5B 20 3C 40 7C 86 1D 43 
B0 12 90 80 0C 93 54 20 0C 41 2C 52 0D 48 B0 12 
90 80 0C 93 4D 20 3C 40 7E 86 2D 43 B0 12 90 80 
0C 93 46 20 3C 40 82 86 3D 40 10 00 B0 12 90 80 
0C 93 3E 20 3C 40 7E 86 2D 43 B0 12 90 80 0C 93 
37 20 2C 46 0D 49 B0 12 90 80 0C 93 31 20 3C 40 
7C 86 1D 43 B0 12 90 80 0C 93 2A 20 0C 41 2C 52 
0D 48 B0 12 90 80 0C 93 23 20 5F 42 9B 11 0F 93 
11 24 1F 83 07 24 81 43 00 00 1C 43 B0 12 00 84 
3C 43 19 3C 3C 40 94 86 1D 43 B0 12 06 77 0C 93 
08 24 0E 3C 3C 40 94 86 1D 43 B0 12 FA 7C 0C 93 
07 20 1D 43 0D 5A 0C 47 B0 12 90 80 0C 93 02 24 
3C 43 01 3C 0C 43 31 50 0A 00 35 41 36 41 37 41 
38 41 39 41 3A 41 30 41 0A 12 09 12 08 12 07 12 
06 12 05 12 31 80 72 00 09 4F 06 4E 81 4D 6E 00 
0A 4C 17 41 80 00 25 4A 2C 4A B0 12 AE 84 08 4C 
08 55 81 43 70 00 05 98 E1 2C 81 43 66 00 C1 43 
6C 00 81 43 68 00 B1 43 6A 00 0D 3C 2F 4A CF 93 
00 00 D4 24 0E 4F 1E 53 8A 4E 00 00 6C 4F 0D 46 
89 12 91 53 70 00 3E 40 25 00 2F 4A 6E 9F EE 23 
9A 53 00 00 11 3C B1 D0 10 00 66 00 0B 3C 91 D3 
66 00 08 3C A1 D3 66 00 05 3C B1 D2 66 00 02 3C 
A1 D2 66 00 9A 53 00 00 2F 4A 6F 4F 3F 80 20 00 
F7 27 3F 80 03 00 F1 27 3F 82 EC 27 2F 83 E7 27 
3F 80 03 00 E0 27 0C 41 3C 50 66 00 0D 4A 0E 41 
3E 50 6E 00 B0 12 D6 66 2F 4A 6F 4F 3F 80 68 00 
11 24 2F 82 1F 20 9A 53 00 00 2F 4A 3E 40 6C 00 
6E 9F 04 24 B1 D0 40 00 66 00 14 3C B1 D0 00 01 
66 00 0E 3C 9A 53 00 00 2F 4A 3E 40 68 00 6E 9F 
04 24 B1 D0 20 00 66 00 05 3C B1 D0 00 02 66 00 
9A 53 00 00 2E 4A 0F 4E 1F 53 8A 4F 00 00 6F 4E 
C1 4F 6C 00 3F 90 6E 00 24 24 3F 90 73 00 12 24 
0C 41 2C 53 0D 41 3D 50 66 00 0E 41 3E 50 6E 00 
B0 12 84 56 0E 4C 0C 41 2C 53 0D 46 87 12 81 5C 
70 00 51 3C 81 49 00 00 0C 41 3C 50 66 00 0D 46 
0E 41 3E 50 6E 00 0F 41 3F 50 70 00 B0 12 E4 6D 
42 3C 3F 40 60 07 1F F1 66 00 3F 80 20 00 34 24 
3F 80 20 00 22 24 3F 80 C0 00 0B 24 3F 80 00 01 
2B 20 B0 12 78 56 1F 4F FE FF DF 41 70 00 00 00 
2A 3C B0 12 78 56 1C 41 70 00 3C B0 00 80 0D 7D 
3D E3 0E 4D 1F 4F FE FF 8F 4C 00 00 8F 4D 02 00 
8F 4D 04 00 8F 4E 06 00 16 3C B0 12 78 56 1D 41 
70 00 3D B0 00 80 0E 7E 3E E3 1F 4F FE FF 8F 4D 
00 00 8F 4E 02 00 07 3C B0 12 78 56 1F 4F FE FF 
9F 41 70 00 00 00 8A 98 00 00 1F 2B 1C 41 70 00 
31 50 72 00 30 40 A0 84 2F 43 1F 51 70 00 81 4F 
70 00 30 41 0A 12 09 12 08 12 07 12 06 12 05 12 
04 12 21 82 04 4E 06 4D 05 4C 17 46 02 00 07 55 
3A 40 63 00 0A 55 81 4A 00 00 81 43 02 00 3D 40 
20 00 3E 40 64 00 B0 12 D8 83 2F 41 CF 43 00 00 
3E 40 62 00 0E 55 81 4E 00 00 5D 46 06 00 09 43 
08 43 0F 4D 3F 80 25 00 16 24 3F 80 33 00 1B 24 
3F 80 0B 00 20 24 1F 83 16 24 3F 80 05 00 13 24 
3F 80 06 00 2F 93 0F 28 3F 80 06 00 0C 24 3F 80 
03 00 09 24 20 3C 0C 45 3D 40 76 86 2E 43 B0 12 
6C 84 1C 43 AD 3C 0C 46 0D 41 2D 53 0E 41 0F 44 
B0 12 04 60 0E 3C A4 53 00 00 2F 44 5F 4F FE FF 
4F 93 01 20 18 43 CE 4F 00 00 91 83 00 00 A6 C3 
00 00 5D 46 06 00 3D 90 75 00 2C 24 3D 90 6F 00 
29 24 3D 90 78 00 26 24 3D 90 58 00 23 24 3D 90 
70 00 20 24 29 43 29 F6 81 93 02 00 07 20 09 93 
0B 24 2F 41 FF 40 2B 00 00 00 04 3C 2F 41 FF 40 
2D 00 00 00 91 83 00 00 0F 49 1F D1 02 00 0F 93 
09 20 2F 42 2F B6 06 24 2F 41 FF 40 20 00 00 00 
91 83 00 00 1F 43 2F B6 09 20 0F 4A 2F 81 86 9F 
02 00 04 38 0A 47 0A 8F 1A 53 01 3C 0A 45 1D 43 
2D 51 0C 4A 0E 43 3F 40 64 00 B0 12 2E 83 81 4C 
00 00 08 93 06 24 0F 4C 1F 53 81 4F 00 00 CC 43 
00 00 27 91 0B 28 2C 41 1C 83 0E 47 2E 81 1E 53 
3D 40 20 00 B0 12 D8 83 C7 43 00 00 3F 40 10 00 
2F B6 2B 24 0A 95 30 24 0E 4A 0E 85 0C 45 3D 40 
30 00 B0 12 D8 83 5F 46 06 00 7F 90 78 00 13 24 
7F 90 58 00 10 24 7F 90 70 00 0D 24 19 D1 02 00 
09 93 03 20 2F 42 2F B6 17 24 E5 4A 00 00 FA 40 
30 00 00 00 11 3C 3F 42 2F B6 0E 24 D5 4A 01 00 
01 00 FA 40 30 00 01 00 07 3C 0E 4A 0E 85 0C 45 
3D 40 20 00 B0 12 D8 83 0C 45 B0 12 AE 84 0C 58 
21 52 30 40 9E 84 0A 12 3C 42 B0 12 E0 82 3C 40 
1A 00 3D 40 0F 00 B0 12 80 74 3C 40 31 00 3D 40 
FF 00 B0 12 80 74 3C 40 35 00 3D 40 FF 00 B0 12 
80 74 D2 C3 2C 00 D2 C3 2B 00 D2 D3 2D 00 B0 12 
FE 84 B0 12 D2 84 B0 12 C8 84 C2 43 5E 11 C2 43 
5F 11 C2 43 60 11 C2 43 61 11 C2 43 62 11 C2 43 
63 11 C2 43 64 11 C2 43 65 11 C2 43 66 11 C2 43 
67 11 C2 43 68 11 C2 43 69 11 C2 43 6A 11 C2 43 
6B 11 C2 43 6C 11 C2 43 6D 11 C2 43 6E 11 C2 43 
6F 11 C2 43 70 11 C2 43 71 11 C2 43 72 11 C2 43 
73 11 C2 43 74 11 C2 43 75 11 C2 43 76 11 C2 43 
77 11 C2 43 78 11 C2 43 79 11 C2 43 7A 11 C2 43 
7B 11 C2 43 7C 11 C2 43 7D 11 C2 43 3F 11 C2 43 
40 11 C2 43 43 11 C2 43 44 11 D2 43 42 11 D2 43 
41 11 3A 40 3E 11 FA 40 05 00 00 00 7F 40 0E 00 
C2 4F 45 11 C2 4F 46 11 F2 40 1F 00 47 11 3C 40 
48 11 3D 40 43 11 3E 40 05 00 B0 12 6C 84 F2 F0 
E1 00 3A 11 C2 43 3D 11 B0 12 72 7C 2C 43 B0 12 
E0 82 3C 40 63 00 3D 40 3F 00 B0 12 80 74 1F 42 
A6 11 5D 4F 02 00 3C 40 72 00 B0 12 80 74 1F 42 
A6 11 5D 4F 03 00 3C 40 64 00 B0 12 80 74 3C 40 
F9 00 0D 43 B0 12 80 74 3C 40 FC 00 0D 43 B0 12 
80 74 3C 40 FD 00 3D 40 0C 00 B0 12 80 74 3C 40 
FE 00 0D 43 B0 12 80 74 3C 40 C9 00 3D 40 0F 00 
B0 12 80 74 3C 40 C1 00 3D 40 05 00 B0 12 80 74 
3C 40 00 01 B0 12 3C 81 3C 40 47 00 3D 42 B0 12 
80 74 F2 42 62 11 3C 40 DA 00 3D 42 B0 12 80 74 
3C 40 DC 00 3D 40 D9 00 B0 12 80 74 3C 40 DD 00 
3D 40 0A 00 B0 12 80 74 B0 12 A4 76 12 C3 0C 10 
0D 4C 3C 40 59 00 B0 12 80 74 0C 4A B0 12 B0 63 
3A 41 30 41 0A 12 09 12 08 12 07 12 06 12 05 12 
21 83 5A 42 2D 00 1A F3 D2 C3 2D 00 3C 40 19 00 
B0 12 D6 75 05 4C 3C 40 78 00 B0 12 D6 75 3C B0 
40 00 07 20 81 43 00 00 3C 40 13 00 B0 12 12 84 
8F 3C 3C 40 19 00 3D 40 03 00 B0 12 80 74 3C 40 
79 00 3D 42 B0 12 80 74 3C 40 6E 00 1D 43 B0 12 
80 74 1E 42 70 01 1F 42 70 01 0F 8E 3F 90 63 11 
FA 2B 3C 40 79 00 B0 12 D6 75 07 4C 3C 40 79 00 
0D 47 B0 12 80 74 3C 40 6E 00 0D 43 B0 12 80 74 
37 B0 10 00 07 20 81 43 00 00 3C 40 10 00 B0 12 
12 84 5E 3C 3C 40 38 00 3D 40 FE FF B0 12 80 74 
06 43 0C 3C 17 83 36 43 04 3C 06 93 49 38 17 53 
16 43 3C 40 79 00 0D 47 B0 12 80 74 08 43 09 48 
04 3C 39 90 03 00 01 20 29 42 3C 40 19 00 0D 49 
B0 12 80 74 3C 40 6E 00 1D 43 B0 12 80 74 1E 42 
70 01 1F 42 70 01 0F 8E 3F 90 FA 07 FA 2B 3C 40 
38 00 B0 12 D6 75 1C B3 0B 24 3C 40 38 00 3D 40 
FE FF B0 12 80 74 1C 43 0D 49 B0 12 E8 80 08 DC 
3C 40 6E 00 0D 43 B0 12 80 74 19 53 39 90 0A 00 
D0 2B 3F 40 07 00 0F F8 0F 93 03 24 38 B0 F0 03 
BC 27 38 B0 00 03 04 24 0F 93 02 20 16 93 B2 3B 
08 93 06 24 81 43 00 00 3C 40 11 00 B0 12 12 84 
3C 40 19 00 0D 45 B0 12 80 74 0A 93 02 24 D2 D3 
2D 00 21 53 35 41 36 41 37 41 38 41 39 41 3A 41 
30 41 0A 12 B2 40 80 5A 20 01 C2 43 21 00 C2 43 
22 00 C2 43 29 00 F2 40 F6 00 2A 00 F2 40 11 00 
19 00 F2 40 F1 00 1A 00 F2 40 17 00 1D 00 F2 40 
DF 00 1E 00 C2 43 31 00 F2 40 F0 00 32 00 C2 43 
35 00 F2 43 36 00 F2 40 C4 00 57 00 B2 40 50 00 
72 01 B2 40 10 02 60 01 E2 C3 02 00 82 43 70 01 
92 C3 62 01 92 B3 62 01 FD 27 E2 B3 02 00 F4 23 
F2 40 D0 00 58 00 82 43 60 01 3E 40 24 00 3F 40 
3A 11 1F 53 CF 43 FF FF 1E 83 FB 23 2E 43 3F 40 
A4 11 1F 53 CF 43 FF FF 1E 83 FB 23 B0 12 86 81 
B0 12 64 80 0C 93 6A 20 B0 12 6E 82 0C 93 66 20 
32 D2 B0 12 F0 81 0C 93 61 20 B0 12 C2 77 3C 40 
92 00 2D 43 B0 12 B0 83 0C 93 17 20 3A 40 80 10 
0C 4A 3D 40 0F 00 3E 40 05 00 B0 12 7A 71 0C 93 
0C 20 5F 4A 09 00 0F 5A 82 4F A6 11 B0 12 50 61 
0C 93 03 20 E2 D3 3B 11 06 3C 3C 40 03 00 B0 12 
9A 7E D2 D3 3B 11 C2 93 3A 11 1A 24 D2 B3 3A 11 
02 24 B0 12 B0 68 E2 B3 3A 11 02 24 B0 12 F8 84 
E2 B2 3A 11 02 24 B0 12 DC 65 F2 B2 3A 11 02 24 
B0 12 24 79 F2 B0 10 00 3A 11 02 24 B0 12 B6 5E 
1F 42 A8 11 1E 42 A4 11 0F 8E 3F 90 34 00 DB 2B 
3E 50 32 00 82 4E A4 11 1F 42 A8 11 0A 43 0F 8E 
3F 90 34 00 01 28 1A 43 E2 B3 3B 11 03 24 0C 4A 
B0 12 AE 46 0C 4A B0 12 5E 70 C5 3F FF 3F 0A 12 
09 12 08 12 08 4C 5A 48 06 00 3A 90 70 00 A0 24 
0C 43 0B 43 0E 43 0F 43 39 40 60 07 29 F8 39 80 
20 00 77 24 39 80 20 00 4F 24 39 80 C0 00 2E 24 
39 80 00 01 13 24 3A 80 58 00 8C 24 3A 80 0C 00 
7B 24 3A 80 05 00 78 24 3A 80 06 00 83 24 3A 80 
06 00 80 24 3A 80 03 00 83 20 7C 3C 3A 80 58 00 
0F 24 3A 80 0C 00 68 24 3A 80 05 00 65 24 3A 80 
06 00 06 24 3A 80 06 00 03 24 3A 80 03 00 70 20 
AD 53 00 00 2D 4D 5C 4D FE FF 69 3C 3A 80 58 00 
0F 24 3A 80 0C 00 0C 24 3A 80 05 00 09 24 3A 80 
06 00 06 24 3A 80 06 00 03 24 3A 80 03 00 58 20 
BD 52 00 00 2F 4D 1C 4F F8 FF 1B 4F FA FF 1E 4F 
FC FF 1F 4F FE FF 4C 3C 3A 80 58 00 0F 24 3A 80 
0C 00 12 24 3A 80 05 00 0F 24 3A 80 06 00 06 24 
3A 80 06 00 03 24 3A 80 03 00 3A 20 AD 52 00 00 
2D 4D 1B 4D FE FF 0A 3C AD 52 00 00 2D 4D 1B 4D 
FE FF 3B B0 00 80 0E 7E 3E E3 0F 4E 1C 4D FC FF 
27 3C 3A 80 58 00 1E 24 3A 80 0C 00 0D 24 3A 80 
05 00 0A 24 3A 80 06 00 15 24 3A 80 06 00 12 24 
3A 80 03 00 15 20 0E 3C AD 53 00 00 2F 4D 1C 4F 
FE FF 3C B0 00 80 0B 7B 3B E3 0E 4B 0F 4B 08 3C 
0E 43 0F 43 AD 53 00 00 2D 4D 1C 4D FE FF 0B 43 
0D 4B 30 40 A6 84 0A 12 09 12 08 12 07 12 31 80 
10 00 59 42 4D 11 F2 90 06 00 3D 11 94 20 5A 42 
69 11 F2 B2 68 11 1E 20 49 93 3B 24 4F 49 0F 11 
79 B0 FE FF 02 20 0E 43 0E 3C 0D 41 1D 53 5E 42 
4D 11 1E C3 0C 41 CC 4A 00 00 CD 4A 00 00 2C 53 
2D 53 1F 83 F8 23 59 B3 24 24 0F 41 0F 5E CF 4A 
00 00 1F 3C 49 93 1D 24 4F 49 0F 11 79 B0 FE FF 
02 20 0E 43 0F 3C 0D 41 1D 53 4E 49 1E C3 0C 41 
CC 4A 00 00 5A 53 CD 4A 00 00 5A 53 2C 53 2D 53 
1F 83 F6 23 59 B3 05 24 0F 41 0F 5E CF 4A 00 00 
5A 53 17 42 6A 11 0F 47 1F 83 3F 90 40 00 02 28 
37 40 40 00 08 43 24 3C F2 B2 68 11 21 24 49 93 
1F 24 4F 49 0F 11 4D 49 1D F3 79 B0 FE FF 02 20 
0E 43 0F 3C 0C 41 1C 53 4E 49 1E C3 0B 41 CB 4A 
00 00 5A 53 CC 4A 00 00 5A 53 2B 53 2C 53 1F 83 
F6 23 0D 93 05 24 0F 41 0F 5E CF 4A 00 00 5A 53 
4D 49 0C 41 0E 43 B0 12 14 6B 0C 93 06 24 18 53 
08 97 D2 2B C2 4A 69 11 02 3C E2 41 69 11 08 93 
12 24 82 93 6A 11 0A 24 1F 42 6A 11 0F 88 82 88 
6A 11 0F 93 03 20 F2 F0 EF 00 3A 11 82 58 58 11 
F2 D0 40 00 3C 11 31 50 10 00 37 41 38 41 39 41 
3A 41 30 41 0A 12 09 12 08 12 07 12 06 12 05 12 
04 12 31 80 06 00 0A 4D 0D 4F 08 4E 09 4C 89 93 
04 00 04 38 B9 F0 EF FF 00 00 02 3C 99 43 04 00 
5F 49 06 00 3F 80 58 00 0A 24 3F 80 17 00 0A 24 
1F 83 05 24 3F 82 03 24 37 40 0A 00 04 3C 37 40 
10 00 01 3C 37 42 B0 12 4E 5D 16 49 04 00 36 B0 
00 80 0B 7B 3B E3 04 4B 05 4B 06 DC 0B DD 04 DE 
05 DF 05 93 09 20 04 93 07 20 0B 93 05 20 06 93 
03 20 3B 42 2B B9 60 24 5B 49 06 00 7B 90 64 00 
03 24 7B 90 69 00 0E 20 0F 93 0C 34 9A 43 00 00 
3C E3 3D E3 3E E3 3F E3 1C 53 0D 63 0E 63 0F 63 
5B 49 06 00 81 47 00 00 C1 4B 02 00 81 48 04 00 
B0 12 82 62 3E 40 30 00 07 3C 2D 48 0F 4D 1F 83 
88 4F 00 00 CD 4E 00 00 1C 53 89 9C 04 00 F5 37 
5F 49 06 00 7F 90 78 00 06 24 7F 90 58 00 03 24 
7F 90 70 00 18 20 3D 42 2D B9 15 24 3F 90 70 00 
02 20 3F 40 78 00 2C 48 0D 4C 1D 83 88 4D 00 00 
CC 4F 00 00 2D 48 0F 4D 1F 83 88 4F 00 00 CD 4E 
00 00 5F 49 06 00 3F 90 6F 00 0E 20 3F 42 2F B9 
0B 24 2F 48 FF 90 30 00 01 00 06 24 0D 4F 1D 83 
88 4D 00 00 CF 4E 00 00 31 50 06 00 30 40 9E 84 
0A 12 21 82 C2 43 5E 11 C2 43 5F 11 C2 43 60 11 
C2 43 61 11 C2 43 62 11 C2 43 63 11 C2 43 64 11 
C2 43 65 11 C2 43 66 11 C2 43 67 11 C2 43 68 11 
C2 43 69 11 C2 43 6A 11 C2 43 6B 11 C2 43 6C 11 
C2 43 6D 11 C2 43 6E 11 C2 43 6F 11 C2 43 70 11 
C2 43 71 11 C2 43 72 11 C2 43 73 11 C2 43 74 11 
C2 43 75 11 C2 43 76 11 C2 43 77 11 C2 43 78 11 
C2 43 79 11 C2 43 7A 11 C2 43 7B 11 C2 43 7C 11 
C2 43 7D 11 C2 43 3F 11 C2 43 40 11 C2 43 43 11 
C2 43 44 11 D2 43 42 11 D2 43 41 11 F2 40 05 00 
3E 11 7F 40 0E 00 C2 4F 45 11 C2 4F 46 11 F2 40 
1F 00 47 11 3C 40 48 11 3D 40 43 11 3E 40 05 00 
B0 12 6C 84 B0 12 AA 82 0C 93 02 24 3C 43 2E 3C 
F2 D0 10 00 19 00 1E 42 A8 11 D2 B3 28 00 06 20 
1F 42 A8 11 0F 8E 3F 90 FC 00 F7 2B F2 F0 EF 00 
19 00 3C 42 B0 12 E0 82 3C 40 7F 00 B0 12 D6 75 
0A 4C 2C 43 B0 12 E0 82 2A 92 06 20 B0 12 76 58 
B0 12 24 79 0C 43 0A 3C B1 40 DE 86 00 00 81 4A 
02 00 3C 40 11 00 B0 12 00 84 3C 43 21 52 3A 41 
30 41 0A 12 09 12 08 12 07 12 06 12 05 12 04 12 
31 80 06 00 0A 4E 07 4C 09 4D 15 41 1A 00 5D 41 
18 00 1E 41 16 00 81 4E 04 00 7D 90 58 00 03 20 
34 40 52 86 02 3C 34 40 64 86 0F 93 0F 20 0A 93 
0D 20 09 93 0B 20 07 93 09 20 2E 45 0F 4E 1F 83 
85 4F 00 00 FE 40 30 00 00 00 62 3C 81 4E 00 00 
3E B0 00 80 06 76 36 E3 81 46 02 00 08 47 0B 4F 
1F 41 04 00 3F 82 37 24 3F 82 33 24 0B 93 28 28 
08 20 0A 93 25 28 05 20 19 93 22 28 02 20 08 93 
1F 28 0B 93 10 28 08 20 1A 93 0D 28 05 20 09 93 
0A 28 02 20 08 93 07 28 2C 41 0D 46 0E 4D 0F 46 
B0 12 5C 4A 1C 3C 1E 41 04 00 3E B0 00 80 0F 7F 
3F E3 0C 48 0D 49 B0 12 76 78 0A 43 0F 43 10 3C 
0C 48 1D 41 04 00 B0 12 5E 83 09 43 0A 43 0F 43 
08 3C 2C 42 02 3C 3C 40 03 00 B0 12 2C 7C 0A 4E 
09 4D 08 4C 2B 45 0E 4B 1E 83 85 4E 00 00 2C 41 
0D 48 B0 12 EC 83 07 8C 07 54 EB 47 00 00 07 48 
0F 93 AC 23 0A 93 AA 23 09 93 A8 23 07 93 A6 23 
2C 45 B0 12 AE 84 1C 83 31 50 06 00 30 40 9E 84 
0D 4C 3D 90 3E 11 06 24 3C 40 3E 11 3E 40 0F 00 
B0 12 6C 84 F2 40 05 00 60 11 D2 B3 3E 11 06 20 
3C 40 22 00 0D 43 B0 12 80 74 05 3C 3C 40 22 00 
2D 43 B0 12 80 74 5D 42 42 11 3C 40 16 00 B0 12 
80 74 5D 42 41 11 3C 40 13 00 B0 12 80 74 5D 42 
40 11 3C 40 14 00 B0 12 80 74 5D 42 3F 11 3C 40 
15 00 B0 12 80 74 5D 42 42 11 3C 40 41 00 B0 12 
80 74 5D 42 41 11 3C 40 42 00 B0 12 80 74 5D 42 
40 11 3C 40 43 00 B0 12 80 74 5D 42 3F 11 3C 40 
44 00 B0 12 80 74 E2 B3 3E 11 16 20 E2 B2 3E 11 
07 20 3C 40 4A 00 3D 40 87 00 B0 12 80 74 06 3C 
3C 40 4A 00 3D 40 86 00 B0 12 80 74 3C 40 79 00 
3D 42 B0 12 80 74 2C 3C 7F 40 03 00 C2 4F 70 11 
C2 4F 71 11 E2 43 6F 11 C2 43 6E 11 C2 4F 74 11 
C2 4F 75 11 E2 43 73 11 C2 43 72 11 C2 4F 78 11 
C2 4F 79 11 E2 43 77 11 C2 43 76 11 C2 4F 7C 11 
C2 4F 7D 11 E2 43 7B 11 C2 43 7A 11 D2 43 61 11 
3C 40 4A 00 3D 40 86 00 B0 12 80 74 B0 12 54 5A 
3C 40 43 11 B0 12 06 74 30 40 8A 72 0A 12 09 12 
08 12 07 12 0C 93 0D 24 1C 93 03 24 B0 12 C6 82 
70 3C 3C 40 7E 11 1D 43 B0 12 8C 69 0C 93 03 24 
5F 3C C2 43 7E 11 E2 93 3D 11 02 28 B0 12 86 6C 
C2 93 7E 11 03 24 F2 D0 46 00 3C 11 3C 40 84 11 
07 4C B0 12 E6 7B 58 42 84 11 68 B3 03 24 3D 40 
0D 00 02 3C 3D 40 03 00 49 48 29 F2 09 93 02 24 
3D 50 09 00 4A 48 3A F0 40 00 0A 93 02 24 3D 50 
07 00 4C 43 B0 12 6E 75 0C 93 32 20 0C 47 6D 43 
B0 12 14 81 0C 93 2C 20 68 B3 0C 24 E2 C3 3C 11 
0C 47 B0 12 FA 74 0C 47 7D 40 09 00 B0 12 14 81 
0C 93 1E 20 09 93 0F 24 E2 C2 3C 11 3C 40 50 11 
7D 42 B0 12 14 81 0C 93 13 20 82 43 56 11 82 43 
54 11 82 43 50 11 0A 93 13 24 F2 F0 BF 00 3C 11 
3C 40 58 11 7D 40 06 00 B0 12 14 81 0C 93 02 24 
3C 43 07 3C 82 43 58 11 82 43 5A 11 82 43 5C 11 
0C 43 37 41 38 41 39 41 3A 41 30 41 0A 12 09 12 
08 12 07 12 06 12 05 12 31 80 10 00 E2 B3 68 11 
03 20 E2 C2 3A 11 66 3C 59 42 4E 11 58 42 6C 11 
0A 43 F2 B0 10 00 68 11 01 24 1A 43 36 40 40 00 
07 43 0C 41 0D 49 0E 43 B0 12 CE 6B 0C 93 3D 24 
E2 B2 68 11 37 24 39 90 0F 00 04 24 09 93 32 24 
0F 43 08 3C 0F 48 6F E1 5F B3 02 24 92 53 5C 11 
48 5A 1F 43 0B 49 0B 8F 0C 4B 12 C3 0C 10 05 4F 
05 E9 15 F3 1B C3 0B 93 14 24 0D 41 0D 5F 0E 41 
1E 53 0E 5F 0F 5B 68 9D 02 24 92 53 5C 11 48 5A 
68 9E 02 24 92 53 5C 11 48 5A 2D 53 2E 53 1C 83 
F2 23 15 93 07 38 0E 41 0E 5F 68 9E 02 24 92 53 
5C 11 48 5A 17 53 16 83 BC 23 C2 48 6C 11 82 57 
5A 11 F2 D0 40 00 3C 11 E2 C2 3A 11 3C 40 2E 00 
3D 40 EF FF B0 12 80 74 3C 40 30 00 3D 40 10 00 
B0 12 80 74 31 50 10 00 35 41 36 41 37 41 38 41 
39 41 3A 41 30 41 0A 12 09 12 08 12 31 80 0A 00 
08 4E 0A 4D 09 4C 3E 40 2A 00 2F 4A 6E 9F 1C 24 
0C 41 0D 43 3E 40 0A 00 B0 12 D8 83 2F 4A FF 90 
30 00 00 00 08 28 0E 41 FF 90 3A 00 00 00 03 2C 
B0 12 B8 67 F9 2F C1 93 00 00 18 24 0C 41 B0 12 
C8 79 89 4C 02 00 12 3C A8 53 00 00 2F 48 1F 4F 
FE FF 0F 93 03 38 89 4F 02 00 06 3C 3F E3 1F 53 
89 4F 02 00 99 D3 00 00 9A 53 00 00 3E 40 2E 00 
2F 4A 6E 9F 2D 20 9A 53 00 00 2F 4A 3E 40 2A 00 
6E 9F 1E 24 0C 41 0D 43 3E 40 0A 00 B0 12 D8 83 
2F 4A FF 90 30 00 00 00 08 28 0E 41 FF 90 3A 00 
00 00 03 2C B0 12 B8 67 F9 2F C1 93 00 00 04 24 
0C 41 B0 12 C8 79 01 3C 0C 43 89 4C 04 00 08 3C 
A8 53 00 00 2F 48 99 4F FE FF 04 00 9A 53 00 00 
31 50 0A 00 30 40 A6 84 0D 4F 1F 53 8A 4F 00 00 
1E 53 EE 4D FF FF FF 90 30 00 00 00 30 41 0A 12 
09 12 08 12 07 12 2C 93 03 24 B0 12 C6 82 63 3C 
3C 40 7E 11 2D 43 B0 12 8C 69 0C 93 5B 20 C2 93 
3D 11 05 20 0C 43 0D 43 B0 12 CE 78 54 3C 5A 42 
4E 11 1C 43 B0 12 D6 75 4F 4A 02 12 32 C2 03 43 
82 4F 30 01 82 4C 38 01 17 42 3A 01 32 41 1C 42 
7E 11 0C 97 0F 2C 4D 4A B0 12 5E 83 4F 4A 02 12 
32 C2 03 43 82 4F 30 01 82 4C 38 01 19 42 3A 01 
32 41 01 3C 09 47 4C 43 0D 49 B0 12 6E 75 0C 93 
29 20 05 3C 92 53 5A 11 F2 D0 40 00 3C 11 4F 4A 
09 9F 11 2C 82 97 7E 11 0C 28 3C 40 2E 00 3D 40 
EF FF B0 12 80 74 3C 40 30 00 3D 40 10 00 B0 12 
80 74 0C 43 10 3C 38 40 84 11 0C 48 4D 4A 0E 43 
B0 12 CE 6B 4F 4A 09 8F 4D 4A 0C 48 B0 12 90 80 
0C 93 D8 27 3C 43 37 41 38 41 39 41 3A 41 30 41 
0A 12 09 12 31 80 06 00 D2 C3 3A 11 C2 43 9B 11 
F2 B0 10 00 03 00 02 20 E2 D3 9A 11 0C 41 2C 53 
2D 42 B0 12 8C 69 0C 93 4F 20 5C 41 05 00 4F 4C 
8F 10 5C 41 04 00 0C DF 0D 4C 5F 41 02 00 3E 40 
0F 00 0E FF 0E 93 37 24 3E 90 03 00 2E 20 0E 4F 
4E 5E 4E 5E 4E 5E 4E 5E 0F 11 0F 11 0F 11 0F 11 
4F DE C2 4F 9D 11 D2 D3 9A 11 5C 41 03 00 B0 12 
00 40 09 4C 09 93 16 24 D2 B3 9A 11 13 24 B0 12 
EC 84 0A 4C 7C 40 7F 00 0D 4A B0 12 62 52 0C 93 
09 20 2C 4A 1D 4A 02 00 B0 12 74 83 0C 93 02 24 
B0 12 7E 84 09 93 03 24 0F 3C B0 12 B8 7D E2 B3 
78 00 0A 20 0B 3C 81 43 00 00 3C 40 0A 00 B0 12 
00 84 3C 43 B0 12 B8 7D B0 12 A4 7F F2 D0 10 00 
01 00 31 50 06 00 39 41 3A 41 30 41 0A 12 09 12 
21 83 5F 42 9B 11 0F 93 2A 24 1F 83 4F 20 09 4D 
0A 4C 09 93 49 24 1E 42 A8 11 F2 B2 A1 11 0D 20 
1F 42 A8 11 0F 8E 3F 90 D2 07 F7 2B 81 43 00 00 
3C 40 06 00 B0 12 00 84 3E 3C F2 C2 A1 11 3C 40 
1F 00 B0 12 D6 75 1A 53 CA 4C FF FF 3C 40 1C 00 
3D 40 20 00 B0 12 80 74 19 83 DD 23 25 3C 0D 93 
23 24 1E 42 A8 11 F2 B0 10 00 03 00 11 20 E2 B3 
9A 11 0C 20 1F 42 A8 11 0F 8E 3F 90 D2 07 F3 2B 
81 43 00 00 3C 42 B0 12 00 84 15 3C E2 C3 9A 11 
1C 53 DC 42 7E 00 FF FF F2 D0 80 00 22 00 F2 F0 
7F 00 22 00 1D 83 DD 23 0C 43 08 3C 81 43 00 00 
1C 43 B0 12 00 84 D2 C3 9A 11 3C 43 21 53 39 41 
3A 41 30 41 0A 12 09 12 09 4D 0A 4C D2 B3 00 11 
56 20 0A 93 02 20 3A 40 96 86 82 49 20 11 82 4A 
1E 11 3C 40 22 11 CC 43 00 00 0E 93 06 24 3D 40 
17 00 B0 12 6A 7A C2 43 39 11 82 93 04 11 3F 20 
82 49 04 11 82 4A 02 11 3F 40 06 11 3E 40 22 11 
6D 4E CF 4D 00 00 0D 93 32 24 1E 53 6D 4E 1F 53 
CF 4D 00 00 0D 93 2B 24 1E 53 6D 4E 1F 53 CF 4D 
00 00 0D 93 24 24 1E 53 6D 4E 1F 53 CF 4D 00 00 
0D 93 1D 24 1E 53 6D 4E 1F 53 CF 4D 00 00 0D 93 
16 24 1E 53 6D 4E 1F 53 CF 4D 00 00 0D 93 0F 24 
1E 53 6D 4E 1F 53 CF 4D 00 00 0D 93 08 24 1E 53 
7D 4E 1F 53 1F 53 CF 4D FF FF 0D 93 C9 23 39 41 
3A 41 30 41 0A 12 09 12 08 12 07 12 06 12 05 12 
09 4E 05 4D 06 4C 07 45 07 93 02 20 0C 43 48 3C 
1A 42 64 11 18 42 A8 11 1C 43 B0 12 30 82 0A 93 
07 24 34 3C 0C 46 0D 4A B0 12 70 7F 06 5A 07 8A 
3C 40 03 00 B0 12 D6 75 3A 40 40 00 0A 8C 1A 20 
09 93 0A 24 1F 42 A8 11 0F 88 0E 49 2E 53 0F 9E 
03 2C E2 B3 A1 11 05 24 82 43 64 11 0C 45 0C 87 
1F 3C 1E 42 A8 11 1F 42 A8 11 0F 8E 3F 90 03 00 
DF 2F F9 3F 5F 42 4D 11 02 12 32 C2 03 43 82 4F 
30 01 82 4A 38 01 1A 42 3A 01 32 41 0A 97 CA 2B 
0C 46 0D 47 B0 12 70 7F 0A 87 82 4A 64 11 0C 45 
35 41 36 41 37 41 38 41 39 41 3A 41 30 41 0A 12 
09 12 08 12 07 12 06 12 05 12 09 4E 05 4D 06 4C 
07 45 07 93 02 20 0C 43 47 3C 1A 42 66 11 18 42 
A8 11 0A 93 07 24 36 3C 0C 46 0D 4A B0 12 9C 7B 
06 5A 07 8A 1C 43 B0 12 D6 75 0A 4C 0A 93 1E 20 
F2 F0 EF 00 A1 11 3C 40 30 00 3D 40 10 00 B0 12 
80 74 F2 B0 10 00 A1 11 ED 23 09 93 0A 24 1F 42 
A8 11 0F 88 0E 49 2E 53 0F 9E 03 2C E2 B3 A1 11 
F0 27 82 43 66 11 0C 45 0C 87 16 3C 5F 42 4E 11 
02 12 32 C2 03 43 82 4F 30 01 82 4A 38 01 1A 42 
3A 01 32 41 0A 97 C8 2B 0C 46 0D 47 B0 12 9C 7B 
0A 87 82 4A 66 11 0C 45 35 41 36 41 37 41 38 41 
39 41 3A 41 30 41 0A 12 09 12 3C 40 06 00 3D 40 
03 00 B0 12 80 74 3C 40 10 00 B0 12 D6 75 09 4C 
3C 40 0F 00 B0 12 D6 75 0A 4C 3C 40 06 00 0D 43 
B0 12 80 74 0F 49 0F DA 0F 93 06 24 82 59 56 11 
82 5A 54 11 E2 D2 3C 11 F2 B0 20 00 A2 11 30 24 
3C 40 38 00 B0 12 D6 75 0A 4C 3A B0 10 00 0A 24 
92 43 50 11 E2 D2 3C 11 3C 40 38 00 3D 40 EF FF 
B0 12 80 74 3A B0 20 00 12 24 3C 40 24 00 3D 40 
8A 00 B0 12 80 74 3C 40 24 00 3D 40 0A 00 B0 12 
80 74 3C 40 38 00 3D 40 DF FF B0 12 80 74 F2 F0 
DF 00 A2 11 3C 40 34 00 3D 40 20 00 B0 12 80 74 
39 41 3A 41 30 41 0A 12 09 12 08 12 07 12 06 12 
05 12 3C 40 6A 00 B0 12 D6 75 06 4C 3D 40 20 00 
0D D6 3C 40 6A 00 B0 12 80 74 F2 B0 20 00 1C 00 
02 24 07 43 0F 3C 3C 40 6E 00 3D 40 19 00 B0 12 
80 74 1E 42 70 01 1F 42 70 01 0F 8E 3F 90 FF 10 
FA 2B 17 43 1C 43 B0 12 3C 7D 05 4C 18 42 A8 11 
0A 43 09 4A 3C 40 18 00 B0 12 32 6F 09 5C 1A 53 
1F 42 A8 11 0F 88 3F 90 0C 00 F4 2B 0C 49 0D 4A 
B0 12 5E 83 0A 4C 0C 45 B0 12 3C 7D 07 93 05 24 
3C 40 6E 00 0D 43 B0 12 80 74 3C 40 6A 00 0D 46 
B0 12 80 74 0C 4A 35 41 36 41 37 41 38 41 39 41 
3A 41 30 41 0A 12 09 12 08 12 07 12 06 12 05 12 
04 12 09 4F 04 4D 05 4C 17 41 10 00 AE 53 00 00 
2F 4E 18 4F FE FF 08 93 3F 24 1A 45 04 00 0A 93 
07 38 0C 48 B0 12 AE 84 0A 9C 02 2C 0C 4A 03 3C 
0C 48 B0 12 AE 84 06 4C 1A 45 02 00 06 9A 01 38 
0A 46 89 5A 00 00 06 9A 0D 34 1F 43 2F B5 0A 20 
09 4A 09 86 19 93 06 38 7C 40 20 00 0D 44 87 12 
19 83 FA 23 16 93 08 38 18 83 09 46 18 53 6C 48 
0D 44 87 12 19 83 FA 23 06 9A 10 34 1F 43 2F B5 
0D 24 0A 86 1A 93 0A 38 7C 40 20 00 0D 44 87 12 
1A 83 FA 23 30 40 9E 84 4C 43 87 12 30 40 9E 84 
E2 B3 9E 11 27 20 0C 93 23 24 3C 40 5C 00 B0 12 
D6 75 3D 40 30 00 0D DC 3C 40 5C 00 B0 12 80 74 
3C 40 5D 00 B0 12 D6 75 3D 40 71 00 0D DC 3C 40 
5D 00 B0 12 80 74 3C 40 6A 00 B0 12 D6 75 3D 40 
40 00 0D DC 3C 40 6A 00 B0 12 80 74 E2 D3 9E 11 
0C 43 30 41 0C 93 23 20 3C 40 5C 00 B0 12 D6 75 
3D 40 CF FF 0D FC 3C 40 5C 00 B0 12 80 74 3C 40 
5D 00 B0 12 D6 75 3D 40 8E FF 0D FC 3C 40 5D 00 
B0 12 80 74 3C 40 6A 00 B0 12 D6 75 3D 40 BF FF 
0D FC 3C 40 6A 00 B0 12 80 74 E2 C3 9E 11 1C 43 
30 41 0A 12 09 12 08 12 21 83 09 4C 5A 42 9E 11 
1A F3 1D 43 0D D9 3C 40 74 00 B0 12 80 74 0A 93 
08 20 1E 42 70 01 1F 42 70 01 0F 8E 3F 90 10 00 
FA 2B 3D 40 03 00 0D D9 3C 40 74 00 B0 12 80 74 
1E 42 70 01 1F 42 70 01 0F 8E 3F 90 03 00 FA 2B 
19 42 A8 11 3C 40 75 00 B0 12 D6 75 08 4C 38 B0 
20 00 0E 20 1F 42 A8 11 0F 89 3F 90 66 00 F2 2B 
81 43 00 00 3C 40 0A 00 B0 12 12 84 08 43 02 3C 
38 F0 1F 00 3C 40 74 00 0D 4A B0 12 80 74 0C 48 
21 53 38 41 39 41 3A 41 30 41 0A 12 21 83 0A 4C 
0A 93 05 20 3C 40 38 00 B0 12 D6 75 0A 4C 2A B3 
12 24 81 43 00 00 3C 40 0C 00 B0 12 00 84 3C 40 
29 00 3D 40 10 00 B0 12 80 74 3C 40 38 00 3D 40 
FD FF B0 12 80 74 1A B3 0C 24 3C 40 38 00 3D 40 
FE FF B0 12 80 74 81 43 00 00 3C 40 0F 00 B0 12 
00 84 3A B0 40 00 17 24 3C 40 C0 00 3D 40 80 00 
B0 12 80 74 3C 40 5A 00 3D 40 0F 00 B0 12 80 74 
3C 40 5B 00 3D 40 0F 00 B0 12 80 74 3C 40 C0 00 
0D 43 B0 12 80 74 0C 4A 21 53 3A 41 30 41 0C 93 
45 20 5F 42 95 11 1F 83 C2 4F 95 11 4F 93 3E 20 
E2 42 95 11 5F 42 96 11 1F 83 C2 4F 96 11 4F 93 
0C 20 F2 40 0F 00 96 11 C2 93 99 11 03 20 F2 F0 
EF 00 1D 00 F2 F0 EF 00 98 11 D2 B3 94 11 0A 24 
3C 40 03 00 B0 12 D6 75 0C 93 04 20 D2 D3 97 11 
D2 C3 94 11 E2 B3 94 11 09 24 1C 43 B0 12 D6 75 
0C 93 04 20 E2 D3 97 11 E2 C3 94 11 5F 42 99 11 
4F 93 03 20 D2 D2 98 11 1D 00 D2 42 97 11 98 11 
7F 90 03 00 03 20 F2 E0 17 00 1D 00 30 41 0A 12 
21 83 0A 4C F2 C2 A2 11 3C 40 2A 00 3D 42 B0 12 
80 74 3C 40 29 00 2D 43 B0 12 80 74 2A B2 05 24 
3C 40 25 00 0D 43 B0 12 80 74 1E 42 A8 11 F2 B2 
A2 11 0C 20 1F 42 A8 11 0F 8E 3F 90 EA 03 F7 2B 
81 43 00 00 3C 40 07 00 B0 12 12 84 3C 40 29 00 
0D 43 B0 12 80 74 1A B3 04 24 3C 40 20 00 B0 12 
76 79 2A B3 0A 24 3C 40 40 00 B0 12 76 79 3C 40 
2E 00 3D 40 EF FF B0 12 80 74 E2 C3 A1 11 F2 F0 
F3 00 A3 11 21 53 3A 41 30 41 0A 12 21 83 5F 4C 
03 00 0A 43 4A EF 0A EF 8A 10 4F 4F 8F 10 5B 4C 
02 00 0F DB 0A 4F 0F 43 5B 4C 01 00 8B 10 0F DB 
6B 4C 0F DB 3A 90 56 4E 03 20 3F 90 20 4D 07 24 
81 43 00 00 1C 43 B0 12 24 84 3C 43 21 3C 5B 4C 
05 00 4F 4B 8F 10 5B 4C 04 00 0B DF 0B 9E 07 24 
81 43 00 00 2C 43 B0 12 24 84 3C 43 11 3C 5F 4C 
07 00 8F 10 5E 4C 06 00 0F DE 0F 9D 08 2C 81 43 
00 00 3C 40 03 00 B0 12 24 84 3C 43 01 3C 0C 43 
21 53 3A 41 30 41 0A 12 09 12 08 12 3F 40 00 00 
3F 90 00 00 04 24 3C 40 00 00 B0 12 1C 78 19 42 
20 01 B2 40 80 5A 20 01 3F 40 F0 86 3F 90 F6 86 
16 24 3F 40 FA 86 3F 90 02 87 11 24 3A 40 02 87 
3A 80 FA 86 0A 11 0A 11 38 40 FA 86 3C 48 7F 4C 
0F 5F 1F 4F F0 86 3D 48 8F 12 1A 83 F7 23 79 C2 
39 D0 08 5A 82 49 20 01 B0 12 0E 85 3F 40 00 00 
3F 90 00 00 08 24 3A 40 00 00 02 3C 3F 4A 8F 12 
3A 90 00 00 FB 23 30 40 A6 84 0A 12 21 82 D2 C3 
A2 11 3C 40 29 00 2D 42 B0 12 80 74 1E 42 A8 11 
D2 B3 A2 11 0F 20 1F 42 A8 11 0F 8E 3F 90 66 00 
F7 2B B1 40 D6 86 00 00 A1 42 02 00 3C 40 09 00 
B0 12 12 84 3C 40 56 00 1D 43 B0 12 80 74 3A 40 
14 00 1E 42 70 01 1F 42 70 01 0F 8E 3F 90 E9 03 
FA 2B 3C 40 56 00 B0 12 D6 75 2C B2 07 20 1A 83 
F0 23 81 43 00 00 3C 42 B0 12 12 84 3C 40 56 00 
0D 43 B0 12 80 74 21 52 3A 41 30 41 0A 12 D2 C3 
2D 00 F2 D0 10 00 19 00 D2 B3 28 00 FD 27 3C 40 
6F 00 0D 43 B0 12 80 74 3C 40 6E 00 1D 43 B0 12 
80 74 1A 42 70 01 1F 42 70 01 0F 8A 3F 90 A5 06 
FA 2B 3C 40 6E 00 3D 40 31 00 B0 12 80 74 1F 42 
70 01 0F 8A 3F 90 C2 07 FA 2B 3C 40 74 00 3D 40 
19 00 B0 12 80 74 1F 42 70 01 0F 8A 3F 90 D1 07 
FA 2B 3C 40 37 00 B0 12 D6 75 3C B0 10 00 03 24 
0C 43 B0 12 CA 6F 3A 41 30 41 0A 12 09 12 08 12 
0A 4C 78 4A 09 43 11 3C 0E 4D 0E 8B 1E 83 1D 53 
FD 4E FF FF 1F 83 FB 23 03 3C 1D 53 FD 4A FF FF 
12 C3 08 10 19 53 39 92 EC 37 18 B3 F6 23 7B 4A 
7F 4A 0C 4B B0 12 0A 81 0B 4C 0C 4F B0 12 40 7B 
3C F0 0F 00 0B DC 3F F0 0F 00 3F 50 03 00 3F 90 
12 00 0C 20 7E 4A 3E B0 80 00 07 24 7C 4A 4C 4C 
B0 12 04 81 3E F0 7F 00 0E DC 0F 5E 3B 90 FF 0F 
CB 23 30 40 A6 84 0A 12 09 12 09 4C 6D 49 3C 40 
19 00 B0 12 80 74 5D 49 04 00 3C 40 05 00 B0 12 
80 74 5D 49 02 00 4A 4D 4D 4D 2C 42 B0 12 80 74 
C2 4A 4D 11 5D 49 03 00 4A 4D 4D 4D 3D D0 10 00 
2C 43 B0 12 80 74 C2 4A 4E 11 3C 40 17 00 B0 12 
D6 75 0A 4C 5D 49 01 00 3C 40 17 00 B0 12 80 74 
3A F0 03 00 5F 49 01 00 3F F0 03 00 0F 9A 03 24 
2C 43 B0 12 3C 81 E2 D3 3C 11 39 41 3A 41 30 41 
0A 12 09 12 08 12 08 4D 09 4C 0A 42 3A F2 32 C2 
03 43 39 B0 80 80 08 20 39 90 2B 00 11 24 D2 93 
9F 11 17 24 1C 43 09 3C 39 F0 7F 00 39 90 2B 00 
07 24 E2 93 9F 11 0D 24 2C 43 B0 12 1A 7A 09 3C 
C2 48 A0 11 18 B3 02 24 6F 43 01 3C 5F 43 C2 4F 
9F 11 D2 C3 19 00 C2 49 77 00 F2 B0 80 FF 02 00 
FC 27 C2 48 77 00 D2 B3 71 00 FD 27 D2 D3 19 00 
02 DA 38 41 39 41 3A 41 30 41 0A 12 0A 4C 3C 40 
16 00 B0 12 D6 75 CA 4C 03 00 3C 40 13 00 B0 12 
D6 75 CA 4C 02 00 3C 40 14 00 B0 12 D6 75 CA 4C 
01 00 3C 40 15 00 B0 12 D6 75 CA 4C 00 00 3C 40 
19 00 B0 12 D6 75 CA 4C 04 00 3C 40 17 00 B0 12 
D6 75 CA 4C 05 00 2C 42 B0 12 D6 75 CA 4C 06 00 
2C 43 B0 12 D6 75 7C F0 0F 00 CA 4C 07 00 3C 40 
05 00 B0 12 D6 75 CA 4C 08 00 3A 41 30 41 31 80 
06 00 D2 C3 9A 11 D1 42 9D 11 02 00 C1 4D 04 00 
8D 10 C1 4D 05 00 4C 93 03 20 C1 43 03 00 03 3C 
F1 40 7F 00 03 00 5F 42 9B 11 0F 93 03 24 1F 83 
09 24 10 3C B0 12 08 80 0C 41 2C 53 2D 42 B0 12 
FA 7C 0E 3C E2 D2 A1 11 0C 41 2C 53 2D 42 B0 12 
06 77 06 3C 81 43 00 00 1C 43 B0 12 00 84 3C 43 
31 50 06 00 30 41 0A 12 09 12 0A 4C 09 42 39 F2 
32 C2 03 43 3A B0 80 80 08 20 D2 93 9F 11 10 24 
3A 90 2B 00 0D 24 1C 43 09 3C 3A F0 7F 00 E2 93 
9F 11 06 24 3A 90 2B 00 03 24 2C 43 B0 12 1A 7A 
D2 C3 19 00 7A D0 80 00 C2 4A 77 00 F2 B0 80 FF 
02 00 FC 27 C2 43 77 00 D2 B3 71 00 FD 27 5C 42 
76 00 D2 D3 19 00 02 D9 39 41 3A 41 30 41 0C 93 
25 24 3C 40 19 00 B0 12 80 74 E2 D3 3C 11 3C 40 
17 00 B0 12 D6 75 3C F0 03 00 3C 90 03 00 07 24 
3C 40 BE 00 3D 40 1C 00 B0 12 80 74 06 3C 3C 40 
BE 00 3D 40 18 00 B0 12 80 74 3C 40 6E 00 3D 40 
07 00 B0 12 80 74 0C 43 30 40 30 82 3C 40 6E 00 
0D 43 B0 12 80 74 3C 40 BE 00 0D 43 B0 12 80 74 
30 40 D2 84 0A 12 21 83 3C 40 78 00 3D 40 1A 00 
B0 12 80 74 3C 40 6E 00 1D 43 B0 12 80 74 1E 42 
70 01 1F 42 70 01 0F 8E 3F 90 D1 07 FA 2B 3C 40 
78 00 B0 12 D6 75 0A 4C 3C 40 78 00 0D 4A B0 12 
80 74 3C 40 6E 00 0D 43 B0 12 80 74 3A B0 40 00 
06 20 81 43 00 00 3C 40 12 00 B0 12 12 84 0C 4A 
21 53 3A 41 30 41 0A 12 09 12 21 83 09 4D 1C 83 
0A 4C 09 93 23 24 1E 42 A8 11 E2 B2 A1 11 0E 20 
1F 42 A8 11 0F 8E 3F 90 D2 07 F7 2B 81 43 00 00 
3C 40 07 00 B0 12 00 84 3C 43 11 3C E2 C2 A1 11 
1A 53 6D 4A 3C 40 1D 00 B0 12 80 74 3C 40 1C 00 
3D 40 1F 00 B0 12 80 74 19 83 DD 23 0C 43 21 53 
39 41 3A 41 30 41 C2 93 3D 11 2A 20 D2 B3 62 11 
0B 24 B0 12 0C 73 3C 40 47 00 3D 42 B0 12 80 74 
F2 42 62 11 B0 12 88 83 B0 12 3C 7F 5D 42 42 11 
3C 40 16 00 B0 12 80 74 5D 42 41 11 3C 40 13 00 
B0 12 80 74 5D 42 40 11 3C 40 14 00 B0 12 80 74 
5D 42 3F 11 3C 40 15 00 B0 12 80 74 E2 D3 3C 11 
30 41 C2 43 7E 11 C2 43 7F 11 C2 43 80 11 C2 43 
81 11 C2 43 82 11 C2 43 83 11 C2 43 84 11 C2 43 
85 11 C2 43 86 11 C2 43 87 11 C2 43 88 11 C2 43 
89 11 C2 43 8A 11 C2 43 8B 11 C2 43 8C 11 C2 43 
8D 11 C2 43 8E 11 C2 43 8F 11 C2 43 90 11 C2 43 
91 11 C2 43 92 11 C2 43 93 11 30 41 0A 12 09 12 
09 4C 1B 49 02 00 0A 43 22 3C 0C 4A 3D 40 06 00 
B0 12 EC 83 0C 59 1E 4C 08 00 1D 4C 04 00 1F 4C 
06 00 0C 4F 0E 93 0E 20 3E 40 F0 86 3E 90 F6 86 
0D 24 6E 4D 0E 5E 1E 4E F0 86 1D 53 0C 4D 0D 4F 
8E 12 02 3C B0 12 6C 84 1B 49 02 00 1A 53 0A 9B 
DC 2B 30 40 A8 84 0A 12 09 12 09 43 0A 43 1B 43 
0F 93 04 24 09 4D 0D 4C 0C 43 0D 3C 0C 5C 0D 6D 
09 69 09 8E 04 28 1C D3 0B 5B F8 2B 03 3C 09 5E 
0B 5B F4 2B 1B 43 0C 5C 0D 6D 09 69 0A 6A 09 8E 
0A 7F 04 28 1C D3 0B 5B F6 2B 04 3C 09 5E 0A 6F 
0B 5B F1 2B 0E 49 0F 4A 39 41 3A 41 30 41 0A 12 
09 12 21 83 0A 4D 09 4C 4C 43 B0 12 6E 75 0C 93 
02 24 3C 43 1B 3C 0A 93 02 20 0C 43 17 3C 5F 42 
9B 11 0F 93 03 24 1F 83 06 24 0A 3C 0C 49 0D 4A 
B0 12 FA 7C 0B 3C 0C 49 0D 4A B0 12 06 77 06 3C 
81 43 00 00 1C 43 B0 12 00 84 3C 43 21 53 39 41 
3A 41 30 41 C2 93 3D 11 0E 24 E2 B3 3E 11 09 24 
3C 40 47 00 3D 40 09 00 B0 12 80 74 F2 40 09 00 
62 11 B0 12 50 82 F2 F0 E1 00 3A 11 B0 12 FE 84 
B0 12 D2 84 B0 12 C8 84 82 43 64 11 82 43 66 11 
F2 40 14 00 5F 11 F2 F0 FC 00 5E 11 C2 43 68 11 
C2 43 3D 11 30 41 0A 12 21 82 0A 4C D2 C3 A2 11 
3C 40 29 00 0D 4A B0 12 80 74 3A B2 03 24 3D 40 
98 3A 02 3C 3D 40 64 00 1E 42 A8 11 D2 B3 A2 11 
10 20 1F 42 A8 11 0F 8E 0C 4D 2C 53 0F 9C F6 2B 
B1 40 D6 86 00 00 81 4A 02 00 3C 40 09 00 B0 12 
12 84 21 52 3A 41 30 41 0A 12 0B 4C 0C 43 0B 3C 
3D 40 0A 00 B0 12 EC 83 0C 5F 3C 80 30 00 1B 53 
6F 4B 12 3C 1B 53 6F 4B 4E 4F FE B2 11 85 FA 23 
4F 4F 3F 90 2D 00 05 24 0A 43 3F 90 2B 00 04 20 
01 3C 1A 43 1B 53 6F 4B EF B2 11 85 E1 23 0A 93 
02 24 3C E3 1C 53 3A 41 30 41 0A 12 0A 4C 5F 42 
9F 11 4F 93 10 20 3C 40 2B 00 B0 12 D6 75 C2 4C 
A0 11 5C B3 05 20 D2 43 9F 11 1A 93 07 20 13 3C 
E2 43 9F 11 6F 43 4F 4F 0A 9F 0D 24 2A 93 03 24 
D2 C3 A0 11 02 3C D2 D3 A0 11 5D 42 A0 11 3C 40 
2B 00 B0 12 80 74 3A 41 30 41 0A 12 31 80 0A 00 
0A 4D 0D 4F 81 4E 08 00 0A 93 03 24 0F 4A 1F 83 
01 3C 0F 43 81 4F 04 00 81 43 06 00 81 4C 02 00 
B1 40 06 7F 00 00 0C 41 3C 52 0E 41 2E 53 3F 40 
8C 82 B0 12 78 54 0A 93 04 24 1F 41 02 00 CF 43 
00 00 31 50 0A 00 3A 41 30 41 0A 12 21 83 3C 40 
56 00 1D 43 B0 12 80 74 3A 40 14 00 1E 42 70 01 
1F 42 70 01 0F 8E 3F 90 E9 03 FA 2B 3C 40 56 00 
B0 12 D6 75 2C B2 07 20 1A 83 F0 23 81 43 00 00 
3C 42 B0 12 12 84 3C 40 56 00 0D 43 B0 12 80 74 
21 53 3A 41 30 41 3D F0 0F 00 3D E0 0F 00 0D 5D 
0D 5D 00 5D 12 C3 0C 10 12 C3 0C 10 12 C3 0C 10 
12 C3 0C 10 12 C3 0C 10 12 C3 0C 10 12 C3 0C 10 
12 C3 0C 10 12 C3 0C 10 12 C3 0C 10 12 C3 0C 10 
12 C3 0C 10 12 C3 0C 10 12 C3 0C 10 12 C3 0C 10 
30 41 7F 40 03 00 C2 4F 70 11 C2 4F 71 11 E2 43 
6F 11 C2 43 6E 11 C2 4F 74 11 C2 4F 75 11 E2 43 
73 11 C2 43 72 11 C2 4F 78 11 C2 4F 79 11 E2 43 
77 11 C2 43 76 11 C2 4F 7C 11 C2 4F 7D 11 E2 43 
7B 11 C2 43 7A 11 D2 43 61 11 30 41 0F 42 3F F2 
32 C2 03 43 D2 C3 19 00 F2 40 AD 00 77 00 F2 B0 
80 FF 02 00 FC 27 C2 43 77 00 09 3C D2 B3 71 00 
FD 27 1C 53 DC 42 76 00 FF FF C2 43 77 00 1D 83 
F5 23 D2 B3 71 00 FD 27 DC 42 76 00 00 00 D2 D3 
19 00 02 DF 30 41 0A 12 0A 4C 5F 42 3D 11 CA 4F 
01 00 0F 93 02 20 E2 C3 3C 11 DA 42 3C 11 00 00 
B0 12 E4 84 0C 93 02 24 F2 C2 3C 11 B0 12 DC 84 
0C 93 03 24 F2 F0 EF 00 3C 11 B0 12 F2 84 8C 93 
02 00 02 24 DA D3 00 00 3A 41 30 41 07 12 07 4C 
0D 49 0E 4A 0F 4B 37 90 11 00 0E 38 0B 47 1B 83 
0C 4B B0 12 DE 80 3B F0 F0 FF 07 8B 08 4D 0D 4E 
0E 4F 0F 43 1C 83 FA 23 17 93 08 38 0C 47 12 C3 
0F 10 0E 10 0D 10 08 10 1C 83 F9 23 0C 48 37 41 
30 41 21 83 B0 12 D6 7F 3C 40 5F 00 3D 40 52 00 
B0 12 80 74 F2 D0 10 00 19 00 1E 42 A8 11 F2 B2 
A2 11 0C 20 1F 42 A8 11 0F 8E 3F 90 FC 00 F7 2B 
81 43 00 00 3C 40 0B 00 B0 12 12 84 F2 F0 EF 00 
19 00 21 53 30 41 07 12 07 4C 0D 49 0E 4A 0F 4B 
37 90 11 00 0E 38 0F 47 1F 83 0C 4F B0 12 DE 80 
3F F0 F0 FF 07 8F 0F 4E 0E 4D 0D 48 08 43 1C 83 
FA 23 17 93 07 38 0C 47 08 58 0D 6D 0E 6E 0F 6F 
1C 83 FA 23 0C 48 37 41 30 41 21 83 0D 93 1B 24 
1E 42 A8 11 F2 B0 80 FF 23 00 0E 20 1F 42 A8 11 
0F 8E 3F 90 D2 07 F6 2B 81 43 00 00 3C 40 09 00 
B0 12 00 84 3C 43 08 3C F2 F0 7F 00 23 00 F2 4C 
7F 00 1D 83 E5 23 0C 43 21 53 30 41 D2 B3 9E 11 
13 20 0C 93 0F 24 3C 40 74 00 1D 43 B0 12 80 74 
D2 D3 9E 11 1E 42 70 01 1F 42 70 01 0F 8E 3F 90 
10 00 FA 2B 0C 43 30 41 0C 93 07 20 3C 40 74 00 
0D 43 B0 12 80 74 D2 C3 9E 11 1C 43 30 41 3C 40 
25 00 3D 40 7F 00 B0 12 80 74 E2 C2 A2 11 3C 40 
2A 00 3D 40 80 00 B0 12 80 74 1E 42 A8 11 E2 B2 
A2 11 02 24 1C 43 30 41 1F 42 A8 11 0F 8E 3F 90 
2A 00 F5 2B 0C 43 30 41 0A 12 09 12 31 82 0A 4C 
1C 43 B0 12 8E 84 0A 93 0D 24 3A 92 02 2C 09 4A 
01 3C 39 42 0C 41 0D 49 B0 12 8C 69 0C 93 02 20 
0A 89 F3 23 0C 43 B0 12 8E 84 31 52 39 41 3A 41 
30 41 E2 93 3D 11 02 28 B0 12 24 79 B0 12 66 77 
3C 40 1A 00 3D 40 0F 00 B0 12 80 74 3C 40 48 11 
B0 12 06 74 F2 40 05 00 3D 11 3C 40 2A 00 0D 43 
B0 12 80 74 D2 D3 5E 11 30 41 0A 12 09 12 08 12 
07 12 08 4E 09 4D 07 4C 0A 42 3A F2 32 C2 03 43 
B0 12 D6 75 0D 4C 08 93 02 20 0D C9 01 3C 0D D9 
0C 47 B0 12 80 74 02 DA 37 41 38 41 39 41 3A 41 
30 41 31 80 06 00 91 41 08 00 02 00 81 4C 04 00 
B1 40 14 83 00 00 0D 41 3D 50 0A 00 0C 41 2C 53 
0E 41 2E 52 3F 40 36 84 B0 12 78 54 1F 41 04 00 
CF 43 00 00 31 50 06 00 30 41 0F 4C 0F 93 0D 24 
1F 83 07 24 1F 83 2F 93 12 2C F2 F0 E8 00 1D 00 
0C 3C F2 D0 17 00 1D 00 08 3C 3F 40 E8 00 5F F2 
1D 00 5F D2 97 11 C2 4F 1D 00 C2 4C 99 11 30 41 
C2 43 70 00 D2 43 70 00 0F 4C 7F D0 05 00 C2 4F 
70 00 7C F0 C0 00 7C D0 12 00 C2 4C 71 00 C2 4D 
74 00 C2 43 75 00 C2 43 73 00 F2 D0 40 00 04 00 
D2 C3 70 00 30 41 0A 12 09 12 08 12 08 4E 09 4D 
0D 4C 1A 49 02 00 1F 49 04 00 0F 9A 0A 2C 0A 8F 
0A 98 01 28 0A 48 2C 49 0E 4A B0 12 6C 84 89 5A 
00 00 89 58 04 00 0C 48 30 40 A6 84 21 83 F2 D0 
10 00 19 00 1E 42 A8 11 F2 B2 A2 11 0C 20 1F 42 
A8 11 0F 8E 3F 90 FC 00 F7 2B 81 43 00 00 3C 40 
0B 00 B0 12 12 84 F2 F0 EF 00 19 00 21 53 30 41 
0F 42 3F F2 32 C2 03 43 D2 C3 19 00 F2 40 2D 00 
77 00 0D 93 08 24 F2 B0 80 FF 02 00 FC 27 F2 4C 
77 00 1D 83 F8 23 D2 B3 71 00 FD 27 D2 D3 19 00 
02 DF 30 41 D2 B3 79 00 03 20 E2 B3 78 00 FA 23 
D2 D3 78 00 F2 40 15 00 78 00 F2 40 42 00 79 00 
C2 43 7B 00 F2 D0 10 00 05 00 D2 C3 78 00 F2 D0 
10 00 01 00 30 41 3C 40 31 00 3D 40 FF 00 B0 12 
80 74 3C 40 35 00 3D 40 FF 00 B0 12 80 74 F2 F0 
FC 00 9E 11 C2 43 9F 11 F2 C2 A2 11 E2 C3 A1 11 
F2 F0 F3 00 A3 11 30 41 D2 D3 78 00 F2 40 17 00 
78 00 F2 40 52 00 79 00 E2 43 7C 00 C2 43 7D 00 
C2 43 7B 00 F2 D0 10 00 05 00 D2 C3 78 00 F2 D0 
80 00 23 00 30 41 0A 12 0A 4C F2 90 06 00 3D 11 
02 24 B0 12 24 79 3C 40 68 11 0D 4A 3E 40 06 00 
B0 12 6C 84 1F 43 6F BA 03 24 F2 D0 10 00 3A 11 
3A 41 30 41 3E 40 01 11 3D 40 3A 00 3F 40 00 11 
CF 43 00 00 CE 43 00 00 2E 53 2F 53 2D 83 F8 23 
B2 40 96 86 02 11 B2 40 96 86 1E 11 0C 43 30 41 
21 83 5F 42 9B 11 0F 93 03 24 1F 83 04 24 06 3C 
B0 12 FA 7C 09 3C B0 12 06 77 06 3C 81 43 00 00 
1C 43 B0 12 00 84 3C 43 21 53 30 41 3D F0 0F 00 
3D E0 0F 00 0D 5D 00 5D 0C 11 0C 11 0C 11 0C 11 
0C 11 0C 11 0C 11 0C 11 0C 11 0C 11 0C 11 0C 11 
0C 11 0C 11 0C 11 30 41 3D F0 0F 00 3D E0 0F 00 
0D 5D 00 5D 0C 5C 0C 5C 0C 5C 0C 5C 0C 5C 0C 5C 
0C 5C 0C 5C 0C 5C 0C 5C 0C 5C 0C 5C 0C 5C 0C 5C 
0C 5C 30 41 0A 12 21 83 C1 4D 00 00 0A 4C 0C 41 
1D 43 B0 12 90 80 0C 93 02 24 3C 43 04 3C 6D 41 
0C 4A B0 12 90 80 21 53 3A 41 30 41 0A 12 0A 4C 
4D 4A 3C 40 94 00 B0 12 80 74 0D 4A 8D 10 4D 4D 
3C 40 95 00 B0 12 80 74 3C 42 B0 12 76 79 3A 41 
30 41 0A 12 0A 4C E2 93 3D 11 04 28 B0 12 24 79 
B0 12 66 77 3C 40 19 00 0D 4A B0 12 80 74 E2 D3 
3C 11 3A 41 30 41 C2 43 94 11 C2 43 98 11 C2 43 
99 11 E2 42 95 11 F2 40 0F 00 96 11 F2 40 17 00 
97 11 F2 D0 17 00 1D 00 30 41 0F 12 A2 53 A8 11 
B2 50 D0 07 72 01 1F 42 72 01 1F 82 70 01 1F 83 
3F 90 D0 07 02 28 92 D3 62 01 3F 41 00 13 C2 93 
99 11 02 20 E2 C3 1D 00 E2 C3 97 11 E2 C3 98 11 
0C 93 02 24 E2 D3 94 11 F2 D0 10 00 3C 11 30 41 
C2 43 9A 11 C2 43 9B 11 C2 43 9D 11 D2 43 9C 11 
B0 12 48 83 0C 93 02 24 3C 43 30 41 0C 43 30 41 
0F 12 0E 12 0D 12 0C 12 0B 12 D2 B3 2B 00 02 24 
B0 12 28 50 3B 41 3C 41 3D 41 3E 41 3F 41 00 13 
C2 93 99 11 02 20 D2 C3 1D 00 D2 C3 97 11 D2 C3 
98 11 0C 93 02 24 D2 D3 94 11 F2 D2 3C 11 30 41 
B0 12 D6 7F F2 F0 EF 00 19 00 3C 40 2A 00 0D 43 
B0 12 80 74 3C 40 29 00 2D 43 30 40 80 74 C2 43 
A8 11 C2 43 A9 11 B2 40 10 00 62 01 B2 40 D0 07 
72 01 B2 40 E0 01 60 01 0C 43 30 41 9D 9D 02 00 
04 00 07 2C 2E 4D 0F 4E 1F 53 8D 4F 00 00 CE 4C 
00 00 9D 53 04 00 4C 4C 30 41 C2 43 9E 11 C2 43 
9F 11 C2 43 A0 11 C2 43 A1 11 C2 43 A2 11 C2 43 
A3 11 0C 43 30 41 21 83 81 43 00 00 3C 40 03 00 
B0 12 00 84 3C 43 B0 12 B8 7D 3C 43 21 53 30 41 
0A 12 0D 4C 0A 42 3A F2 32 C2 03 43 3C 40 92 00 
B0 12 D0 7E 02 DA 3A 41 30 41 31 40 00 39 B0 12 
0A 85 0C 93 02 24 B0 12 06 72 0C 43 B0 12 D2 5B 
B0 12 04 85 0A 12 09 12 0A 4E 09 4D 0D 4C 2C 49 
B0 12 6C 84 89 5A 00 00 0C 4A 30 40 A8 84 1F 93 
09 38 6B 4D 1C 53 CC 4B FF FF 0B 9E 04 24 1D 53 
1F 83 F7 23 0C 43 30 41 F2 D0 80 00 24 00 B0 12 
A4 7F E2 D3 33 00 F2 D2 33 00 0C 43 30 41 0E 43 
0F 4C 1C 43 0F 5F 0E 6E 0E 9D 01 28 0E 8D 0C 6C 
F9 2B 30 41 0F 43 1D 92 04 11 04 20 1C 92 02 11 
01 20 1F 43 0C 4F 30 41 B0 12 50 82 D2 B3 28 00 
FD 23 D2 C3 2B 00 D2 D3 2D 00 30 41 C2 93 99 11 
02 20 E2 C2 1D 00 E2 C2 97 11 E2 C2 98 11 30 41 
B0 12 D0 7E E2 D3 1B 00 E2 D2 1B 00 F2 D2 1B 00 
0C 43 30 41 1F 4C 01 00 0F 93 05 24 1D 53 CD 43 
FF FF 1F 83 FB 23 30 41 0F 4C 0E 93 06 24 4D 4D 
1F 53 CF 4D FF FF 1E 83 FB 23 30 41 02 12 32 C2 
03 43 82 4C 30 01 82 4D 38 01 1C 42 3A 01 00 13 
0D 4C 0F 41 2F 52 1C 42 AA 11 1E 41 02 00 30 40 
54 6A 0D 4C 0F 41 2F 52 1C 42 AC 11 1E 41 02 00 
30 40 54 6A 0D 4C 0F 41 2F 52 1C 42 AE 11 1E 41 
02 00 30 40 54 6A 2E 4D 0F 4E 1F 53 8D 4F 00 00 
CE 4C 00 00 4C 4C 30 41 0F 4C 0C 4D 3D 40 03 00 
0D 5F 1E 4F 01 00 30 40 6C 84 3E F0 1F 00 05 24 
12 C3 0D 10 0C 10 1E 83 FB 23 30 41 0F 4C 0E 93 
05 24 1F 53 FF 4D FF FF 1E 83 FB 23 30 41 82 43 
04 11 B2 40 96 86 02 11 C2 43 06 11 30 41 0C 93 
03 20 D2 C3 00 11 30 41 D2 D3 00 11 30 41 34 41 
35 41 36 41 37 41 38 41 39 41 3A 41 30 41 3F 43 
1F 53 7E 4C 0E 93 FC 23 0C 4F 30 41 F2 F0 EF 00 
01 00 D2 D3 3A 11 00 13 E2 D3 97 11 E2 C3 94 11 
30 41 D2 D3 97 11 D2 C3 94 11 30 41 5C 42 97 11 
2C F3 30 41 5C 42 97 11 1C F3 30 41 3C 40 1E 11 
30 41 3C 40 02 11 30 41 E2 C3 3A 11 30 41 E2 D2 
97 11 30 41 03 43 FF 3F 03 43 1C 43 30 41 30 41 
00 20 20 20 20 20 20 20 20 20 28 28 28 28 28 20 
20 20 20 20 20 20 20 20 20 20 20 20 20 20 20 20 
20 88 10 10 10 10 10 10 10 10 10 10 10 10 10 10 
10 44 44 44 44 44 44 44 44 44 44 10 10 10 10 10 
10 10 41 41 41 41 41 41 01 01 01 01 01 01 01 01 
01 01 01 01 01 01 01 01 01 01 01 01 10 10 10 10 
10 10 42 42 42 42 42 42 02 02 02 02 02 02 02 02 
02 02 02 02 02 02 02 02 02 02 02 02 10 10 10 10 
20 00 00 00 00 00 00 00 00 00 00 00 00 00 00 00 
00 00 00 00 00 00 00 00 00 00 00 00 00 00 00 00 
00 00 00 00 00 00 00 00 00 00 00 00 00 00 00 00 
00 00 00 00 00 00 00 00 00 00 00 00 00 00 00 00 
00 00 00 00 00 00 00 00 00 00 00 00 00 00 00 00 
00 00 00 00 00 00 00 00 00 00 00 00 00 00 00 00 
00 00 00 00 00 00 00 00 00 00 00 00 00 00 00 00 
00 00 00 00 00 00 00 00 00 00 00 00 00 00 00 00 
00 00 00 00 5A 4C 37 30 31 30 58 20 41 44 4B 20 
49 6D 70 6C 61 6E 74 00 25 75 00 00 41 49 4D 32 
30 30 00 00 3B 20 00 00 5A 4C 37 30 31 30 58 20 
41 44 4B 20 33 2E 31 2E 30 00 00 00 25 64 0C 25 
64 00 30 31 32 33 34 35 36 37 38 39 41 42 43 44 
45 46 00 00 30 31 32 33 34 35 36 37 38 39 61 62 
63 64 65 66 00 00 25 00 25 64 00 00 2E 00 3A 20 
00 00 45 72 72 6F 72 20 6F 6E 20 69 6D 70 6C 61 
6E 74 00 00 00 00 55 6E 73 70 65 63 69 66 69 65 
64 45 72 72 47 72 6F 75 70 00 4D 69 63 73 4C 69 
62 45 72 72 00 00 00 01 FF 03 02 04 06 05 07 09 
08 FF 49 6D 41 70 70 45 72 72 00 00 4E 76 6D 4C 
69 62 45 72 72 00 30 78 25 30 32 78 00 00 25 75 
00 00 01 02 04 08 02 00 06 00 C2 86 AA 86 CC 86 
C4 83 8A 73 48 84 00 00 AA 00 E6 86 AA 11 F6 86 
00 11 
@ffe2
10 82 
@ffe6
BC 84 
@ffec
AA 81 
@fffe
FA 82 
q
