^C:\_GIT\MANTOLES-DEV-BOX\.NET\34970-DAQ\C++CODE-FOR-34970A\SRC\A_SWITCH.CPP|C:\_GIT\MANTOLES-DEV-BOX\.NET\34970-DAQ\C++CODE-FOR-34970A\SRC\IDMM.CPP|C:\_GIT\MANTOLES-DEV-BOX\.NET\34970-DAQ\C++CODE-FOR-34970A\SRC\IO_UTIL.CPP|C:\_GIT\MANTOLES-DEV-BOX\.NET\34970-DAQ\C++CODE-FOR-34970A\SRC\MULTIFUNC.CPP|C:\_GIT\MANTOLES-DEV-BOX\.NET\34970-DAQ\C++CODE-FOR-34970A\SRC\SYST.CPP
C:\_GIT\MANTOLES-DEV-BOX\.NET\34970-DAQ\C++CODE-FOR-34970A\SRC\DEBUG\VC142.PDB
C:\_GIT\MANTOLES-DEV-BOX\.NET\34970-DAQ\C++CODE-FOR-34970A\SRC\DEBUG\VC142.IDB
^C:\_GIT\MANTOLES-DEV-BOX\.NET\34970-DAQ\C++CODE-FOR-34970A\SRC\A_SWITCH.CPP
C:\_GIT\MANTOLES-DEV-BOX\.NET\34970-DAQ\C++CODE-FOR-34970A\SRC\DEBUG\VC142.PDB
^C:\_GIT\MANTOLES-DEV-BOX\.NET\34970-DAQ\C++CODE-FOR-34970A\SRC\IDMM.CPP
C:\_GIT\MANTOLES-DEV-BOX\.NET\34970-DAQ\C++CODE-FOR-34970A\SRC\DEBUG\VC142.PDB
^C:\_GIT\MANTOLES-DEV-BOX\.NET\34970-DAQ\C++CODE-FOR-34970A\SRC\IO_UTIL.CPP
C:\_GIT\MANTOLES-DEV-BOX\.NET\34970-DAQ\C++CODE-FOR-34970A\SRC\DEBUG\VC142.PDB
^C:\_GIT\MANTOLES-DEV-BOX\.NET\34970-DAQ\C++CODE-FOR-34970A\SRC\MULTIFUNC.CPP
C:\_GIT\MANTOLES-DEV-BOX\.NET\34970-DAQ\C++CODE-FOR-34970A\SRC\DEBUG\VC142.PDB
^C:\_GIT\MANTOLES-DEV-BOX\.NET\34970-DAQ\C++CODE-FOR-34970A\SRC\SYST.CPP
C:\_GIT\MANTOLES-DEV-BOX\.NET\34970-DAQ\C++CODE-FOR-34970A\SRC\DEBUG\VC142.PDB
